{
    "state": "success",
    "sessionId": null,
    "class": "org.openqa.selenium.remote.Response",
    "value": {
        "element-6066-11e4-a52e-4f735466cecf": "cbf95827-3ae1-4e1b-b214-4bd140038377"
    },
    "status": 0
}