{
    "state": "success",
    "sessionId": null,
    "class": "org.openqa.selenium.remote.Response",
    "value": {
        "element-6066-11e4-a52e-4f735466cecf": "7b72bfa6-9f9a-4ced-a62c-55d84aec0e33"
    },
    "status": 0
}