{
    "state": "success",
    "sessionId": null,
    "class": "org.openqa.selenium.remote.Response",
    "value": [
        {
            "element-6066-11e4-a52e-4f735466cecf": "2721c1dc-3cba-46c7-9150-24074b703120"
        }
    ],
    "status": 0
}