{
    "state": "success",
    "sessionId": null,
    "class": "org.openqa.selenium.remote.Response",
    "value": {
        "element-6066-11e4-a52e-4f735466cecf": "20ee07d9-f54c-4fea-b65f-cbde472ed027"
    },
    "status": 0
}