{
    "state": "success",
    "sessionId": null,
    "class": "org.openqa.selenium.remote.Response",
    "value": [
        {
            "element-6066-11e4-a52e-4f735466cecf": "78c17bb1-6076-4ea5-bf07-0cf60fb428f4"
        }
    ],
    "status": 0
}