{
    "state": "success",
    "sessionId": null,
    "class": "org.openqa.selenium.remote.Response",
    "value": {
        "element-6066-11e4-a52e-4f735466cecf": "965d6c37-922d-4111-8c60-6d23bc983b92"
    },
    "status": 0
}