{
    "state": "success",
    "sessionId": null,
    "class": "org.openqa.selenium.remote.Response",
    "value": {
        "element-6066-11e4-a52e-4f735466cecf": "bc7ce1e9-2b60-4cdf-8e85-43692e99c5e2"
    },
    "status": 0
}