{
    "state": "success",
    "sessionId": null,
    "class": "org.openqa.selenium.remote.Response",
    "value": {
        "element-6066-11e4-a52e-4f735466cecf": "8e0cb3a6-2b67-4a42-8a20-b01f36dcf06e"
    },
    "status": 0
}