{
    "state": "success",
    "sessionId": null,
    "class": "org.openqa.selenium.remote.Response",
    "value": {
        "element-6066-11e4-a52e-4f735466cecf": "4cce66d4-1eac-4059-bd0b-05f6ddfeb4a4"
    },
    "status": 0
}