{
    "state": "success",
    "sessionId": null,
    "class": "org.openqa.selenium.remote.Response",
    "value": {
        "element-6066-11e4-a52e-4f735466cecf": "a97003d9-ee8a-44a2-a8df-bfac6011defb"
    },
    "status": 0
}