{
    "state": "success",
    "sessionId": null,
    "class": "org.openqa.selenium.remote.Response",
    "value": {
        "element-6066-11e4-a52e-4f735466cecf": "ad05ccf4-e483-4fae-af49-6158e84847de"
    },
    "status": 0
}