{
    "state": "success",
    "sessionId": null,
    "class": "org.openqa.selenium.remote.Response",
    "value": {
        "element-6066-11e4-a52e-4f735466cecf": "8480c414-da74-4fc9-a9b4-db07c0476dc6"
    },
    "status": 0
}