{
    "state": "success",
    "sessionId": null,
    "class": "org.openqa.selenium.remote.Response",
    "value": {
        "element-6066-11e4-a52e-4f735466cecf": "c4e75eb0-566e-497c-a1e3-7ebc3302c0b0"
    },
    "status": 0
}