{
    "state": "success",
    "sessionId": null,
    "class": "org.openqa.selenium.remote.Response",
    "value": [
        {
            "element-6066-11e4-a52e-4f735466cecf": "36114d63-ec54-49a3-b778-f262e0981726"
        }
    ],
    "status": 0
}