{
    "state": "success",
    "sessionId": null,
    "class": "org.openqa.selenium.remote.Response",
    "value": [
        {
            "element-6066-11e4-a52e-4f735466cecf": "0540a2e8-e056-4149-987a-e213f57359e3"
        }
    ],
    "status": 0
}