{
    "state": "success",
    "sessionId": null,
    "class": "org.openqa.selenium.remote.Response",
    "value": {
        "element-6066-11e4-a52e-4f735466cecf": "d4c37308-6d06-4ea7-a934-6b6a5ac9f9ef"
    },
    "status": 0
}