{
    "state": "success",
    "sessionId": null,
    "class": "org.openqa.selenium.remote.Response",
    "value": [
        {
            "element-6066-11e4-a52e-4f735466cecf": "cee44509-6716-459b-b5b0-757943b6895d"
        }
    ],
    "status": 0
}