{
    "state": "success",
    "sessionId": null,
    "class": "org.openqa.selenium.remote.Response",
    "value": [
        {
            "element-6066-11e4-a52e-4f735466cecf": "66d0f5db-4731-45cd-ac16-068395921c4f"
        }
    ],
    "status": 0
}