{
    "state": "success",
    "sessionId": null,
    "class": "org.openqa.selenium.remote.Response",
    "value": [
        {
            "element-6066-11e4-a52e-4f735466cecf": "ec1eee19-3839-4e72-be76-611cb68e51c9"
        }
    ],
    "status": 0
}