{
    "state": "success",
    "sessionId": null,
    "class": "org.openqa.selenium.remote.Response",
    "value": {
        "element-6066-11e4-a52e-4f735466cecf": "4cd6dfae-7b3a-488e-82c5-3e152e697523"
    },
    "status": 0
}