{
    "value": [
        "Q",
        "C",
        "E",
        "0",
        "3",
        "0",
        "0",
        "0",
        "0",
        "0",
        "0",
        "7",
        "A",
        "U"
    ],
    "text": "QCE030000007AU"
}