{
    "state": "success",
    "sessionId": null,
    "class": "org.openqa.selenium.remote.Response",
    "value": {
        "element-6066-11e4-a52e-4f735466cecf": "8e70594b-19cc-4c9a-a94f-bc8dfc850c04"
    },
    "status": 0
}