{
    "state": "success",
    "sessionId": null,
    "class": "org.openqa.selenium.remote.Response",
    "value": [
        {
            "element-6066-11e4-a52e-4f735466cecf": "06f848d9-9f35-4c3e-b76f-e3ac57037937"
        }
    ],
    "status": 0
}