{
    "state": "success",
    "sessionId": null,
    "class": "org.openqa.selenium.remote.Response",
    "value": [
        {
            "element-6066-11e4-a52e-4f735466cecf": "8e89f362-7baa-4bc9-b76b-3cbf24cefb3b"
        }
    ],
    "status": 0
}