{
    "state": "success",
    "sessionId": null,
    "class": "org.openqa.selenium.remote.Response",
    "value": [
        {
            "element-6066-11e4-a52e-4f735466cecf": "8f582be8-4c03-4df0-91af-beb1111f6002"
        }
    ],
    "status": 0
}