{
    "state": "success",
    "sessionId": null,
    "class": "org.openqa.selenium.remote.Response",
    "value": [
        {
            "element-6066-11e4-a52e-4f735466cecf": "d2789abf-3691-4cab-80fd-19f93b232d04"
        }
    ],
    "status": 0
}