{
    "state": "success",
    "sessionId": null,
    "class": "org.openqa.selenium.remote.Response",
    "value": {
        "element-6066-11e4-a52e-4f735466cecf": "26683b4c-9d17-4f06-95db-7e8bebfe5bc3"
    },
    "status": 0
}