{
    "state": "success",
    "sessionId": null,
    "class": "org.openqa.selenium.remote.Response",
    "value": {
        "element-6066-11e4-a52e-4f735466cecf": "9c37b7df-e795-4179-a76d-beefe1dc134a"
    },
    "status": 0
}