{
    "state": "success",
    "sessionId": null,
    "class": "org.openqa.selenium.remote.Response",
    "value": {
        "element-6066-11e4-a52e-4f735466cecf": "551be980-e5cf-4fbd-a6f7-540635e2fd93"
    },
    "status": 0
}