{
    "state": "success",
    "sessionId": null,
    "class": "org.openqa.selenium.remote.Response",
    "value": {
        "element-6066-11e4-a52e-4f735466cecf": "472d2c45-d24a-4ba4-bdc9-5ef3cc6b4e07"
    },
    "status": 0
}