{
    "state": "success",
    "sessionId": null,
    "class": "org.openqa.selenium.remote.Response",
    "value": {
        "element-6066-11e4-a52e-4f735466cecf": "61a8389c-efc7-4295-8a67-8309496680b0"
    },
    "status": 0
}