{
    "state": "success",
    "sessionId": null,
    "class": "org.openqa.selenium.remote.Response",
    "value": {
        "element-6066-11e4-a52e-4f735466cecf": "cc0414bd-0243-40a5-b8ae-f3f9418ea619"
    },
    "status": 0
}