{
    "state": "success",
    "sessionId": null,
    "class": "org.openqa.selenium.remote.Response",
    "value": [
        {
            "element-6066-11e4-a52e-4f735466cecf": "df28367a-e0d3-4e81-b6a4-3cce11fff114"
        }
    ],
    "status": 0
}