{
    "state": "success",
    "sessionId": null,
    "class": "org.openqa.selenium.remote.Response",
    "value": {
        "element-6066-11e4-a52e-4f735466cecf": "3b7936fc-349e-410e-bb94-87bbe91a73df"
    },
    "status": 0
}