{
    "state": "success",
    "sessionId": null,
    "class": "org.openqa.selenium.remote.Response",
    "value": {
        "element-6066-11e4-a52e-4f735466cecf": "368128ee-0573-449f-a78f-cd8917595a47"
    },
    "status": 0
}