{
    "state": "success",
    "sessionId": null,
    "class": "org.openqa.selenium.remote.Response",
    "value": {
        "element-6066-11e4-a52e-4f735466cecf": "f6476f03-743f-42cb-bc6e-15c02e1c7255"
    },
    "status": 0
}