{
    "state": "success",
    "sessionId": null,
    "class": "org.openqa.selenium.remote.Response",
    "value": [
        {
            "element-6066-11e4-a52e-4f735466cecf": "854b2e40-fd66-4502-8e5f-1fec3c658755"
        }
    ],
    "status": 0
}