{
    "state": "success",
    "sessionId": null,
    "class": "org.openqa.selenium.remote.Response",
    "value": {
        "element-6066-11e4-a52e-4f735466cecf": "88e095e0-3fe1-489b-8450-56327e7a2627"
    },
    "status": 0
}