{
    "state": "success",
    "sessionId": null,
    "class": "org.openqa.selenium.remote.Response",
    "value": {
        "element-6066-11e4-a52e-4f735466cecf": "69a428f3-e217-4108-8d20-8f7ec5269a8f"
    },
    "status": 0
}