{
    "state": "success",
    "sessionId": null,
    "class": "org.openqa.selenium.remote.Response",
    "value": {
        "element-6066-11e4-a52e-4f735466cecf": "0097e779-60e6-4986-9079-109560aadbff"
    },
    "status": 0
}