{
    "state": "success",
    "sessionId": null,
    "class": "org.openqa.selenium.remote.Response",
    "value": [
        {
            "element-6066-11e4-a52e-4f735466cecf": "19946c08-3c6d-4626-a472-feca8ca01f67"
        }
    ],
    "status": 0
}