{
    "state": "success",
    "sessionId": null,
    "class": "org.openqa.selenium.remote.Response",
    "value": [
        {
            "element-6066-11e4-a52e-4f735466cecf": "2bd7e196-a7d5-4e14-b62c-bb637865913e"
        }
    ],
    "status": 0
}