{
    "state": "success",
    "sessionId": null,
    "class": "org.openqa.selenium.remote.Response",
    "value": {
        "element-6066-11e4-a52e-4f735466cecf": "46667490-f8c1-4182-99ca-eef35ff4fbe0"
    },
    "status": 0
}