{
    "state": "success",
    "sessionId": null,
    "class": "org.openqa.selenium.remote.Response",
    "value": [
        {
            "element-6066-11e4-a52e-4f735466cecf": "961a42d0-0a9d-4467-a9c9-8bcf3d4ee252"
        }
    ],
    "status": 0
}