{
    "state": "success",
    "sessionId": null,
    "class": "org.openqa.selenium.remote.Response",
    "value": [
        {
            "element-6066-11e4-a52e-4f735466cecf": "0fc9479d-438e-4968-8bd2-1992a81ca47d"
        }
    ],
    "status": 0
}