{
    "state": "success",
    "sessionId": null,
    "class": "org.openqa.selenium.remote.Response",
    "value": {
        "element-6066-11e4-a52e-4f735466cecf": "0f8c0590-2759-4b77-83ae-47f8d5614472"
    },
    "status": 0
}