{
    "state": "success",
    "sessionId": null,
    "class": "org.openqa.selenium.remote.Response",
    "value": {
        "element-6066-11e4-a52e-4f735466cecf": "439d9298-7199-486e-bd4e-e0948f5322cf"
    },
    "status": 0
}