{
    "state": "success",
    "sessionId": null,
    "class": "org.openqa.selenium.remote.Response",
    "value": [
        {
            "element-6066-11e4-a52e-4f735466cecf": "f3dd4c7b-00ad-4842-8a97-ec021f202622"
        }
    ],
    "status": 0
}