{
    "state": "success",
    "sessionId": null,
    "class": "org.openqa.selenium.remote.Response",
    "value": [
        {
            "element-6066-11e4-a52e-4f735466cecf": "8fecf0e7-4fdd-40c3-9494-a836c23fdf02"
        }
    ],
    "status": 0
}