{
    "state": "success",
    "sessionId": null,
    "class": "org.openqa.selenium.remote.Response",
    "value": {
        "element-6066-11e4-a52e-4f735466cecf": "09b33671-ba17-411c-9f5e-2095b4c0af73"
    },
    "status": 0
}