{
    "state": "success",
    "sessionId": null,
    "class": "org.openqa.selenium.remote.Response",
    "value": {
        "element-6066-11e4-a52e-4f735466cecf": "746c8938-c5d1-4122-9ba7-dcd0c2b71116"
    },
    "status": 0
}