{
    "state": "success",
    "sessionId": null,
    "class": "org.openqa.selenium.remote.Response",
    "value": {
        "element-6066-11e4-a52e-4f735466cecf": "3cb2028a-72b2-4835-a12d-575ab817d021"
    },
    "status": 0
}