{
    "state": "success",
    "sessionId": null,
    "class": "org.openqa.selenium.remote.Response",
    "value": [
        {
            "element-6066-11e4-a52e-4f735466cecf": "b458e74d-5f35-4df0-b0f2-f61a9280fea3"
        }
    ],
    "status": 0
}