{
    "state": "success",
    "sessionId": null,
    "class": "org.openqa.selenium.remote.Response",
    "value": [
        {
            "element-6066-11e4-a52e-4f735466cecf": "85df849a-04f4-41a3-8d66-f16fc5b832db"
        }
    ],
    "status": 0
}