{
    "state": "success",
    "sessionId": null,
    "class": "org.openqa.selenium.remote.Response",
    "value": [
        {
            "element-6066-11e4-a52e-4f735466cecf": "3e61ae93-0ff5-4b09-94e1-65d3837228a8"
        }
    ],
    "status": 0
}