{
    "state": "success",
    "sessionId": null,
    "class": "org.openqa.selenium.remote.Response",
    "value": {
        "element-6066-11e4-a52e-4f735466cecf": "db79c13c-69ab-4f09-9951-fb3be4061ad9"
    },
    "status": 0
}