{
    "state": "success",
    "sessionId": null,
    "class": "org.openqa.selenium.remote.Response",
    "value": {
        "element-6066-11e4-a52e-4f735466cecf": "4fbc9444-1618-42a0-a442-b46e3a9f4241"
    },
    "status": 0
}