{
    "state": "success",
    "sessionId": null,
    "class": "org.openqa.selenium.remote.Response",
    "value": {
        "element-6066-11e4-a52e-4f735466cecf": "d25f5f15-5e4a-4f9a-8d1f-c61ca731513f"
    },
    "status": 0
}