{
    "state": "success",
    "sessionId": null,
    "class": "org.openqa.selenium.remote.Response",
    "value": {
        "element-6066-11e4-a52e-4f735466cecf": "25f78222-3631-40e3-9ba2-9cd4793f12ab"
    },
    "status": 0
}