{
    "state": "success",
    "sessionId": null,
    "class": "org.openqa.selenium.remote.Response",
    "value": {
        "element-6066-11e4-a52e-4f735466cecf": "297f43e0-ff0b-44d6-b413-f24a4ef5fd94"
    },
    "status": 0
}