{
    "state": "success",
    "sessionId": null,
    "class": "org.openqa.selenium.remote.Response",
    "value": [
        {
            "element-6066-11e4-a52e-4f735466cecf": "5c27da18-0cd0-43cf-baae-07a4be84cc61"
        }
    ],
    "status": 0
}