{
    "state": "success",
    "sessionId": null,
    "class": "org.openqa.selenium.remote.Response",
    "value": [
        {
            "element-6066-11e4-a52e-4f735466cecf": "639930d5-6be7-47bc-9dce-16a9337f16d3"
        }
    ],
    "status": 0
}