{
    "state": "success",
    "sessionId": null,
    "class": "org.openqa.selenium.remote.Response",
    "value": {
        "element-6066-11e4-a52e-4f735466cecf": "3e962bcb-9863-48dd-95ff-7f70dd652f17"
    },
    "status": 0
}