{
    "state": "success",
    "sessionId": null,
    "class": "org.openqa.selenium.remote.Response",
    "value": {
        "element-6066-11e4-a52e-4f735466cecf": "c312ce3f-3221-4f6f-9d4b-a2bfb43f8a37"
    },
    "status": 0
}