{
    "state": "success",
    "sessionId": null,
    "class": "org.openqa.selenium.remote.Response",
    "value": [
        {
            "element-6066-11e4-a52e-4f735466cecf": "2baa8c9b-b741-40d3-b62a-35b04f0e5615"
        }
    ],
    "status": 0
}