{
    "state": "success",
    "sessionId": null,
    "class": "org.openqa.selenium.remote.Response",
    "value": [
        {
            "element-6066-11e4-a52e-4f735466cecf": "c075acd1-8d08-496f-9995-0377cb980c5c"
        }
    ],
    "status": 0
}