{
    "state": "success",
    "sessionId": null,
    "class": "org.openqa.selenium.remote.Response",
    "value": {
        "element-6066-11e4-a52e-4f735466cecf": "17d21329-5ebc-4c43-88c8-ad9bde5669d3"
    },
    "status": 0
}