{
    "state": "success",
    "sessionId": null,
    "class": "org.openqa.selenium.remote.Response",
    "value": {
        "element-6066-11e4-a52e-4f735466cecf": "2d54ee1e-2435-4658-9d3c-8979c604205b"
    },
    "status": 0
}