{
    "state": "success",
    "sessionId": null,
    "class": "org.openqa.selenium.remote.Response",
    "value": {
        "element-6066-11e4-a52e-4f735466cecf": "90462ab9-df78-415a-95f8-f810b6e3cab6"
    },
    "status": 0
}