{
    "state": "success",
    "sessionId": null,
    "class": "org.openqa.selenium.remote.Response",
    "value": {
        "element-6066-11e4-a52e-4f735466cecf": "857bee09-c873-44b5-8ed6-10026d8479a5"
    },
    "status": 0
}