{
    "state": "success",
    "sessionId": null,
    "class": "org.openqa.selenium.remote.Response",
    "value": [
        {
            "element-6066-11e4-a52e-4f735466cecf": "b868ad8c-9979-49f0-87ca-9811ed43c021"
        }
    ],
    "status": 0
}