{
    "state": "success",
    "sessionId": null,
    "class": "org.openqa.selenium.remote.Response",
    "value": {
        "element-6066-11e4-a52e-4f735466cecf": "c962ff49-79d2-4dcd-aa37-7c979179d738"
    },
    "status": 0
}