{
    "state": "success",
    "sessionId": null,
    "class": "org.openqa.selenium.remote.Response",
    "value": [
        {
            "element-6066-11e4-a52e-4f735466cecf": "482f8e09-2387-4828-b392-12113796c91b"
        }
    ],
    "status": 0
}