{
    "state": "success",
    "sessionId": null,
    "class": "org.openqa.selenium.remote.Response",
    "value": {
        "element-6066-11e4-a52e-4f735466cecf": "f31471e6-3e84-4b76-9b64-1472d9c17d99"
    },
    "status": 0
}