{
    "state": "success",
    "sessionId": null,
    "class": "org.openqa.selenium.remote.Response",
    "value": {
        "element-6066-11e4-a52e-4f735466cecf": "3b241e92-5704-4a8a-9e81-8bf5fc431179"
    },
    "status": 0
}