{
    "state": "success",
    "sessionId": null,
    "class": "org.openqa.selenium.remote.Response",
    "value": {
        "element-6066-11e4-a52e-4f735466cecf": "680183f7-a4ad-4f5a-8fb9-62a46541f054"
    },
    "status": 0
}