{
    "state": "success",
    "sessionId": null,
    "class": "org.openqa.selenium.remote.Response",
    "value": [
        {
            "element-6066-11e4-a52e-4f735466cecf": "950aec48-1251-427e-bef3-f1e8d65ed4ee"
        }
    ],
    "status": 0
}