{
    "state": "success",
    "sessionId": null,
    "class": "org.openqa.selenium.remote.Response",
    "value": [
        {
            "element-6066-11e4-a52e-4f735466cecf": "14bbdf6a-a3b5-49b4-9d2f-60841ae24f0e"
        }
    ],
    "status": 0
}