{
    "state": "success",
    "sessionId": null,
    "class": "org.openqa.selenium.remote.Response",
    "value": [
        {
            "element-6066-11e4-a52e-4f735466cecf": "52a689d4-59ce-403f-a148-98e74e60e200"
        }
    ],
    "status": 0
}