{
    "state": "success",
    "sessionId": null,
    "class": "org.openqa.selenium.remote.Response",
    "value": {
        "element-6066-11e4-a52e-4f735466cecf": "8756a70c-a59a-4eb4-8dc6-4aec27b97e3e"
    },
    "status": 0
}