{
    "state": "success",
    "sessionId": null,
    "class": "org.openqa.selenium.remote.Response",
    "value": {
        "element-6066-11e4-a52e-4f735466cecf": "c5e574fa-d384-4def-9b55-476f15c8d723"
    },
    "status": 0
}