{
    "state": "success",
    "sessionId": null,
    "class": "org.openqa.selenium.remote.Response",
    "value": [
        {
            "element-6066-11e4-a52e-4f735466cecf": "060d1768-d473-4f83-aab0-6ea198959886"
        }
    ],
    "status": 0
}