{
    "state": "success",
    "sessionId": null,
    "class": "org.openqa.selenium.remote.Response",
    "value": [
        {
            "element-6066-11e4-a52e-4f735466cecf": "1568caa1-0407-4e62-8a58-ff0a57138885"
        }
    ],
    "status": 0
}