{
    "state": "success",
    "sessionId": null,
    "class": "org.openqa.selenium.remote.Response",
    "value": {
        "element-6066-11e4-a52e-4f735466cecf": "44e5dbb2-d60d-455d-acea-e6459c7490e3"
    },
    "status": 0
}