{
    "state": "success",
    "sessionId": null,
    "class": "org.openqa.selenium.remote.Response",
    "value": {
        "element-6066-11e4-a52e-4f735466cecf": "3f43fd9a-5dd2-4a7e-9936-bb1de984393e"
    },
    "status": 0
}