{
    "state": "success",
    "sessionId": null,
    "class": "org.openqa.selenium.remote.Response",
    "value": {
        "element-6066-11e4-a52e-4f735466cecf": "2080d68b-d427-42b3-96e6-1662eb87596b"
    },
    "status": 0
}