{
    "state": "success",
    "sessionId": null,
    "class": "org.openqa.selenium.remote.Response",
    "value": {
        "element-6066-11e4-a52e-4f735466cecf": "d94dd66e-1b20-4bea-9f74-f6222f5389fe"
    },
    "status": 0
}