{
    "state": "success",
    "sessionId": null,
    "class": "org.openqa.selenium.remote.Response",
    "value": {
        "element-6066-11e4-a52e-4f735466cecf": "ae20b035-f186-4707-8ad1-d3e5cd7823e3"
    },
    "status": 0
}