{
    "state": "success",
    "sessionId": null,
    "class": "org.openqa.selenium.remote.Response",
    "value": {
        "element-6066-11e4-a52e-4f735466cecf": "f91c2d1e-99f1-46f7-a45d-eeac65071020"
    },
    "status": 0
}