{
    "state": "success",
    "sessionId": null,
    "class": "org.openqa.selenium.remote.Response",
    "value": [
        {
            "element-6066-11e4-a52e-4f735466cecf": "55bac842-3d86-4033-a5f9-22ea32e8e7c6"
        }
    ],
    "status": 0
}