{
    "state": "success",
    "sessionId": null,
    "class": "org.openqa.selenium.remote.Response",
    "value": [
        {
            "element-6066-11e4-a52e-4f735466cecf": "0081102e-db36-4402-bc5e-a6f07d7a220c"
        }
    ],
    "status": 0
}