{
    "state": "success",
    "sessionId": null,
    "class": "org.openqa.selenium.remote.Response",
    "value": {
        "element-6066-11e4-a52e-4f735466cecf": "92a333ea-db01-4181-8540-0458d4ffac7d"
    },
    "status": 0
}