{
    "state": "success",
    "sessionId": null,
    "class": "org.openqa.selenium.remote.Response",
    "value": {
        "element-6066-11e4-a52e-4f735466cecf": "d188edc3-e318-41a4-92d1-17d9646209fd"
    },
    "status": 0
}