{
    "state": "success",
    "sessionId": null,
    "class": "org.openqa.selenium.remote.Response",
    "value": {
        "element-6066-11e4-a52e-4f735466cecf": "d0b02fd3-6031-4e35-9a33-cc63bfaedeb1"
    },
    "status": 0
}