{
    "state": "success",
    "sessionId": null,
    "class": "org.openqa.selenium.remote.Response",
    "value": {
        "element-6066-11e4-a52e-4f735466cecf": "ff427544-f0aa-479b-a020-18aec4d2d8ea"
    },
    "status": 0
}