{
    "state": "success",
    "sessionId": null,
    "class": "org.openqa.selenium.remote.Response",
    "value": {
        "element-6066-11e4-a52e-4f735466cecf": "e6f6f605-5d7f-4458-96a8-ac7a81241018"
    },
    "status": 0
}