{
    "state": "success",
    "sessionId": null,
    "class": "org.openqa.selenium.remote.Response",
    "value": [
        {
            "element-6066-11e4-a52e-4f735466cecf": "93ca4586-ad46-48ab-a233-5fb27e0369f2"
        }
    ],
    "status": 0
}