{
    "state": "success",
    "sessionId": null,
    "class": "org.openqa.selenium.remote.Response",
    "value": {
        "element-6066-11e4-a52e-4f735466cecf": "d63a69df-8e75-4d35-af9f-ae55d4c80ea9"
    },
    "status": 0
}