{
    "state": "success",
    "sessionId": null,
    "class": "org.openqa.selenium.remote.Response",
    "value": {
        "element-6066-11e4-a52e-4f735466cecf": "59787581-1685-46b7-867d-8e70ec04d15f"
    },
    "status": 0
}