{
    "state": "success",
    "sessionId": null,
    "class": "org.openqa.selenium.remote.Response",
    "value": {
        "element-6066-11e4-a52e-4f735466cecf": "2e92194c-b630-4d81-b9f9-5fc01d59e290"
    },
    "status": 0
}