{
    "state": "success",
    "sessionId": null,
    "class": "org.openqa.selenium.remote.Response",
    "value": {
        "element-6066-11e4-a52e-4f735466cecf": "9db2a760-b68d-4152-adaf-086e055c03c5"
    },
    "status": 0
}