{
    "state": "success",
    "sessionId": null,
    "class": "org.openqa.selenium.remote.Response",
    "value": [
        {
            "element-6066-11e4-a52e-4f735466cecf": "871b07c6-f4e1-4fab-af1a-92273326cdd7"
        }
    ],
    "status": 0
}