{
    "state": "success",
    "sessionId": null,
    "class": "org.openqa.selenium.remote.Response",
    "value": {
        "element-6066-11e4-a52e-4f735466cecf": "3179917b-153d-4180-897a-763c2996c2c4"
    },
    "status": 0
}