{
    "state": "success",
    "sessionId": null,
    "class": "org.openqa.selenium.remote.Response",
    "value": [
        {
            "element-6066-11e4-a52e-4f735466cecf": "dfa5be63-ec53-43fa-872d-a3b803699db2"
        }
    ],
    "status": 0
}