{
    "state": "success",
    "sessionId": null,
    "class": "org.openqa.selenium.remote.Response",
    "value": {
        "element-6066-11e4-a52e-4f735466cecf": "9a77059f-763e-41e7-bbb8-d060ebf32b8f"
    },
    "status": 0
}