{
    "state": "success",
    "sessionId": null,
    "class": "org.openqa.selenium.remote.Response",
    "value": {
        "element-6066-11e4-a52e-4f735466cecf": "898dc056-1da6-4cec-8305-94f34aedbff8"
    },
    "status": 0
}