{
    "state": "success",
    "sessionId": null,
    "class": "org.openqa.selenium.remote.Response",
    "value": {
        "element-6066-11e4-a52e-4f735466cecf": "61c79602-638e-43bf-be0d-07022a6b57af"
    },
    "status": 0
}