{
    "state": "success",
    "sessionId": null,
    "class": "org.openqa.selenium.remote.Response",
    "value": {
        "element-6066-11e4-a52e-4f735466cecf": "f1a66f12-7527-487f-9ff3-df066883eb4a"
    },
    "status": 0
}