{
    "state": "success",
    "sessionId": null,
    "class": "org.openqa.selenium.remote.Response",
    "value": {
        "element-6066-11e4-a52e-4f735466cecf": "6fd1bd69-d309-43fa-91a7-3a5bbb818556"
    },
    "status": 0
}