{
    "state": "success",
    "sessionId": null,
    "class": "org.openqa.selenium.remote.Response",
    "value": {
        "element-6066-11e4-a52e-4f735466cecf": "15820def-f68e-483f-b03e-b46d8073642d"
    },
    "status": 0
}