{
    "state": "success",
    "sessionId": null,
    "class": "org.openqa.selenium.remote.Response",
    "value": {
        "element-6066-11e4-a52e-4f735466cecf": "cedc7cc6-0757-445c-9ef6-7fcf5f2b6bef"
    },
    "status": 0
}