{
    "state": "success",
    "sessionId": null,
    "class": "org.openqa.selenium.remote.Response",
    "value": {
        "element-6066-11e4-a52e-4f735466cecf": "de42df6c-5aa5-4bdd-8938-e954bd24a673"
    },
    "status": 0
}