{
    "state": "success",
    "sessionId": null,
    "class": "org.openqa.selenium.remote.Response",
    "value": {
        "element-6066-11e4-a52e-4f735466cecf": "1cb4bb33-58aa-4f74-9895-67f472e47137"
    },
    "status": 0
}