{
    "state": "success",
    "sessionId": null,
    "class": "org.openqa.selenium.remote.Response",
    "value": {
        "element-6066-11e4-a52e-4f735466cecf": "0be96c85-c486-4a2b-951b-ce3c029287c9"
    },
    "status": 0
}