{
    "state": "success",
    "sessionId": null,
    "class": "org.openqa.selenium.remote.Response",
    "value": {
        "element-6066-11e4-a52e-4f735466cecf": "210ff97b-3981-4bed-9eaf-af71cec90634"
    },
    "status": 0
}