{
    "state": "success",
    "sessionId": null,
    "class": "org.openqa.selenium.remote.Response",
    "value": {
        "element-6066-11e4-a52e-4f735466cecf": "e1cd14a0-fc1e-45fc-a184-b09a4cbf4055"
    },
    "status": 0
}