{
    "state": "success",
    "sessionId": null,
    "class": "org.openqa.selenium.remote.Response",
    "value": [
        {
            "element-6066-11e4-a52e-4f735466cecf": "b23fa72b-aee9-4990-8546-a3f83fe530b3"
        }
    ],
    "status": 0
}