{
    "state": "success",
    "sessionId": null,
    "class": "org.openqa.selenium.remote.Response",
    "value": [
        {
            "element-6066-11e4-a52e-4f735466cecf": "8c2782b9-4957-4ba2-a4ee-5aa4949d440d"
        }
    ],
    "status": 0
}