{
    "state": "success",
    "sessionId": null,
    "class": "org.openqa.selenium.remote.Response",
    "value": {
        "element-6066-11e4-a52e-4f735466cecf": "4bcc3daf-246f-41b5-a8b1-42c68ea88d23"
    },
    "status": 0
}