{
    "state": "success",
    "sessionId": null,
    "class": "org.openqa.selenium.remote.Response",
    "value": [
        {
            "element-6066-11e4-a52e-4f735466cecf": "205ecc22-9603-499c-a7ce-95c11ee5ed28"
        }
    ],
    "status": 0
}