{
    "state": "success",
    "sessionId": null,
    "class": "org.openqa.selenium.remote.Response",
    "value": {
        "element-6066-11e4-a52e-4f735466cecf": "4c35ace9-a045-4dc8-9611-803dc95f7eb9"
    },
    "status": 0
}