{
    "state": "success",
    "sessionId": null,
    "class": "org.openqa.selenium.remote.Response",
    "value": {
        "element-6066-11e4-a52e-4f735466cecf": "f3c0ce1f-548b-44c2-a4f7-afd56d2a038e"
    },
    "status": 0
}