{
    "state": "success",
    "sessionId": null,
    "class": "org.openqa.selenium.remote.Response",
    "value": [
        {
            "element-6066-11e4-a52e-4f735466cecf": "3933850d-18e2-4c33-bec7-a2088a991b42"
        }
    ],
    "status": 0
}