{
    "state": "success",
    "sessionId": null,
    "class": "org.openqa.selenium.remote.Response",
    "value": {
        "element-6066-11e4-a52e-4f735466cecf": "3d561878-ea17-40e6-8ccc-d159221629f6"
    },
    "status": 0
}