{
    "state": "success",
    "sessionId": null,
    "class": "org.openqa.selenium.remote.Response",
    "value": {
        "element-6066-11e4-a52e-4f735466cecf": "a20f0b9e-53f9-44cd-9c43-adb6f871b090"
    },
    "status": 0
}