{
    "state": "success",
    "sessionId": null,
    "class": "org.openqa.selenium.remote.Response",
    "value": {
        "element-6066-11e4-a52e-4f735466cecf": "98656163-c253-4944-8024-8030f40c72b1"
    },
    "status": 0
}