{
    "state": "success",
    "sessionId": null,
    "class": "org.openqa.selenium.remote.Response",
    "value": [
        {
            "element-6066-11e4-a52e-4f735466cecf": "ea17e18f-630a-4756-a536-d3786d25a806"
        }
    ],
    "status": 0
}