{
    "state": "success",
    "sessionId": null,
    "class": "org.openqa.selenium.remote.Response",
    "value": {
        "element-6066-11e4-a52e-4f735466cecf": "604804fd-e23c-4ab2-8b16-81fb12dbdbf8"
    },
    "status": 0
}