{
    "state": "success",
    "sessionId": null,
    "class": "org.openqa.selenium.remote.Response",
    "value": [
        {
            "element-6066-11e4-a52e-4f735466cecf": "340cd9c7-f9e7-4869-8241-02c5b2bf6057"
        }
    ],
    "status": 0
}