{
    "state": "success",
    "sessionId": null,
    "class": "org.openqa.selenium.remote.Response",
    "value": {
        "element-6066-11e4-a52e-4f735466cecf": "1da508a6-7867-4d15-8272-4080600c17eb"
    },
    "status": 0
}