{
    "state": "success",
    "sessionId": null,
    "class": "org.openqa.selenium.remote.Response",
    "value": {
        "element-6066-11e4-a52e-4f735466cecf": "2d4c6de7-eb62-4cef-8019-197e9ff2b93d"
    },
    "status": 0
}