{
    "state": "success",
    "sessionId": null,
    "class": "org.openqa.selenium.remote.Response",
    "value": {
        "element-6066-11e4-a52e-4f735466cecf": "20c39997-7c59-4c01-888f-de2af15165b1"
    },
    "status": 0
}