{
    "state": "success",
    "sessionId": null,
    "class": "org.openqa.selenium.remote.Response",
    "value": {
        "element-6066-11e4-a52e-4f735466cecf": "ef339e77-b844-435d-b310-19a11f66f079"
    },
    "status": 0
}