{
    "state": "success",
    "sessionId": null,
    "class": "org.openqa.selenium.remote.Response",
    "value": {
        "element-6066-11e4-a52e-4f735466cecf": "754e750f-6d75-44a8-b23e-ea1606f3703c"
    },
    "status": 0
}