{
    "state": "success",
    "sessionId": null,
    "class": "org.openqa.selenium.remote.Response",
    "value": [
        {
            "element-6066-11e4-a52e-4f735466cecf": "95b69ee5-6165-4102-805c-31e088a16ab2"
        }
    ],
    "status": 0
}