{
    "state": "success",
    "sessionId": null,
    "class": "org.openqa.selenium.remote.Response",
    "value": [
        {
            "element-6066-11e4-a52e-4f735466cecf": "afa9ae23-f954-46a4-8024-64feacab76d6"
        }
    ],
    "status": 0
}