{
    "state": "success",
    "sessionId": null,
    "class": "org.openqa.selenium.remote.Response",
    "value": {
        "element-6066-11e4-a52e-4f735466cecf": "89e9a1e7-df81-4838-a184-b448faf788ad"
    },
    "status": 0
}