{
    "state": "success",
    "sessionId": null,
    "class": "org.openqa.selenium.remote.Response",
    "value": {
        "element-6066-11e4-a52e-4f735466cecf": "36b7a727-1d9e-437a-ad24-16ba3deba621"
    },
    "status": 0
}