{
    "state": "success",
    "sessionId": null,
    "class": "org.openqa.selenium.remote.Response",
    "value": {
        "element-6066-11e4-a52e-4f735466cecf": "3d919017-4347-416a-b3ff-e77051d0c6a4"
    },
    "status": 0
}