{
    "value": [
        "Q",
        "A",
        " ",
        "t",
        "e",
        "s",
        "t",
        " ",
        "r",
        "u",
        "l",
        "e",
        " ",
        "f",
        "o",
        "r",
        " ",
        "a",
        "l",
        "l",
        " ",
        "T",
        "M",
        "D"
    ],
    "text": "QA test rule for all TMD"
}