{
    "state": "success",
    "sessionId": null,
    "class": "org.openqa.selenium.remote.Response",
    "value": [
        {
            "element-6066-11e4-a52e-4f735466cecf": "45b235b3-4705-4cdd-87e4-3aabc4bedb02"
        }
    ],
    "status": 0
}