{
    "state": "success",
    "sessionId": null,
    "class": "org.openqa.selenium.remote.Response",
    "value": {
        "element-6066-11e4-a52e-4f735466cecf": "c9e3dc9d-9850-4e72-84e0-316beba7cbbc"
    },
    "status": 0
}