{
    "state": "success",
    "sessionId": null,
    "class": "org.openqa.selenium.remote.Response",
    "value": {
        "element-6066-11e4-a52e-4f735466cecf": "57248e9a-f180-45ee-8a8d-ee56b2e34311"
    },
    "status": 0
}