{
    "state": "success",
    "sessionId": null,
    "class": "org.openqa.selenium.remote.Response",
    "value": [
        {
            "element-6066-11e4-a52e-4f735466cecf": "d18f8ec1-1eef-422d-9af6-a0b27d463500"
        }
    ],
    "status": 0
}