{
    "state": "success",
    "sessionId": null,
    "class": "org.openqa.selenium.remote.Response",
    "value": [
        {
            "element-6066-11e4-a52e-4f735466cecf": "9cef16bb-cb26-4215-a5b9-497cdaf29f2e"
        }
    ],
    "status": 0
}