{
    "state": "success",
    "sessionId": null,
    "class": "org.openqa.selenium.remote.Response",
    "value": [
        {
            "element-6066-11e4-a52e-4f735466cecf": "63d2d435-c98f-49b4-9ede-588142d964c1"
        }
    ],
    "status": 0
}