{
    "state": "success",
    "sessionId": null,
    "class": "org.openqa.selenium.remote.Response",
    "value": [
        {
            "element-6066-11e4-a52e-4f735466cecf": "28d9db32-e5f6-4e92-8dec-5e471fa360e5"
        }
    ],
    "status": 0
}