{
    "state": "success",
    "sessionId": null,
    "class": "org.openqa.selenium.remote.Response",
    "value": [
        {
            "element-6066-11e4-a52e-4f735466cecf": "4b29524b-26f1-4f9b-b776-8e1c90469918"
        }
    ],
    "status": 0
}