{
    "state": "success",
    "sessionId": null,
    "class": "org.openqa.selenium.remote.Response",
    "value": [
        {
            "element-6066-11e4-a52e-4f735466cecf": "283aa529-38a1-4f67-81cd-b27acde14b3e"
        }
    ],
    "status": 0
}