{
    "state": "success",
    "sessionId": null,
    "class": "org.openqa.selenium.remote.Response",
    "value": {
        "element-6066-11e4-a52e-4f735466cecf": "26e0c421-db7f-42da-863b-34b801332af3"
    },
    "status": 0
}