{
    "state": "success",
    "sessionId": null,
    "class": "org.openqa.selenium.remote.Response",
    "value": {
        "element-6066-11e4-a52e-4f735466cecf": "ebac315a-7896-4dcc-9f47-3d11311fd7f1"
    },
    "status": 0
}