{
    "state": "success",
    "sessionId": null,
    "class": "org.openqa.selenium.remote.Response",
    "value": {
        "element-6066-11e4-a52e-4f735466cecf": "e6aa0ddf-335a-4f08-aac4-aa7b73f17247"
    },
    "status": 0
}