{
    "state": "success",
    "sessionId": null,
    "class": "org.openqa.selenium.remote.Response",
    "value": [
        {
            "element-6066-11e4-a52e-4f735466cecf": "2dcb15e2-e958-45ed-ba75-9775909cbe08"
        }
    ],
    "status": 0
}