{
    "state": "success",
    "sessionId": null,
    "class": "org.openqa.selenium.remote.Response",
    "value": {
        "element-6066-11e4-a52e-4f735466cecf": "4571a6f6-2738-4258-89da-ff59635bacd1"
    },
    "status": 0
}