{
    "value": [
        "Q",
        "A",
        " ",
        "R",
        "u",
        "l",
        "e",
        " ",
        "w",
        "i",
        "t",
        "h",
        " ",
        "c",
        "h",
        "a",
        "r",
        "g",
        "a",
        "b",
        "l",
        "e"
    ],
    "text": "QA Rule with chargable"
}