{
    "state": "success",
    "sessionId": null,
    "class": "org.openqa.selenium.remote.Response",
    "value": [
        {
            "element-6066-11e4-a52e-4f735466cecf": "94b9999d-fa2d-4b7f-87e9-68e43619f01a"
        }
    ],
    "status": 0
}