{
    "state": "success",
    "sessionId": null,
    "class": "org.openqa.selenium.remote.Response",
    "value": {
        "element-6066-11e4-a52e-4f735466cecf": "460dec3f-8bb2-47d3-a731-9dc9d339e34f"
    },
    "status": 0
}