{
    "state": "success",
    "sessionId": null,
    "class": "org.openqa.selenium.remote.Response",
    "value": [
        {
            "element-6066-11e4-a52e-4f735466cecf": "4f3a8bd6-64e9-4153-95d8-6f6b5e4244d5"
        }
    ],
    "status": 0
}