{
    "state": "success",
    "sessionId": null,
    "class": "org.openqa.selenium.remote.Response",
    "value": [
        {
            "element-6066-11e4-a52e-4f735466cecf": "96f5399a-fbf3-498e-bc3c-cf713b76cf44"
        }
    ],
    "status": 0
}