{
    "state": "success",
    "sessionId": null,
    "class": "org.openqa.selenium.remote.Response",
    "value": [
        {
            "element-6066-11e4-a52e-4f735466cecf": "98cfaf66-6ce9-4744-9116-2245930af7ad"
        }
    ],
    "status": 0
}