{
    "state": "success",
    "sessionId": null,
    "class": "org.openqa.selenium.remote.Response",
    "value": [
        {
            "element-6066-11e4-a52e-4f735466cecf": "3a539580-f488-4102-8e27-15e95f8f047d"
        }
    ],
    "status": 0
}