{
    "state": "success",
    "sessionId": null,
    "class": "org.openqa.selenium.remote.Response",
    "value": [
        {
            "element-6066-11e4-a52e-4f735466cecf": "79988c5e-2d40-444b-8964-ee1127d0c9f6"
        }
    ],
    "status": 0
}