{
    "state": "success",
    "sessionId": null,
    "class": "org.openqa.selenium.remote.Response",
    "value": [
        {
            "element-6066-11e4-a52e-4f735466cecf": "468f38c4-f5c9-44fb-b50c-2f93f99d2a59"
        }
    ],
    "status": 0
}