{
    "state": "success",
    "sessionId": null,
    "class": "org.openqa.selenium.remote.Response",
    "value": [
        {
            "element-6066-11e4-a52e-4f735466cecf": "90c7d4d0-380c-44cc-8412-77ae83e2884b"
        }
    ],
    "status": 0
}