{
    "state": "success",
    "sessionId": null,
    "class": "org.openqa.selenium.remote.Response",
    "value": {
        "element-6066-11e4-a52e-4f735466cecf": "b4704a51-0920-4a99-9385-d6ffa62062c1"
    },
    "status": 0
}