{
    "state": "success",
    "sessionId": null,
    "class": "org.openqa.selenium.remote.Response",
    "value": [
        {
            "element-6066-11e4-a52e-4f735466cecf": "da3eff42-13f8-4019-b482-c7fe1b36f652"
        }
    ],
    "status": 0
}