{
    "state": "success",
    "sessionId": null,
    "class": "org.openqa.selenium.remote.Response",
    "value": [
        {
            "element-6066-11e4-a52e-4f735466cecf": "dc57101f-c6fa-48b1-b8c7-ea422330fb0a"
        }
    ],
    "status": 0
}