{
    "state": "success",
    "sessionId": null,
    "class": "org.openqa.selenium.remote.Response",
    "value": [
        {
            "element-6066-11e4-a52e-4f735466cecf": "bc34edca-4dd6-4469-97bd-5b0e93dfab02"
        }
    ],
    "status": 0
}