{
    "state": "success",
    "sessionId": null,
    "class": "org.openqa.selenium.remote.Response",
    "value": {
        "element-6066-11e4-a52e-4f735466cecf": "ba8b0f16-feb4-4edc-8d88-c0ed6c84364a"
    },
    "status": 0
}