{
    "state": "success",
    "sessionId": null,
    "class": "org.openqa.selenium.remote.Response",
    "value": {
        "element-6066-11e4-a52e-4f735466cecf": "6b21f2f3-6415-41c8-a1f0-885a7b7e0467"
    },
    "status": 0
}