{
    "state": "success",
    "sessionId": null,
    "class": "org.openqa.selenium.remote.Response",
    "value": {
        "element-6066-11e4-a52e-4f735466cecf": "fc040c55-b00d-4e3b-87d4-86607edc2217"
    },
    "status": 0
}