{
    "state": "success",
    "sessionId": null,
    "class": "org.openqa.selenium.remote.Response",
    "value": [
        {
            "element-6066-11e4-a52e-4f735466cecf": "3c31673a-ab0d-4c25-8637-7db4040ae167"
        }
    ],
    "status": 0
}