{
    "state": "success",
    "sessionId": null,
    "class": "org.openqa.selenium.remote.Response",
    "value": {
        "element-6066-11e4-a52e-4f735466cecf": "fda14b0f-31b7-4493-9e75-d6eb116fbad3"
    },
    "status": 0
}