{
    "state": "success",
    "sessionId": null,
    "class": "org.openqa.selenium.remote.Response",
    "value": {
        "element-6066-11e4-a52e-4f735466cecf": "203a2720-7fda-4a1a-a5c1-8c60caf39f9a"
    },
    "status": 0
}