{
    "state": "success",
    "sessionId": null,
    "class": "org.openqa.selenium.remote.Response",
    "value": [
        {
            "element-6066-11e4-a52e-4f735466cecf": "f443e7a6-ed7c-462f-bf84-c19b91066b63"
        }
    ],
    "status": 0
}