{
    "state": "success",
    "sessionId": null,
    "class": "org.openqa.selenium.remote.Response",
    "value": {
        "element-6066-11e4-a52e-4f735466cecf": "da976c85-6a3f-4d81-a09f-75a9a634b543"
    },
    "status": 0
}