{
    "state": "success",
    "sessionId": null,
    "class": "org.openqa.selenium.remote.Response",
    "value": {
        "element-6066-11e4-a52e-4f735466cecf": "0afae7b5-46ef-4b5c-a223-ed66b183c2bb"
    },
    "status": 0
}