{
    "state": "success",
    "sessionId": null,
    "class": "org.openqa.selenium.remote.Response",
    "value": {
        "element-6066-11e4-a52e-4f735466cecf": "042c36dd-8645-4ccd-bb22-9e9f7345fd00"
    },
    "status": 0
}