{
    "value": [
        "Q",
        "A",
        " ",
        "r",
        "u",
        "l",
        "e",
        " ",
        "w",
        "i",
        "t",
        "h",
        " ",
        "m",
        "u",
        "l",
        "t",
        "i",
        " ",
        "s",
        "u",
        "b",
        "f",
        "u",
        "n",
        "d"
    ],
    "text": "QA rule with multi subfund"
}