{
    "state": "success",
    "sessionId": null,
    "class": "org.openqa.selenium.remote.Response",
    "value": {
        "element-6066-11e4-a52e-4f735466cecf": "b651a8bd-adfa-448e-9b42-c77dc902cf70"
    },
    "status": 0
}