{
    "state": "success",
    "sessionId": null,
    "class": "org.openqa.selenium.remote.Response",
    "value": [
        {
            "element-6066-11e4-a52e-4f735466cecf": "d751834f-3b4e-40b6-93e9-5973a33bd680"
        }
    ],
    "status": 0
}