{
    "state": "success",
    "sessionId": null,
    "class": "org.openqa.selenium.remote.Response",
    "value": {
        "element-6066-11e4-a52e-4f735466cecf": "421bb04a-83c8-4c1f-82f2-a72cd2cbe936"
    },
    "status": 0
}