{
    "state": "success",
    "sessionId": null,
    "class": "org.openqa.selenium.remote.Response",
    "value": [
        {
            "element-6066-11e4-a52e-4f735466cecf": "7eede74a-80aa-48d3-8f15-6454f965bf61"
        }
    ],
    "status": 0
}