{
    "state": "success",
    "sessionId": null,
    "class": "org.openqa.selenium.remote.Response",
    "value": [
        {
            "element-6066-11e4-a52e-4f735466cecf": "70e81fe5-f732-4d9b-a10e-1aaaa5552b11"
        }
    ],
    "status": 0
}