{
    "state": "success",
    "sessionId": null,
    "class": "org.openqa.selenium.remote.Response",
    "value": [
        {
            "element-6066-11e4-a52e-4f735466cecf": "fd2f6ee0-2c08-4cf9-adef-1b34fe7712ce"
        }
    ],
    "status": 0
}