{
    "state": "success",
    "sessionId": null,
    "class": "org.openqa.selenium.remote.Response",
    "value": [
        {
            "element-6066-11e4-a52e-4f735466cecf": "cb43e2e6-125c-4ec8-88a1-63a5a3a96113"
        }
    ],
    "status": 0
}