{
    "state": "success",
    "sessionId": null,
    "class": "org.openqa.selenium.remote.Response",
    "value": [
        {
            "element-6066-11e4-a52e-4f735466cecf": "d407014f-1a6a-4683-93e3-6963c946e6b5"
        }
    ],
    "status": 0
}