{
    "state": "success",
    "sessionId": null,
    "class": "org.openqa.selenium.remote.Response",
    "value": {
        "element-6066-11e4-a52e-4f735466cecf": "82a4a2c4-f8d1-4cef-8397-2e5b3def09d9"
    },
    "status": 0
}