{
    "state": "success",
    "sessionId": null,
    "class": "org.openqa.selenium.remote.Response",
    "value": {
        "element-6066-11e4-a52e-4f735466cecf": "d0e3a081-a1b6-4294-8acf-7685282bd67f"
    },
    "status": 0
}