{
    "state": "success",
    "sessionId": null,
    "class": "org.openqa.selenium.remote.Response",
    "value": {
        "element-6066-11e4-a52e-4f735466cecf": "1dce9587-c071-43fc-a204-25bfb283b3f8"
    },
    "status": 0
}