{
    "state": "success",
    "sessionId": null,
    "class": "org.openqa.selenium.remote.Response",
    "value": [
        {
            "element-6066-11e4-a52e-4f735466cecf": "f6fbdb0b-3df3-4356-8c0e-9ad7fee9f6ed"
        }
    ],
    "status": 0
}