{
    "state": "success",
    "sessionId": null,
    "class": "org.openqa.selenium.remote.Response",
    "value": [
        {
            "element-6066-11e4-a52e-4f735466cecf": "c0d85e2b-1916-4be5-98bf-191aeb59d92c"
        }
    ],
    "status": 0
}