{
    "value": [
        "Q",
        "A",
        " ",
        "K",
        "I",
        "I",
        "D",
        " ",
        "A",
        "u",
        "t",
        "o",
        "2"
    ],
    "text": "QA KIID Auto2"
}