{
    "state": "success",
    "sessionId": null,
    "class": "org.openqa.selenium.remote.Response",
    "value": [
        {
            "element-6066-11e4-a52e-4f735466cecf": "d78ff719-75d4-4df1-bae3-661ec890dc05"
        }
    ],
    "status": 0
}