{
    "state": "success",
    "sessionId": null,
    "class": "org.openqa.selenium.remote.Response",
    "value": [
        {
            "element-6066-11e4-a52e-4f735466cecf": "8d1fd9dd-5fd4-4b4e-853d-5409c5b19ac4"
        }
    ],
    "status": 0
}