{
    "state": "success",
    "sessionId": null,
    "class": "org.openqa.selenium.remote.Response",
    "value": [
        {
            "element-6066-11e4-a52e-4f735466cecf": "88436f3a-36d5-4df5-aa9e-89bf1575b046"
        }
    ],
    "status": 0
}