{
    "state": "success",
    "sessionId": null,
    "class": "org.openqa.selenium.remote.Response",
    "value": {
        "element-6066-11e4-a52e-4f735466cecf": "fa9c0e0d-e961-46a6-8b61-893b65945ee8"
    },
    "status": 0
}