{
    "state": "success",
    "sessionId": null,
    "class": "org.openqa.selenium.remote.Response",
    "value": [
        {
            "element-6066-11e4-a52e-4f735466cecf": "2f58d865-1c7d-48e4-9e61-b48f56c26ccf"
        }
    ],
    "status": 0
}