{
    "state": "success",
    "sessionId": null,
    "class": "org.openqa.selenium.remote.Response",
    "value": [
        {
            "element-6066-11e4-a52e-4f735466cecf": "987e19de-864d-4e60-95b7-93eaa15da8bb"
        }
    ],
    "status": 0
}