{
    "state": "success",
    "sessionId": null,
    "class": "org.openqa.selenium.remote.Response",
    "value": [
        {
            "element-6066-11e4-a52e-4f735466cecf": "e4d5019e-e170-4481-8649-66af497da066"
        }
    ],
    "status": 0
}