{
    "state": "success",
    "sessionId": null,
    "class": "org.openqa.selenium.remote.Response",
    "value": {
        "element-6066-11e4-a52e-4f735466cecf": "9502dc65-d7b0-4e16-8def-3762c1b6e240"
    },
    "status": 0
}