{
    "state": "success",
    "sessionId": null,
    "class": "org.openqa.selenium.remote.Response",
    "value": [
        {
            "element-6066-11e4-a52e-4f735466cecf": "1b39589d-80f2-4709-ba29-5b5fbd7c1087"
        }
    ],
    "status": 0
}