{
    "state": "success",
    "sessionId": null,
    "class": "org.openqa.selenium.remote.Response",
    "value": [
        {
            "element-6066-11e4-a52e-4f735466cecf": "3aad9473-4ebc-4176-94bc-5e1337fbbe6c"
        }
    ],
    "status": 0
}