{
    "state": "success",
    "sessionId": null,
    "class": "org.openqa.selenium.remote.Response",
    "value": {
        "element-6066-11e4-a52e-4f735466cecf": "d529f88b-b6ce-471b-bbc5-5f7fef919972"
    },
    "status": 0
}