{
    "state": "success",
    "sessionId": null,
    "class": "org.openqa.selenium.remote.Response",
    "value": {
        "element-6066-11e4-a52e-4f735466cecf": "30cf3b73-0166-4ebe-8399-cf89b484eeae"
    },
    "status": 0
}