{
    "state": "success",
    "sessionId": null,
    "class": "org.openqa.selenium.remote.Response",
    "value": [
        {
            "element-6066-11e4-a52e-4f735466cecf": "9484f4b1-6057-4c97-a8b9-e1e271babd85"
        }
    ],
    "status": 0
}