{
    "state": "success",
    "sessionId": null,
    "class": "org.openqa.selenium.remote.Response",
    "value": [
        {
            "element-6066-11e4-a52e-4f735466cecf": "7c93bf50-f00e-4566-8e77-20a205165ef5"
        }
    ],
    "status": 0
}