{
    "state": "success",
    "sessionId": null,
    "class": "org.openqa.selenium.remote.Response",
    "value": {
        "element-6066-11e4-a52e-4f735466cecf": "48314b9f-1048-4016-bd0f-7197b51cea83"
    },
    "status": 0
}