{
    "state": "success",
    "sessionId": null,
    "class": "org.openqa.selenium.remote.Response",
    "value": {
        "element-6066-11e4-a52e-4f735466cecf": "fb0b97a0-6132-4cd9-a8ee-f1b8006a17ce"
    },
    "status": 0
}