{
    "state": "success",
    "sessionId": null,
    "class": "org.openqa.selenium.remote.Response",
    "value": {
        "element-6066-11e4-a52e-4f735466cecf": "4127bd0c-cf88-4ddd-bb38-c1b551b8edda"
    },
    "status": 0
}