{
    "state": "success",
    "sessionId": null,
    "class": "org.openqa.selenium.remote.Response",
    "value": [
        {
            "element-6066-11e4-a52e-4f735466cecf": "eb3d495f-f7cd-444f-967e-e32facccea4a"
        }
    ],
    "status": 0
}