{
    "state": "success",
    "sessionId": null,
    "class": "org.openqa.selenium.remote.Response",
    "value": {
        "element-6066-11e4-a52e-4f735466cecf": "52576f82-992c-4c06-b987-721cc23507b9"
    },
    "status": 0
}