{
    "state": "success",
    "sessionId": null,
    "class": "org.openqa.selenium.remote.Response",
    "value": [
        {
            "element-6066-11e4-a52e-4f735466cecf": "2d918ddb-ca75-46c7-96cb-d42b3d5f5b0a"
        }
    ],
    "status": 0
}