{
    "state": "success",
    "sessionId": null,
    "class": "org.openqa.selenium.remote.Response",
    "value": {
        "element-6066-11e4-a52e-4f735466cecf": "bf28fef5-2694-4404-8687-f18213844a83"
    },
    "status": 0
}