{
    "state": "success",
    "sessionId": null,
    "class": "org.openqa.selenium.remote.Response",
    "value": {
        "element-6066-11e4-a52e-4f735466cecf": "d62c58dd-17c7-4d2d-8aa2-5368ffa5c8dc"
    },
    "status": 0
}