{
    "state": "success",
    "sessionId": null,
    "class": "org.openqa.selenium.remote.Response",
    "value": {
        "element-6066-11e4-a52e-4f735466cecf": "f0c9bdf1-aeb1-4288-a6e0-c38ab16b267a"
    },
    "status": 0
}