{
    "state": "success",
    "sessionId": null,
    "class": "org.openqa.selenium.remote.Response",
    "value": {
        "element-6066-11e4-a52e-4f735466cecf": "5dc646f6-caaf-4f9c-ad7d-83043ad1c9b6"
    },
    "status": 0
}