{
    "state": "success",
    "sessionId": null,
    "class": "org.openqa.selenium.remote.Response",
    "value": {
        "element-6066-11e4-a52e-4f735466cecf": "299d08b0-aeae-409e-bd34-46bbba5113bb"
    },
    "status": 0
}