{
    "state": "success",
    "sessionId": null,
    "class": "org.openqa.selenium.remote.Response",
    "value": {
        "element-6066-11e4-a52e-4f735466cecf": "924b03e8-6a76-4a88-a35f-02b11057c141"
    },
    "status": 0
}