{
    "state": "success",
    "sessionId": null,
    "class": "org.openqa.selenium.remote.Response",
    "value": {
        "element-6066-11e4-a52e-4f735466cecf": "d9c0ed39-3141-4371-8d36-fba01f1830ee"
    },
    "status": 0
}