{
    "state": "success",
    "sessionId": null,
    "class": "org.openqa.selenium.remote.Response",
    "value": {
        "element-6066-11e4-a52e-4f735466cecf": "4988d85c-2022-4e9f-96cd-205b5ec1606d"
    },
    "status": 0
}