{
    "state": "success",
    "sessionId": null,
    "class": "org.openqa.selenium.remote.Response",
    "value": [
        {
            "element-6066-11e4-a52e-4f735466cecf": "a4e2c9fb-afbf-4296-82fc-bda469c94366"
        }
    ],
    "status": 0
}