{
    "state": "success",
    "sessionId": null,
    "class": "org.openqa.selenium.remote.Response",
    "value": [
        {
            "element-6066-11e4-a52e-4f735466cecf": "549c31bd-7f7f-4f7a-b26c-a95b3aebb0ef"
        }
    ],
    "status": 0
}