{
    "state": "success",
    "sessionId": null,
    "class": "org.openqa.selenium.remote.Response",
    "value": {
        "element-6066-11e4-a52e-4f735466cecf": "dee1f4c4-e775-4b89-8beb-917eb5be0e00"
    },
    "status": 0
}