{
    "state": "success",
    "sessionId": null,
    "class": "org.openqa.selenium.remote.Response",
    "value": [
        {
            "element-6066-11e4-a52e-4f735466cecf": "d9a1c267-ce17-4059-89a0-422ac91ebaea"
        }
    ],
    "status": 0
}