{
    "state": "success",
    "sessionId": null,
    "class": "org.openqa.selenium.remote.Response",
    "value": [
        {
            "element-6066-11e4-a52e-4f735466cecf": "08fb2007-8216-417e-90aa-a8d96a7fa1b5"
        }
    ],
    "status": 0
}