{
    "state": "success",
    "sessionId": null,
    "class": "org.openqa.selenium.remote.Response",
    "value": {
        "element-6066-11e4-a52e-4f735466cecf": "12050786-5e75-4ff6-a3f1-a577bc7e4952"
    },
    "status": 0
}