{
    "state": "success",
    "sessionId": null,
    "class": "org.openqa.selenium.remote.Response",
    "value": [
        {
            "element-6066-11e4-a52e-4f735466cecf": "484ae408-d3c1-47d3-bc00-f21182ed0f8f"
        }
    ],
    "status": 0
}