{
    "state": "success",
    "sessionId": null,
    "class": "org.openqa.selenium.remote.Response",
    "value": [
        {
            "element-6066-11e4-a52e-4f735466cecf": "1de317b2-9fdb-488f-aa20-b00d1acc55d3"
        }
    ],
    "status": 0
}