{
    "state": "success",
    "sessionId": null,
    "class": "org.openqa.selenium.remote.Response",
    "value": [
        {
            "element-6066-11e4-a52e-4f735466cecf": "b499464d-b59e-4f14-a521-f5737c7ec978"
        }
    ],
    "status": 0
}