{
    "state": "success",
    "sessionId": null,
    "class": "org.openqa.selenium.remote.Response",
    "value": [
        {
            "element-6066-11e4-a52e-4f735466cecf": "75dbda12-b0ac-4558-9b5e-3b8883129dad"
        }
    ],
    "status": 0
}