{
    "state": "success",
    "sessionId": null,
    "class": "org.openqa.selenium.remote.Response",
    "value": {
        "element-6066-11e4-a52e-4f735466cecf": "7e4a95c7-bddc-4cbf-b175-6b46a09b92a0"
    },
    "status": 0
}