{
    "state": "success",
    "sessionId": null,
    "class": "org.openqa.selenium.remote.Response",
    "value": {
        "element-6066-11e4-a52e-4f735466cecf": "3282766b-0f27-4e84-bbbb-f4fc041384c6"
    },
    "status": 0
}