{
    "state": "success",
    "sessionId": null,
    "class": "org.openqa.selenium.remote.Response",
    "value": [
        {
            "element-6066-11e4-a52e-4f735466cecf": "62e0aa71-e243-45a0-859e-3cb0b463d3bf"
        }
    ],
    "status": 0
}