{
    "state": "success",
    "sessionId": null,
    "class": "org.openqa.selenium.remote.Response",
    "value": {
        "element-6066-11e4-a52e-4f735466cecf": "dd007288-053a-4d4a-b263-30d3510c21e0"
    },
    "status": 0
}