{
    "state": "success",
    "sessionId": null,
    "class": "org.openqa.selenium.remote.Response",
    "value": {
        "element-6066-11e4-a52e-4f735466cecf": "e17c568f-c554-4bd7-a59f-ac5444185f08"
    },
    "status": 0
}