{
    "state": "success",
    "sessionId": null,
    "class": "org.openqa.selenium.remote.Response",
    "value": [
        {
            "element-6066-11e4-a52e-4f735466cecf": "258b271a-9dc9-46ac-a62c-6c298e673542"
        }
    ],
    "status": 0
}