{
    "state": "success",
    "sessionId": null,
    "class": "org.openqa.selenium.remote.Response",
    "value": [
        {
            "element-6066-11e4-a52e-4f735466cecf": "8c5b53c6-5844-4f7b-b404-38363f4d4369"
        }
    ],
    "status": 0
}