{
    "state": "success",
    "sessionId": null,
    "class": "org.openqa.selenium.remote.Response",
    "value": {
        "element-6066-11e4-a52e-4f735466cecf": "2836367c-6e5c-4188-a82d-1be60f7583b8"
    },
    "status": 0
}