{
    "state": "success",
    "sessionId": null,
    "class": "org.openqa.selenium.remote.Response",
    "value": {
        "element-6066-11e4-a52e-4f735466cecf": "bad6685e-20ef-4354-a354-961dc4e8c1d5"
    },
    "status": 0
}