{
    "state": "success",
    "sessionId": null,
    "class": "org.openqa.selenium.remote.Response",
    "value": [
        {
            "element-6066-11e4-a52e-4f735466cecf": "4abe1671-3210-4ee8-a49a-c8b8c05a6880"
        }
    ],
    "status": 0
}