{
    "state": "success",
    "sessionId": null,
    "class": "org.openqa.selenium.remote.Response",
    "value": {
        "element-6066-11e4-a52e-4f735466cecf": "ed0a2e73-7192-41a6-8d85-b545af16fe72"
    },
    "status": 0
}