{
    "state": "success",
    "sessionId": null,
    "class": "org.openqa.selenium.remote.Response",
    "value": {
        "element-6066-11e4-a52e-4f735466cecf": "1203e775-0de7-4c31-a060-1b010783f161"
    },
    "status": 0
}