{
    "state": "success",
    "sessionId": null,
    "class": "org.openqa.selenium.remote.Response",
    "value": {
        "element-6066-11e4-a52e-4f735466cecf": "d59689b9-5a9d-421b-bd70-d24afc6ccbbf"
    },
    "status": 0
}