{
    "state": "success",
    "sessionId": null,
    "class": "org.openqa.selenium.remote.Response",
    "value": [
        {
            "element-6066-11e4-a52e-4f735466cecf": "d5d92994-51ab-4d8b-9ef4-f33a99157746"
        }
    ],
    "status": 0
}