{
    "state": "success",
    "sessionId": null,
    "class": "org.openqa.selenium.remote.Response",
    "value": [
        {
            "element-6066-11e4-a52e-4f735466cecf": "0112a7e3-ea28-454e-8155-67362c2c0a76"
        }
    ],
    "status": 0
}