{
    "state": "success",
    "sessionId": null,
    "class": "org.openqa.selenium.remote.Response",
    "value": [
        {
            "element-6066-11e4-a52e-4f735466cecf": "6cda1a48-ed21-4e16-a32c-51df57ad7ebf"
        }
    ],
    "status": 0
}