{
    "state": "success",
    "sessionId": null,
    "class": "org.openqa.selenium.remote.Response",
    "value": {
        "element-6066-11e4-a52e-4f735466cecf": "0dd7e30e-1ac7-48f5-94bb-d720f1f31893"
    },
    "status": 0
}