{
    "state": "success",
    "sessionId": null,
    "class": "org.openqa.selenium.remote.Response",
    "value": {
        "element-6066-11e4-a52e-4f735466cecf": "b1caebd2-d12c-448a-8cf9-789c8bb1908c"
    },
    "status": 0
}