{
    "state": "success",
    "sessionId": null,
    "class": "org.openqa.selenium.remote.Response",
    "value": {
        "element-6066-11e4-a52e-4f735466cecf": "76efb8ae-088c-4b33-af2a-e7a648f46f7b"
    },
    "status": 0
}