{
    "state": "success",
    "sessionId": null,
    "class": "org.openqa.selenium.remote.Response",
    "value": {
        "element-6066-11e4-a52e-4f735466cecf": "87eca20d-b979-4ad8-b8d4-64fdd625510f"
    },
    "status": 0
}