{
    "state": "success",
    "sessionId": null,
    "class": "org.openqa.selenium.remote.Response",
    "value": {
        "element-6066-11e4-a52e-4f735466cecf": "53df9ab6-4a44-4f2d-bdf4-409b0886bca4"
    },
    "status": 0
}