{
    "state": "success",
    "sessionId": null,
    "class": "org.openqa.selenium.remote.Response",
    "value": {
        "element-6066-11e4-a52e-4f735466cecf": "e49abd07-f9ef-430a-ac1e-3599b2e992f6"
    },
    "status": 0
}