{
    "state": "success",
    "sessionId": null,
    "class": "org.openqa.selenium.remote.Response",
    "value": {
        "element-6066-11e4-a52e-4f735466cecf": "4e1f594e-124f-49f3-a78c-5772d23269ec"
    },
    "status": 0
}