{
    "state": "success",
    "sessionId": null,
    "class": "org.openqa.selenium.remote.Response",
    "value": {
        "element-6066-11e4-a52e-4f735466cecf": "df216440-cb77-435d-a144-0d81dac899ce"
    },
    "status": 0
}