{
    "state": "success",
    "sessionId": null,
    "class": "org.openqa.selenium.remote.Response",
    "value": [
        {
            "element-6066-11e4-a52e-4f735466cecf": "e5034907-ad1c-46fb-9af3-029c83ecf448"
        }
    ],
    "status": 0
}