{
    "state": "success",
    "sessionId": null,
    "class": "org.openqa.selenium.remote.Response",
    "value": {
        "element-6066-11e4-a52e-4f735466cecf": "869294cf-575a-415b-a22e-2f40b6ff62ce"
    },
    "status": 0
}