{
    "state": "success",
    "sessionId": null,
    "class": "org.openqa.selenium.remote.Response",
    "value": [
        {
            "element-6066-11e4-a52e-4f735466cecf": "3e681c11-37de-4863-8ac2-0c091ae5ecdf"
        }
    ],
    "status": 0
}