{
    "state": "success",
    "sessionId": null,
    "class": "org.openqa.selenium.remote.Response",
    "value": [
        {
            "element-6066-11e4-a52e-4f735466cecf": "300ca3b4-143a-4332-9d53-6699f4ac9fe9"
        }
    ],
    "status": 0
}