{
    "state": "success",
    "sessionId": null,
    "class": "org.openqa.selenium.remote.Response",
    "value": [
        {
            "element-6066-11e4-a52e-4f735466cecf": "64098875-a241-44d1-b288-e576257ec3c9"
        }
    ],
    "status": 0
}