{
    "state": "success",
    "sessionId": null,
    "class": "org.openqa.selenium.remote.Response",
    "value": [
        {
            "element-6066-11e4-a52e-4f735466cecf": "5a648c65-ea83-4673-8eab-396c13303736"
        }
    ],
    "status": 0
}