{
    "state": "success",
    "sessionId": null,
    "class": "org.openqa.selenium.remote.Response",
    "value": {
        "element-6066-11e4-a52e-4f735466cecf": "510a3ee9-d337-4a8b-8b39-bb1660215cb8"
    },
    "status": 0
}