{
    "state": "success",
    "sessionId": null,
    "class": "org.openqa.selenium.remote.Response",
    "value": {
        "element-6066-11e4-a52e-4f735466cecf": "91f0ad63-c312-42c3-9631-9765ea7ce535"
    },
    "status": 0
}