{
    "state": "success",
    "sessionId": null,
    "class": "org.openqa.selenium.remote.Response",
    "value": {
        "element-6066-11e4-a52e-4f735466cecf": "204bd5f1-076e-4825-93ea-fc8263a43529"
    },
    "status": 0
}