{
    "state": "success",
    "sessionId": null,
    "class": "org.openqa.selenium.remote.Response",
    "value": {
        "element-6066-11e4-a52e-4f735466cecf": "128d1cd3-fcee-4a59-b42f-e42ed2d88795"
    },
    "status": 0
}