{
    "state": "success",
    "sessionId": null,
    "class": "org.openqa.selenium.remote.Response",
    "value": {
        "element-6066-11e4-a52e-4f735466cecf": "cce3ed1f-5fc1-48eb-9c90-432787050fd7"
    },
    "status": 0
}