{
    "state": "success",
    "sessionId": null,
    "class": "org.openqa.selenium.remote.Response",
    "value": {
        "element-6066-11e4-a52e-4f735466cecf": "6259c3e8-0414-40e0-848f-1143db7128c8"
    },
    "status": 0
}