{
    "state": "success",
    "sessionId": null,
    "class": "org.openqa.selenium.remote.Response",
    "value": [
        {
            "element-6066-11e4-a52e-4f735466cecf": "eebd8912-34d2-4906-b7ab-541db1446140"
        }
    ],
    "status": 0
}