{
    "state": "success",
    "sessionId": null,
    "class": "org.openqa.selenium.remote.Response",
    "value": {
        "element-6066-11e4-a52e-4f735466cecf": "565f53da-7ee4-49f7-b08c-19f9bcfc4857"
    },
    "status": 0
}