{
    "state": "success",
    "sessionId": null,
    "class": "org.openqa.selenium.remote.Response",
    "value": {
        "element-6066-11e4-a52e-4f735466cecf": "c4bbf2ad-362e-48fa-9271-120db14acdad"
    },
    "status": 0
}