{
    "state": "success",
    "sessionId": null,
    "class": "org.openqa.selenium.remote.Response",
    "value": [
        {
            "element-6066-11e4-a52e-4f735466cecf": "94d8cfe4-431f-4813-917a-e78741aa4a90"
        }
    ],
    "status": 0
}