{
    "state": "success",
    "sessionId": null,
    "class": "org.openqa.selenium.remote.Response",
    "value": [
        {
            "element-6066-11e4-a52e-4f735466cecf": "03450081-eab6-4797-b775-95ea85a77d44"
        }
    ],
    "status": 0
}