{
    "state": "success",
    "sessionId": null,
    "class": "org.openqa.selenium.remote.Response",
    "value": {
        "element-6066-11e4-a52e-4f735466cecf": "80e6736e-6ad5-4292-a184-ab1b79fc6595"
    },
    "status": 0
}