{
    "state": "success",
    "sessionId": null,
    "class": "org.openqa.selenium.remote.Response",
    "value": [
        {
            "element-6066-11e4-a52e-4f735466cecf": "2d77ce24-14ac-4c59-a0f9-3f9b2f294192"
        }
    ],
    "status": 0
}