{
    "state": "success",
    "sessionId": null,
    "class": "org.openqa.selenium.remote.Response",
    "value": {
        "element-6066-11e4-a52e-4f735466cecf": "269c7d05-0131-4eb2-b533-371089364581"
    },
    "status": 0
}