{
    "state": "success",
    "sessionId": null,
    "class": "org.openqa.selenium.remote.Response",
    "value": {
        "element-6066-11e4-a52e-4f735466cecf": "be62fb60-8818-44f0-ae2a-c5f5dc5b6c5d"
    },
    "status": 0
}