{
    "state": "success",
    "sessionId": null,
    "class": "org.openqa.selenium.remote.Response",
    "value": {
        "element-6066-11e4-a52e-4f735466cecf": "77a56a77-3b68-48e5-be98-f48788500921"
    },
    "status": 0
}