{
    "state": "success",
    "sessionId": null,
    "class": "org.openqa.selenium.remote.Response",
    "value": [
        {
            "element-6066-11e4-a52e-4f735466cecf": "08fe1fd5-2e68-44d6-92c4-60fecd36e560"
        }
    ],
    "status": 0
}