{
    "state": "success",
    "sessionId": null,
    "class": "org.openqa.selenium.remote.Response",
    "value": {
        "element-6066-11e4-a52e-4f735466cecf": "1390c980-1351-403e-8cc8-0f91d9ec7ee5"
    },
    "status": 0
}