{
    "state": "success",
    "sessionId": null,
    "class": "org.openqa.selenium.remote.Response",
    "value": {
        "element-6066-11e4-a52e-4f735466cecf": "2bd12cd8-e3a7-493a-8f1b-8afd6f0cbc9d"
    },
    "status": 0
}