{
    "state": "success",
    "sessionId": null,
    "class": "org.openqa.selenium.remote.Response",
    "value": {
        "element-6066-11e4-a52e-4f735466cecf": "231436e5-d3bd-4c82-bd8d-f11103bbb29b"
    },
    "status": 0
}