{
    "state": "success",
    "sessionId": null,
    "class": "org.openqa.selenium.remote.Response",
    "value": {
        "element-6066-11e4-a52e-4f735466cecf": "ab61e9e5-958e-41d9-8b45-8c5fa99147ab"
    },
    "status": 0
}