{
    "state": "success",
    "sessionId": null,
    "class": "org.openqa.selenium.remote.Response",
    "value": {
        "element-6066-11e4-a52e-4f735466cecf": "b7749579-8871-45e4-b1e0-bc8ab0a6cb02"
    },
    "status": 0
}