{
    "state": "success",
    "sessionId": null,
    "class": "org.openqa.selenium.remote.Response",
    "value": {
        "element-6066-11e4-a52e-4f735466cecf": "a82f0ee4-2564-403d-b9c0-e09add0f8e6b"
    },
    "status": 0
}