{
    "state": "success",
    "sessionId": null,
    "class": "org.openqa.selenium.remote.Response",
    "value": {
        "element-6066-11e4-a52e-4f735466cecf": "3c22a0f5-250d-4ba1-bfde-a6197cef7850"
    },
    "status": 0
}