{
    "state": "success",
    "sessionId": null,
    "class": "org.openqa.selenium.remote.Response",
    "value": {
        "element-6066-11e4-a52e-4f735466cecf": "b9f90243-ca67-40bf-8649-25bd7f1d6994"
    },
    "status": 0
}