{
    "state": "success",
    "sessionId": null,
    "class": "org.openqa.selenium.remote.Response",
    "value": {
        "element-6066-11e4-a52e-4f735466cecf": "2cb82416-f723-4e7f-8c1c-99a7690b2ca0"
    },
    "status": 0
}