{
    "state": "success",
    "sessionId": null,
    "class": "org.openqa.selenium.remote.Response",
    "value": [
        {
            "element-6066-11e4-a52e-4f735466cecf": "df2424d4-e7a1-42d0-83d6-0c6cb6d39950"
        }
    ],
    "status": 0
}