{
    "state": "success",
    "sessionId": null,
    "class": "org.openqa.selenium.remote.Response",
    "value": [
        {
            "element-6066-11e4-a52e-4f735466cecf": "9d45d6a5-531e-41ff-9055-b5c3fb197bf4"
        }
    ],
    "status": 0
}