{
    "state": "success",
    "sessionId": null,
    "class": "org.openqa.selenium.remote.Response",
    "value": {
        "element-6066-11e4-a52e-4f735466cecf": "550d4a33-0e31-47eb-b759-40b75657f9ea"
    },
    "status": 0
}