{
    "state": "success",
    "sessionId": null,
    "class": "org.openqa.selenium.remote.Response",
    "value": {
        "element-6066-11e4-a52e-4f735466cecf": "3efd1ec3-d17f-45ca-98c6-2f620f96e294"
    },
    "status": 0
}