{
    "state": "success",
    "sessionId": null,
    "class": "org.openqa.selenium.remote.Response",
    "value": {
        "element-6066-11e4-a52e-4f735466cecf": "4ad3ef2f-95f8-4a37-a7e7-1024c2bff417"
    },
    "status": 0
}