{
    "state": "success",
    "sessionId": null,
    "class": "org.openqa.selenium.remote.Response",
    "value": {
        "element-6066-11e4-a52e-4f735466cecf": "d394ec4e-de3b-4a93-a82a-94c4e3d9c6c6"
    },
    "status": 0
}