{
    "state": "success",
    "sessionId": null,
    "class": "org.openqa.selenium.remote.Response",
    "value": {
        "element-6066-11e4-a52e-4f735466cecf": "15a44c63-c78c-4cfc-9f69-118a3828eee7"
    },
    "status": 0
}