{
    "state": "success",
    "sessionId": null,
    "class": "org.openqa.selenium.remote.Response",
    "value": [
        {
            "element-6066-11e4-a52e-4f735466cecf": "375788f0-ec45-46cc-86da-bdd42e381f6f"
        }
    ],
    "status": 0
}