{
    "state": "success",
    "sessionId": null,
    "class": "org.openqa.selenium.remote.Response",
    "value": {
        "element-6066-11e4-a52e-4f735466cecf": "708c0ab6-63c7-4d3f-a6d2-9708a8e5bd7e"
    },
    "status": 0
}