{
    "state": "success",
    "sessionId": null,
    "class": "org.openqa.selenium.remote.Response",
    "value": {
        "element-6066-11e4-a52e-4f735466cecf": "ba0ddc24-195e-4c52-b606-2476ac1847c8"
    },
    "status": 0
}