{
    "state": "success",
    "sessionId": null,
    "class": "org.openqa.selenium.remote.Response",
    "value": {
        "element-6066-11e4-a52e-4f735466cecf": "7af66c98-0d86-4fa7-9818-632aa9defd28"
    },
    "status": 0
}