{
    "state": "success",
    "sessionId": null,
    "class": "org.openqa.selenium.remote.Response",
    "value": {
        "element-6066-11e4-a52e-4f735466cecf": "6b43e373-9f6c-4836-a208-2ae741cf7233"
    },
    "status": 0
}