{
    "state": "success",
    "sessionId": null,
    "class": "org.openqa.selenium.remote.Response",
    "value": {
        "element-6066-11e4-a52e-4f735466cecf": "b2cd9eb0-412c-4462-b70c-6f9b24287844"
    },
    "status": 0
}