{
    "state": "success",
    "sessionId": null,
    "class": "org.openqa.selenium.remote.Response",
    "value": {
        "element-6066-11e4-a52e-4f735466cecf": "8a53d2e8-9f55-47b4-93c1-57cf3be0e492"
    },
    "status": 0
}