{
    "state": "success",
    "sessionId": null,
    "class": "org.openqa.selenium.remote.Response",
    "value": {
        "element-6066-11e4-a52e-4f735466cecf": "8755153d-a3d5-4276-827f-858e449358d6"
    },
    "status": 0
}