{
    "state": "success",
    "sessionId": null,
    "class": "org.openqa.selenium.remote.Response",
    "value": [
        {
            "element-6066-11e4-a52e-4f735466cecf": "e6748766-f847-4929-a1bd-74d4497d2114"
        }
    ],
    "status": 0
}