{
    "state": "success",
    "sessionId": null,
    "class": "org.openqa.selenium.remote.Response",
    "value": [
        {
            "element-6066-11e4-a52e-4f735466cecf": "b650d2ff-063c-430b-8e13-23500294478c"
        }
    ],
    "status": 0
}