{
    "state": "success",
    "sessionId": null,
    "class": "org.openqa.selenium.remote.Response",
    "value": {
        "element-6066-11e4-a52e-4f735466cecf": "8542c97d-67df-4a5a-a143-84fc1cbe8708"
    },
    "status": 0
}