{
    "state": "success",
    "sessionId": null,
    "class": "org.openqa.selenium.remote.Response",
    "value": {
        "element-6066-11e4-a52e-4f735466cecf": "b12cbac2-7d94-496d-ba39-f845cbccd1c7"
    },
    "status": 0
}