{
    "state": "success",
    "sessionId": null,
    "class": "org.openqa.selenium.remote.Response",
    "value": {
        "element-6066-11e4-a52e-4f735466cecf": "fa88368c-d4a5-4441-941c-7d7226a9c529"
    },
    "status": 0
}