{
    "state": "success",
    "sessionId": null,
    "class": "org.openqa.selenium.remote.Response",
    "value": {
        "element-6066-11e4-a52e-4f735466cecf": "2d2f4b4a-f460-4bac-9171-1c81c411921d"
    },
    "status": 0
}