{
    "state": "success",
    "sessionId": null,
    "class": "org.openqa.selenium.remote.Response",
    "value": {
        "element-6066-11e4-a52e-4f735466cecf": "f4272e61-9c4f-4799-b2aa-bfd22f788441"
    },
    "status": 0
}