{
    "state": "success",
    "sessionId": null,
    "class": "org.openqa.selenium.remote.Response",
    "value": [
        {
            "element-6066-11e4-a52e-4f735466cecf": "10b8aa33-4977-415f-b4e9-87037b4a1493"
        }
    ],
    "status": 0
}