{
    "state": "success",
    "sessionId": null,
    "class": "org.openqa.selenium.remote.Response",
    "value": {
        "element-6066-11e4-a52e-4f735466cecf": "7799408c-a7d2-4b6d-b199-f28c31da7ae9"
    },
    "status": 0
}