{
    "state": "success",
    "sessionId": null,
    "class": "org.openqa.selenium.remote.Response",
    "value": {
        "element-6066-11e4-a52e-4f735466cecf": "438badd5-a749-4dc2-bdf7-185c44bcf5d4"
    },
    "status": 0
}