{
    "state": "success",
    "sessionId": null,
    "class": "org.openqa.selenium.remote.Response",
    "value": [
        {
            "element-6066-11e4-a52e-4f735466cecf": "695c95c3-a01f-423c-a3d5-dde0be8cb241"
        }
    ],
    "status": 0
}