{
    "state": "success",
    "sessionId": null,
    "class": "org.openqa.selenium.remote.Response",
    "value": {
        "element-6066-11e4-a52e-4f735466cecf": "50144708-5afb-4013-a0c1-f63da51858f2"
    },
    "status": 0
}