{
    "state": "success",
    "sessionId": null,
    "class": "org.openqa.selenium.remote.Response",
    "value": [
        {
            "element-6066-11e4-a52e-4f735466cecf": "4f7615a2-d876-43f5-bfb5-6a71fa5942ad"
        }
    ],
    "status": 0
}