{
    "state": "success",
    "sessionId": null,
    "class": "org.openqa.selenium.remote.Response",
    "value": {
        "element-6066-11e4-a52e-4f735466cecf": "634b402d-8489-4170-b762-7e083f9a6da7"
    },
    "status": 0
}