{
    "state": "success",
    "sessionId": null,
    "class": "org.openqa.selenium.remote.Response",
    "value": [
        {
            "element-6066-11e4-a52e-4f735466cecf": "592285c3-c2f9-477b-9617-d8d244b88821"
        }
    ],
    "status": 0
}