{
    "state": "success",
    "sessionId": null,
    "class": "org.openqa.selenium.remote.Response",
    "value": [
        {
            "element-6066-11e4-a52e-4f735466cecf": "ac08f156-d875-443f-9910-90c8cb9bfded"
        }
    ],
    "status": 0
}