{
    "state": "success",
    "sessionId": null,
    "class": "org.openqa.selenium.remote.Response",
    "value": {
        "element-6066-11e4-a52e-4f735466cecf": "99bd7919-d1c6-459e-a138-8fb5a5844728"
    },
    "status": 0
}