{
    "state": "success",
    "sessionId": null,
    "class": "org.openqa.selenium.remote.Response",
    "value": [
        {
            "element-6066-11e4-a52e-4f735466cecf": "6672632f-301f-48ca-8242-51ace514f9f0"
        }
    ],
    "status": 0
}