{
    "state": "success",
    "sessionId": null,
    "class": "org.openqa.selenium.remote.Response",
    "value": {
        "element-6066-11e4-a52e-4f735466cecf": "b069162c-00df-4524-b37f-20ef88bd5d7a"
    },
    "status": 0
}