{
    "state": "success",
    "sessionId": null,
    "class": "org.openqa.selenium.remote.Response",
    "value": {
        "element-6066-11e4-a52e-4f735466cecf": "30e831bc-c3f7-4126-b142-5d4e202f2073"
    },
    "status": 0
}