{
    "state": "success",
    "sessionId": null,
    "class": "org.openqa.selenium.remote.Response",
    "value": {
        "element-6066-11e4-a52e-4f735466cecf": "471b6a19-aaf6-401b-9508-123354454d1f"
    },
    "status": 0
}