{
    "state": "success",
    "sessionId": null,
    "class": "org.openqa.selenium.remote.Response",
    "value": {
        "element-6066-11e4-a52e-4f735466cecf": "ec05186b-7fed-4aec-932b-835d9db35d46"
    },
    "status": 0
}