{
    "state": "success",
    "sessionId": null,
    "class": "org.openqa.selenium.remote.Response",
    "value": [
        {
            "element-6066-11e4-a52e-4f735466cecf": "81e56ce6-31c6-469b-9576-cd3a8b9792b6"
        }
    ],
    "status": 0
}