{
    "state": "success",
    "sessionId": null,
    "class": "org.openqa.selenium.remote.Response",
    "value": [
        {
            "element-6066-11e4-a52e-4f735466cecf": "f3c7b2e2-78dd-4aa2-879a-c18262a78170"
        }
    ],
    "status": 0
}