{
    "state": "success",
    "sessionId": null,
    "class": "org.openqa.selenium.remote.Response",
    "value": {
        "element-6066-11e4-a52e-4f735466cecf": "cc761dae-f5c4-46d7-8e6f-271c37fe17bf"
    },
    "status": 0
}