{
    "state": "success",
    "sessionId": null,
    "class": "org.openqa.selenium.remote.Response",
    "value": [
        {
            "element-6066-11e4-a52e-4f735466cecf": "7934d491-f761-430c-a07a-ee40c0b9d8aa"
        }
    ],
    "status": 0
}