{
    "state": "success",
    "sessionId": null,
    "class": "org.openqa.selenium.remote.Response",
    "value": [
        {
            "element-6066-11e4-a52e-4f735466cecf": "f65f1aaf-3104-4f09-a492-429202a9e5da"
        }
    ],
    "status": 0
}