{
    "state": "success",
    "sessionId": null,
    "class": "org.openqa.selenium.remote.Response",
    "value": [
        {
            "element-6066-11e4-a52e-4f735466cecf": "fb3461a9-c2ef-47a3-997f-6c78812961fd"
        }
    ],
    "status": 0
}