{
    "state": "success",
    "sessionId": null,
    "class": "org.openqa.selenium.remote.Response",
    "value": {
        "element-6066-11e4-a52e-4f735466cecf": "7094a380-1b4f-4fff-bd10-1ae89ff22296"
    },
    "status": 0
}