{
    "state": "success",
    "sessionId": null,
    "class": "org.openqa.selenium.remote.Response",
    "value": {
        "element-6066-11e4-a52e-4f735466cecf": "e01fb722-997c-4516-b287-61460957ef16"
    },
    "status": 0
}