{
    "state": "success",
    "sessionId": null,
    "class": "org.openqa.selenium.remote.Response",
    "value": {
        "element-6066-11e4-a52e-4f735466cecf": "839343f7-2fef-4381-8e1e-8c55092d1327"
    },
    "status": 0
}