{
    "state": "success",
    "sessionId": null,
    "class": "org.openqa.selenium.remote.Response",
    "value": {
        "element-6066-11e4-a52e-4f735466cecf": "9fa50c7c-c600-48c1-8db9-c6e1255e389f"
    },
    "status": 0
}