{
    "state": "success",
    "sessionId": null,
    "class": "org.openqa.selenium.remote.Response",
    "value": {
        "element-6066-11e4-a52e-4f735466cecf": "0c9d575e-53fd-4276-afc0-64b0b1303ef0"
    },
    "status": 0
}