{
    "state": "success",
    "sessionId": null,
    "class": "org.openqa.selenium.remote.Response",
    "value": {
        "element-6066-11e4-a52e-4f735466cecf": "c8095512-0a26-4ddc-bd34-278c90846bfd"
    },
    "status": 0
}