{
    "state": "success",
    "sessionId": null,
    "class": "org.openqa.selenium.remote.Response",
    "value": {
        "element-6066-11e4-a52e-4f735466cecf": "023c9f43-9ade-4d53-9709-339598aa2955"
    },
    "status": 0
}