{
    "state": "success",
    "sessionId": null,
    "class": "org.openqa.selenium.remote.Response",
    "value": [
        {
            "element-6066-11e4-a52e-4f735466cecf": "e6681db4-90f2-418d-b189-7fcfb7d4d14f"
        }
    ],
    "status": 0
}