{
    "state": "success",
    "sessionId": null,
    "class": "org.openqa.selenium.remote.Response",
    "value": [
        {
            "element-6066-11e4-a52e-4f735466cecf": "7fc22bce-bc31-4834-a1b5-480db6e2a53d"
        }
    ],
    "status": 0
}