{
    "state": "success",
    "sessionId": null,
    "class": "org.openqa.selenium.remote.Response",
    "value": {
        "element-6066-11e4-a52e-4f735466cecf": "9e493284-a095-4862-b59d-3689285ba81d"
    },
    "status": 0
}