{
    "state": "success",
    "sessionId": null,
    "class": "org.openqa.selenium.remote.Response",
    "value": [
        {
            "element-6066-11e4-a52e-4f735466cecf": "20c05e68-e3c9-4148-b644-f8f1e91742a3"
        }
    ],
    "status": 0
}