{
    "state": "success",
    "sessionId": null,
    "class": "org.openqa.selenium.remote.Response",
    "value": {
        "element-6066-11e4-a52e-4f735466cecf": "67152d05-9157-4aa3-a710-ca1398493402"
    },
    "status": 0
}