{
    "state": "success",
    "sessionId": null,
    "class": "org.openqa.selenium.remote.Response",
    "value": {
        "element-6066-11e4-a52e-4f735466cecf": "f0ff021c-a5cf-4393-9161-b21ee7d06a08"
    },
    "status": 0
}