{
    "state": "success",
    "sessionId": null,
    "class": "org.openqa.selenium.remote.Response",
    "value": {
        "element-6066-11e4-a52e-4f735466cecf": "deec03cb-6d1f-4f75-94f0-f17bfcb6058b"
    },
    "status": 0
}