{
    "state": "success",
    "sessionId": null,
    "class": "org.openqa.selenium.remote.Response",
    "value": {
        "element-6066-11e4-a52e-4f735466cecf": "f9f54877-6398-4450-bb46-85b8e30a2540"
    },
    "status": 0
}