{
    "state": "success",
    "sessionId": null,
    "class": "org.openqa.selenium.remote.Response",
    "value": {
        "element-6066-11e4-a52e-4f735466cecf": "501d1528-b170-42fd-8915-102e49294e65"
    },
    "status": 0
}