{
    "state": "success",
    "sessionId": null,
    "class": "org.openqa.selenium.remote.Response",
    "value": {
        "element-6066-11e4-a52e-4f735466cecf": "4af16e17-f609-41e4-b328-4e7824181acf"
    },
    "status": 0
}