{
    "state": "success",
    "sessionId": null,
    "class": "org.openqa.selenium.remote.Response",
    "value": {
        "element-6066-11e4-a52e-4f735466cecf": "4b155a78-3c16-4579-96dd-7cf124c747bf"
    },
    "status": 0
}