{
    "state": "success",
    "sessionId": null,
    "class": "org.openqa.selenium.remote.Response",
    "value": {
        "element-6066-11e4-a52e-4f735466cecf": "ae4c5bc6-b2b2-4818-ac99-cc2aa7f5346d"
    },
    "status": 0
}