{
    "state": "success",
    "sessionId": null,
    "class": "org.openqa.selenium.remote.Response",
    "value": {
        "element-6066-11e4-a52e-4f735466cecf": "93015be0-21a9-4db5-9ebd-66dc0625b75d"
    },
    "status": 0
}