{
    "state": "success",
    "sessionId": null,
    "class": "org.openqa.selenium.remote.Response",
    "value": [
        {
            "element-6066-11e4-a52e-4f735466cecf": "4fd0b231-7479-4c3b-b151-c6c0481bd507"
        }
    ],
    "status": 0
}