{
    "state": "success",
    "sessionId": null,
    "class": "org.openqa.selenium.remote.Response",
    "value": [
        {
            "element-6066-11e4-a52e-4f735466cecf": "4c87a16e-afe7-4ba4-84c8-8a8ec7cde200"
        }
    ],
    "status": 0
}