{
    "state": "success",
    "sessionId": null,
    "class": "org.openqa.selenium.remote.Response",
    "value": {
        "element-6066-11e4-a52e-4f735466cecf": "d59b6379-120b-41d2-8ca7-9f32bbeb54a8"
    },
    "status": 0
}