{
    "state": "success",
    "sessionId": null,
    "class": "org.openqa.selenium.remote.Response",
    "value": [
        {
            "element-6066-11e4-a52e-4f735466cecf": "9cb54267-5c61-4341-9d17-d4302edb76d0"
        }
    ],
    "status": 0
}