{
    "state": "success",
    "sessionId": null,
    "class": "org.openqa.selenium.remote.Response",
    "value": {
        "element-6066-11e4-a52e-4f735466cecf": "0c5cc612-07c4-4c97-a54f-6bd38d4c9c9d"
    },
    "status": 0
}