{
    "state": "success",
    "sessionId": null,
    "class": "org.openqa.selenium.remote.Response",
    "value": [
        {
            "element-6066-11e4-a52e-4f735466cecf": "8768082e-4e1f-407a-acba-eaf1bfeeeaae"
        }
    ],
    "status": 0
}