{
    "state": "success",
    "sessionId": null,
    "class": "org.openqa.selenium.remote.Response",
    "value": [
        {
            "element-6066-11e4-a52e-4f735466cecf": "4048d6d6-e53c-43fd-924b-9fff57675196"
        }
    ],
    "status": 0
}