{
    "state": "success",
    "sessionId": null,
    "class": "org.openqa.selenium.remote.Response",
    "value": {
        "element-6066-11e4-a52e-4f735466cecf": "ab58b62a-19ad-4f3c-8488-541a9fbcb99a"
    },
    "status": 0
}