{
    "state": "success",
    "sessionId": null,
    "class": "org.openqa.selenium.remote.Response",
    "value": {
        "element-6066-11e4-a52e-4f735466cecf": "96e196a2-9140-4b26-bc72-cbccb8bc1db9"
    },
    "status": 0
}