{
    "state": "success",
    "sessionId": null,
    "class": "org.openqa.selenium.remote.Response",
    "value": {
        "element-6066-11e4-a52e-4f735466cecf": "edc65328-c926-4b4c-aa6b-1138a78905fc"
    },
    "status": 0
}