{
    "state": "success",
    "sessionId": null,
    "class": "org.openqa.selenium.remote.Response",
    "value": [
        {
            "element-6066-11e4-a52e-4f735466cecf": "d74ec13f-ad9c-4e46-ab11-43e161b83702"
        }
    ],
    "status": 0
}