{
    "state": "success",
    "sessionId": null,
    "class": "org.openqa.selenium.remote.Response",
    "value": [
        {
            "element-6066-11e4-a52e-4f735466cecf": "5676b1c8-a10a-4dc5-b3ff-f0f1f9130714"
        }
    ],
    "status": 0
}