{
    "state": "success",
    "sessionId": null,
    "class": "org.openqa.selenium.remote.Response",
    "value": {
        "element-6066-11e4-a52e-4f735466cecf": "1070049d-20dc-487c-a3c9-667615f3af51"
    },
    "status": 0
}