{
    "state": "success",
    "sessionId": null,
    "class": "org.openqa.selenium.remote.Response",
    "value": {
        "element-6066-11e4-a52e-4f735466cecf": "e1aa0aaf-8fab-48ca-8f91-eb126cad28f8"
    },
    "status": 0
}