{
    "state": "success",
    "sessionId": null,
    "class": "org.openqa.selenium.remote.Response",
    "value": {
        "element-6066-11e4-a52e-4f735466cecf": "0812e83d-383b-4b2f-b14e-382953a40e88"
    },
    "status": 0
}