{
    "state": "success",
    "sessionId": null,
    "class": "org.openqa.selenium.remote.Response",
    "value": {
        "element-6066-11e4-a52e-4f735466cecf": "6314445c-fdcc-4615-9e02-8436b516b071"
    },
    "status": 0
}