{
    "state": "success",
    "sessionId": null,
    "class": "org.openqa.selenium.remote.Response",
    "value": [
        {
            "element-6066-11e4-a52e-4f735466cecf": "ae045d9c-73c7-4182-9b9e-d4bda1f9f994"
        }
    ],
    "status": 0
}