{
    "state": "success",
    "sessionId": null,
    "class": "org.openqa.selenium.remote.Response",
    "value": {
        "element-6066-11e4-a52e-4f735466cecf": "2eaccae9-00db-4f93-8599-49ddfbd50ca8"
    },
    "status": 0
}