{
    "state": "success",
    "sessionId": null,
    "class": "org.openqa.selenium.remote.Response",
    "value": {
        "element-6066-11e4-a52e-4f735466cecf": "31309e80-bef7-4cdb-a791-cc933cd67ad1"
    },
    "status": 0
}