{
    "state": "success",
    "sessionId": null,
    "class": "org.openqa.selenium.remote.Response",
    "value": {
        "element-6066-11e4-a52e-4f735466cecf": "bfd91000-e558-4018-b871-e47116c40908"
    },
    "status": 0
}