{
    "state": "success",
    "sessionId": null,
    "class": "org.openqa.selenium.remote.Response",
    "value": {
        "element-6066-11e4-a52e-4f735466cecf": "808b9ba5-5df7-440c-b8c1-2712d8bd6a38"
    },
    "status": 0
}