{
    "state": "success",
    "sessionId": null,
    "class": "org.openqa.selenium.remote.Response",
    "value": {
        "element-6066-11e4-a52e-4f735466cecf": "775e790f-37f6-489a-b1cf-d9b496b178b6"
    },
    "status": 0
}