{
    "state": "success",
    "sessionId": null,
    "class": "org.openqa.selenium.remote.Response",
    "value": {
        "element-6066-11e4-a52e-4f735466cecf": "ebfa866e-800a-4f87-a690-9d277c61058b"
    },
    "status": 0
}