{
    "state": "success",
    "sessionId": null,
    "class": "org.openqa.selenium.remote.Response",
    "value": {
        "element-6066-11e4-a52e-4f735466cecf": "dbc283e8-e4ba-49ac-a892-146dbe3ea394"
    },
    "status": 0
}