{
    "state": "success",
    "sessionId": null,
    "class": "org.openqa.selenium.remote.Response",
    "value": [
        {
            "element-6066-11e4-a52e-4f735466cecf": "2d52ded2-0f87-47c0-8439-e32ec43022da"
        },
        {
            "element-6066-11e4-a52e-4f735466cecf": "8a0ee048-e86b-4a92-ab3f-a14dfab3b2f5"
        }
    ],
    "status": 0
}