{
    "state": "success",
    "sessionId": null,
    "class": "org.openqa.selenium.remote.Response",
    "value": {
        "element-6066-11e4-a52e-4f735466cecf": "d0f03b00-f40c-4da7-9908-9ef16757c046"
    },
    "status": 0
}