{
    "state": "success",
    "sessionId": null,
    "class": "org.openqa.selenium.remote.Response",
    "value": {
        "element-6066-11e4-a52e-4f735466cecf": "b3911d55-4510-4980-a4a8-d4aba58e814a"
    },
    "status": 0
}