{
    "state": "success",
    "sessionId": null,
    "class": "org.openqa.selenium.remote.Response",
    "value": {
        "element-6066-11e4-a52e-4f735466cecf": "f55edb03-31ac-4a72-abb6-c81649139442"
    },
    "status": 0
}