{
    "state": "success",
    "sessionId": null,
    "class": "org.openqa.selenium.remote.Response",
    "value": [
        {
            "element-6066-11e4-a52e-4f735466cecf": "5ebae78f-7c6c-4845-a15e-73a9ae5df994"
        }
    ],
    "status": 0
}