{
    "state": "success",
    "sessionId": null,
    "class": "org.openqa.selenium.remote.Response",
    "value": {
        "element-6066-11e4-a52e-4f735466cecf": "3b14f4e3-2b6d-4eff-b949-4c7437cb3a29"
    },
    "status": 0
}