{
    "state": "success",
    "sessionId": null,
    "class": "org.openqa.selenium.remote.Response",
    "value": [
        {
            "element-6066-11e4-a52e-4f735466cecf": "6e0dcf5a-3243-408d-b26e-61d1526d9178"
        }
    ],
    "status": 0
}