{
    "state": "success",
    "sessionId": null,
    "class": "org.openqa.selenium.remote.Response",
    "value": [
        {
            "element-6066-11e4-a52e-4f735466cecf": "f494b372-a216-4f61-8724-3b5ff38816e6"
        }
    ],
    "status": 0
}