{
    "state": "success",
    "sessionId": null,
    "class": "org.openqa.selenium.remote.Response",
    "value": [
        {
            "element-6066-11e4-a52e-4f735466cecf": "4a793c2e-149e-45b3-8241-85e2237fea54"
        }
    ],
    "status": 0
}