{
    "state": "success",
    "sessionId": null,
    "class": "org.openqa.selenium.remote.Response",
    "value": [
        {
            "element-6066-11e4-a52e-4f735466cecf": "ef1fc5bc-27ba-4a24-a3ff-12c65fad1db6"
        }
    ],
    "status": 0
}