{
    "state": "success",
    "sessionId": null,
    "class": "org.openqa.selenium.remote.Response",
    "value": {
        "element-6066-11e4-a52e-4f735466cecf": "9f12bd2e-f62e-4997-9f4c-d216832bdc96"
    },
    "status": 0
}