{
    "state": "success",
    "sessionId": null,
    "class": "org.openqa.selenium.remote.Response",
    "value": {
        "element-6066-11e4-a52e-4f735466cecf": "9b9e9905-dadf-4b86-ac40-35d07c1e9828"
    },
    "status": 0
}