{
    "state": "success",
    "sessionId": null,
    "class": "org.openqa.selenium.remote.Response",
    "value": {
        "element-6066-11e4-a52e-4f735466cecf": "1fa46384-8850-4dce-8a34-8bf7927fd108"
    },
    "status": 0
}