{
    "state": "success",
    "sessionId": null,
    "class": "org.openqa.selenium.remote.Response",
    "value": [
        {
            "element-6066-11e4-a52e-4f735466cecf": "7cfba4b3-27be-4a97-8468-23bfb5362533"
        }
    ],
    "status": 0
}