{
    "state": "success",
    "sessionId": null,
    "class": "org.openqa.selenium.remote.Response",
    "value": {
        "element-6066-11e4-a52e-4f735466cecf": "fb24594a-e02f-4e9a-8567-f80fd869849b"
    },
    "status": 0
}