{
    "state": "success",
    "sessionId": null,
    "class": "org.openqa.selenium.remote.Response",
    "value": {
        "element-6066-11e4-a52e-4f735466cecf": "46fa6c69-5c24-4258-b63c-13ba7598c768"
    },
    "status": 0
}