{
    "state": "success",
    "sessionId": null,
    "class": "org.openqa.selenium.remote.Response",
    "value": {
        "element-6066-11e4-a52e-4f735466cecf": "c1d70630-c62c-4597-ba28-1c4362ba8c77"
    },
    "status": 0
}