{
    "state": "success",
    "sessionId": null,
    "class": "org.openqa.selenium.remote.Response",
    "value": {
        "element-6066-11e4-a52e-4f735466cecf": "4561f73a-2a50-46d4-b7cf-9cdd51813486"
    },
    "status": 0
}