{
    "state": "success",
    "sessionId": null,
    "class": "org.openqa.selenium.remote.Response",
    "value": [
        {
            "element-6066-11e4-a52e-4f735466cecf": "99a5f0b3-86df-42b1-a51e-949433f805d1"
        }
    ],
    "status": 0
}