{
    "state": "success",
    "sessionId": null,
    "class": "org.openqa.selenium.remote.Response",
    "value": {
        "element-6066-11e4-a52e-4f735466cecf": "7f504529-26cb-4a96-9f89-8236d8e45c0f"
    },
    "status": 0
}