{
    "state": "success",
    "sessionId": null,
    "class": "org.openqa.selenium.remote.Response",
    "value": {
        "element-6066-11e4-a52e-4f735466cecf": "2eb9a890-c2a6-4b7d-b1c8-4ef70c0270db"
    },
    "status": 0
}