{
    "state": "success",
    "sessionId": null,
    "class": "org.openqa.selenium.remote.Response",
    "value": {
        "element-6066-11e4-a52e-4f735466cecf": "05fcdc4d-5967-43c0-8235-c41c198ba018"
    },
    "status": 0
}