{
    "state": "success",
    "sessionId": null,
    "class": "org.openqa.selenium.remote.Response",
    "value": [
        {
            "element-6066-11e4-a52e-4f735466cecf": "9b8075cd-385d-4afe-aa5c-e8b952ca1f73"
        }
    ],
    "status": 0
}