{
    "state": "success",
    "sessionId": null,
    "class": "org.openqa.selenium.remote.Response",
    "value": {
        "element-6066-11e4-a52e-4f735466cecf": "74910ca2-f5ca-4d89-961a-b72f6eac272b"
    },
    "status": 0
}