{
    "state": "success",
    "sessionId": null,
    "class": "org.openqa.selenium.remote.Response",
    "value": {
        "element-6066-11e4-a52e-4f735466cecf": "7ebf85f7-a830-44c8-83d0-5b96ce11599c"
    },
    "status": 0
}