{
    "state": "success",
    "sessionId": null,
    "class": "org.openqa.selenium.remote.Response",
    "value": [
        {
            "element-6066-11e4-a52e-4f735466cecf": "b7c369b5-3274-4f5e-904d-1bc5a57047ee"
        }
    ],
    "status": 0
}