{
    "state": "success",
    "sessionId": null,
    "class": "org.openqa.selenium.remote.Response",
    "value": {
        "element-6066-11e4-a52e-4f735466cecf": "cb10b58d-79bd-43c5-a9ca-d81d8c563039"
    },
    "status": 0
}