{
    "state": "success",
    "sessionId": null,
    "class": "org.openqa.selenium.remote.Response",
    "value": [
        {
            "element-6066-11e4-a52e-4f735466cecf": "7e02f238-685a-413a-9ab5-a4d87e64a02d"
        }
    ],
    "status": 0
}