{
    "state": "success",
    "sessionId": null,
    "class": "org.openqa.selenium.remote.Response",
    "value": {
        "element-6066-11e4-a52e-4f735466cecf": "3a80d7d2-8814-4e16-87fe-64b20fd3b60c"
    },
    "status": 0
}