{
    "state": "success",
    "sessionId": null,
    "class": "org.openqa.selenium.remote.Response",
    "value": {
        "element-6066-11e4-a52e-4f735466cecf": "44327010-01fa-413e-ab1b-168b17df10d0"
    },
    "status": 0
}