{
    "state": "success",
    "sessionId": null,
    "class": "org.openqa.selenium.remote.Response",
    "value": {
        "element-6066-11e4-a52e-4f735466cecf": "cd1f8a26-8d4a-4e39-8f7c-973511b91413"
    },
    "status": 0
}