{
    "state": "success",
    "sessionId": null,
    "class": "org.openqa.selenium.remote.Response",
    "value": {
        "element-6066-11e4-a52e-4f735466cecf": "b425c8a0-608d-49c4-aed6-cd0bb8d91313"
    },
    "status": 0
}