{
    "state": "success",
    "sessionId": null,
    "class": "org.openqa.selenium.remote.Response",
    "value": [
        {
            "element-6066-11e4-a52e-4f735466cecf": "b198b882-3cc1-4147-933a-4d0996c2a85c"
        }
    ],
    "status": 0
}