{
    "state": "success",
    "sessionId": null,
    "class": "org.openqa.selenium.remote.Response",
    "value": {
        "element-6066-11e4-a52e-4f735466cecf": "172d7453-01b0-452c-b751-a9370e71e838"
    },
    "status": 0
}