{
    "state": "success",
    "sessionId": null,
    "class": "org.openqa.selenium.remote.Response",
    "value": [
        {
            "element-6066-11e4-a52e-4f735466cecf": "2d8d8af8-21a7-4614-9837-65ffdaf61e5e"
        }
    ],
    "status": 0
}