{
    "state": "success",
    "sessionId": null,
    "class": "org.openqa.selenium.remote.Response",
    "value": {
        "element-6066-11e4-a52e-4f735466cecf": "532ceff2-d30e-451c-b241-de585038ab27"
    },
    "status": 0
}