{
    "state": "success",
    "sessionId": null,
    "class": "org.openqa.selenium.remote.Response",
    "value": {
        "element-6066-11e4-a52e-4f735466cecf": "501b01ae-23ec-4963-8c34-ad06ad373fc3"
    },
    "status": 0
}