{
    "state": "success",
    "sessionId": null,
    "class": "org.openqa.selenium.remote.Response",
    "value": [
        {
            "element-6066-11e4-a52e-4f735466cecf": "9a21daad-5bc3-4203-a261-ee4f1df86266"
        }
    ],
    "status": 0
}