{
    "state": "success",
    "sessionId": null,
    "class": "org.openqa.selenium.remote.Response",
    "value": {
        "element-6066-11e4-a52e-4f735466cecf": "531c280f-100b-4b06-ad22-ad534abd455e"
    },
    "status": 0
}