{
    "value": [
        "z",
        "e",
        "i",
        "d",
        "l",
        "e",
        "r",
        "l",
        "e",
        "g",
        "a",
        "l",
        "s",
        "e",
        "r",
        "v",
        "i",
        "c",
        "e",
        "s",
        ".",
        "e",
        "x",
        "a",
        "v",
        "a",
        "u",
        "l",
        "t",
        ".",
        "c",
        "o",
        "m"
    ],
    "text": "zeidlerlegalservices.exavault.com"
}