{
    "state": "success",
    "sessionId": null,
    "class": "org.openqa.selenium.remote.Response",
    "value": {
        "element-6066-11e4-a52e-4f735466cecf": "ced86977-0ff4-4544-8be1-8aff619f8f51"
    },
    "status": 0
}