{
    "state": "success",
    "sessionId": null,
    "class": "org.openqa.selenium.remote.Response",
    "value": [
        {
            "element-6066-11e4-a52e-4f735466cecf": "d12c9583-6a9a-4f9e-810a-da41f5a48537"
        }
    ],
    "status": 0
}