{
    "state": "success",
    "sessionId": null,
    "class": "org.openqa.selenium.remote.Response",
    "value": [
        {
            "element-6066-11e4-a52e-4f735466cecf": "f2ffeab6-fac2-45d0-9ab0-5cc9cf8aa5e3"
        }
    ],
    "status": 0
}