{
    "state": "success",
    "sessionId": null,
    "class": "org.openqa.selenium.remote.Response",
    "value": {
        "element-6066-11e4-a52e-4f735466cecf": "e3fad52b-13af-4db0-b641-f10124c280a1"
    },
    "status": 0
}