{
    "state": "success",
    "sessionId": null,
    "class": "org.openqa.selenium.remote.Response",
    "value": {
        "element-6066-11e4-a52e-4f735466cecf": "eb079488-c2dc-46fd-b297-c444446215c0"
    },
    "status": 0
}