{
    "state": "success",
    "sessionId": null,
    "class": "org.openqa.selenium.remote.Response",
    "value": {
        "element-6066-11e4-a52e-4f735466cecf": "fd51df42-e025-49c6-a764-c629f2efa7b1"
    },
    "status": 0
}