{
    "state": "success",
    "sessionId": null,
    "class": "org.openqa.selenium.remote.Response",
    "value": {
        "element-6066-11e4-a52e-4f735466cecf": "ca29fb2b-21cd-4b60-b56b-ef80056beb5d"
    },
    "status": 0
}