{
    "state": "success",
    "sessionId": null,
    "class": "org.openqa.selenium.remote.Response",
    "value": {
        "element-6066-11e4-a52e-4f735466cecf": "5b59ebd7-a82a-40ac-ad7d-c75c95d4e240"
    },
    "status": 0
}