{
    "state": "success",
    "sessionId": null,
    "class": "org.openqa.selenium.remote.Response",
    "value": [
        {
            "element-6066-11e4-a52e-4f735466cecf": "5a845e89-7844-424d-8237-e27aa12631e6"
        }
    ],
    "status": 0
}