{
    "state": "success",
    "sessionId": null,
    "class": "org.openqa.selenium.remote.Response",
    "value": {
        "element-6066-11e4-a52e-4f735466cecf": "c1890bd3-227b-494f-b524-ff10db95b46e"
    },
    "status": 0
}