{
    "state": "success",
    "sessionId": null,
    "class": "org.openqa.selenium.remote.Response",
    "value": {
        "element-6066-11e4-a52e-4f735466cecf": "eb0d20dd-bc11-4ffe-8c72-5a28e5edc8d4"
    },
    "status": 0
}