{
    "state": "success",
    "sessionId": null,
    "class": "org.openqa.selenium.remote.Response",
    "value": [
        {
            "element-6066-11e4-a52e-4f735466cecf": "1eaed396-ddfa-46aa-b094-548282076dd0"
        }
    ],
    "status": 0
}