{
    "state": "success",
    "sessionId": null,
    "class": "org.openqa.selenium.remote.Response",
    "value": {
        "element-6066-11e4-a52e-4f735466cecf": "fc995af6-a96a-45d5-aad1-ec20f5bbfbe5"
    },
    "status": 0
}