{
    "state": "success",
    "sessionId": null,
    "class": "org.openqa.selenium.remote.Response",
    "value": {
        "element-6066-11e4-a52e-4f735466cecf": "ad61afe5-00f5-4fc1-b8b0-38284313ef2e"
    },
    "status": 0
}