{
    "state": "success",
    "sessionId": null,
    "class": "org.openqa.selenium.remote.Response",
    "value": {
        "element-6066-11e4-a52e-4f735466cecf": "9bce8d87-d315-46e3-86f1-e51908a71aab"
    },
    "status": 0
}