{
    "state": "success",
    "sessionId": null,
    "class": "org.openqa.selenium.remote.Response",
    "value": {
        "element-6066-11e4-a52e-4f735466cecf": "4a40cd1e-3627-40ba-ab90-3e9db25e78aa"
    },
    "status": 0
}