{
    "state": "success",
    "sessionId": null,
    "class": "org.openqa.selenium.remote.Response",
    "value": [
        {
            "element-6066-11e4-a52e-4f735466cecf": "ce02c439-a6fa-49ec-a5d9-22a2ddf9c1fd"
        }
    ],
    "status": 0
}