{
    "state": "success",
    "sessionId": null,
    "class": "org.openqa.selenium.remote.Response",
    "value": {
        "element-6066-11e4-a52e-4f735466cecf": "d7611fad-f313-4c7d-a8dd-f3b24c9e27f7"
    },
    "status": 0
}