{
    "state": "success",
    "sessionId": null,
    "class": "org.openqa.selenium.remote.Response",
    "value": [
        {
            "element-6066-11e4-a52e-4f735466cecf": "a67d3313-54ca-4356-ba80-32c38ca86a26"
        }
    ],
    "status": 0
}