{
    "state": "success",
    "sessionId": null,
    "class": "org.openqa.selenium.remote.Response",
    "value": [
        {
            "element-6066-11e4-a52e-4f735466cecf": "fada3fc3-32c0-4098-9561-588a1318af18"
        }
    ],
    "status": 0
}