{
    "state": "success",
    "sessionId": null,
    "class": "org.openqa.selenium.remote.Response",
    "value": {
        "element-6066-11e4-a52e-4f735466cecf": "45f471ba-a770-4a48-a795-9af69f9ae575"
    },
    "status": 0
}