{
    "state": "success",
    "sessionId": null,
    "class": "org.openqa.selenium.remote.Response",
    "value": [
        {
            "element-6066-11e4-a52e-4f735466cecf": "ac2c11e4-7332-4d95-bd29-bd5b65423a8f"
        }
    ],
    "status": 0
}