{
    "state": "success",
    "sessionId": null,
    "class": "org.openqa.selenium.remote.Response",
    "value": {
        "element-6066-11e4-a52e-4f735466cecf": "81075c47-c0e1-4143-bc96-fb2163bb983e"
    },
    "status": 0
}