{
    "state": "success",
    "sessionId": null,
    "class": "org.openqa.selenium.remote.Response",
    "value": {
        "element-6066-11e4-a52e-4f735466cecf": "4c9cc60f-c45e-48b7-afdc-b06dabb46469"
    },
    "status": 0
}