{
    "state": "success",
    "sessionId": null,
    "class": "org.openqa.selenium.remote.Response",
    "value": {
        "element-6066-11e4-a52e-4f735466cecf": "90963208-7009-4521-9627-9116d7847220"
    },
    "status": 0
}