{
    "state": "success",
    "sessionId": null,
    "class": "org.openqa.selenium.remote.Response",
    "value": {
        "element-6066-11e4-a52e-4f735466cecf": "e0285e95-b1e0-43aa-9823-63141bdc06bf"
    },
    "status": 0
}