{
    "state": "success",
    "sessionId": null,
    "class": "org.openqa.selenium.remote.Response",
    "value": [
        {
            "element-6066-11e4-a52e-4f735466cecf": "2c2a651a-aa02-4e72-a0cb-a725c78490c8"
        }
    ],
    "status": 0
}