{
    "state": "success",
    "sessionId": null,
    "class": "org.openqa.selenium.remote.Response",
    "value": {
        "element-6066-11e4-a52e-4f735466cecf": "35a16dea-3eeb-4d59-a4e6-c967ee7bf38d"
    },
    "status": 0
}