{
    "state": "success",
    "sessionId": null,
    "class": "org.openqa.selenium.remote.Response",
    "value": {
        "element-6066-11e4-a52e-4f735466cecf": "d637429b-c022-4614-be17-f65a35c82fe9"
    },
    "status": 0
}