{
    "state": "success",
    "sessionId": null,
    "class": "org.openqa.selenium.remote.Response",
    "value": {
        "element-6066-11e4-a52e-4f735466cecf": "27680305-63ea-4aa0-810b-e7b2c765bb7f"
    },
    "status": 0
}