{
    "state": "success",
    "sessionId": null,
    "class": "org.openqa.selenium.remote.Response",
    "value": {
        "element-6066-11e4-a52e-4f735466cecf": "d311375d-fd87-4f61-96c3-17b96ac1f994"
    },
    "status": 0
}