{
    "state": "success",
    "sessionId": null,
    "class": "org.openqa.selenium.remote.Response",
    "value": {
        "element-6066-11e4-a52e-4f735466cecf": "fc264d24-6b45-4d17-8de2-0e1cc899212b"
    },
    "status": 0
}