{
    "state": "success",
    "sessionId": null,
    "class": "org.openqa.selenium.remote.Response",
    "value": {
        "element-6066-11e4-a52e-4f735466cecf": "eb7d789d-b83c-44ba-8994-b628c9afbe85"
    },
    "status": 0
}