{
    "state": "success",
    "sessionId": null,
    "class": "org.openqa.selenium.remote.Response",
    "value": {
        "element-6066-11e4-a52e-4f735466cecf": "f3e849fa-6753-4944-90eb-e00abc520dc1"
    },
    "status": 0
}