{
    "state": "success",
    "sessionId": null,
    "class": "org.openqa.selenium.remote.Response",
    "value": {
        "element-6066-11e4-a52e-4f735466cecf": "d3c5f107-c8ca-414d-99ce-5b06271062fc"
    },
    "status": 0
}