{
    "state": "success",
    "sessionId": null,
    "class": "org.openqa.selenium.remote.Response",
    "value": {
        "element-6066-11e4-a52e-4f735466cecf": "37756e03-83c8-4d7b-87ce-8e5e956e2f6b"
    },
    "status": 0
}