{
    "state": "success",
    "sessionId": null,
    "class": "org.openqa.selenium.remote.Response",
    "value": [
        {
            "element-6066-11e4-a52e-4f735466cecf": "d4dbd9ef-fbf8-48f5-9509-56bafb369dec"
        }
    ],
    "status": 0
}