{
    "state": "success",
    "sessionId": null,
    "class": "org.openqa.selenium.remote.Response",
    "value": {
        "element-6066-11e4-a52e-4f735466cecf": "ac64fa55-14eb-4837-a938-e0fe6b4f4ee3"
    },
    "status": 0
}