{
    "state": "success",
    "sessionId": null,
    "class": "org.openqa.selenium.remote.Response",
    "value": {
        "element-6066-11e4-a52e-4f735466cecf": "9b44fb7e-ac95-43c4-ac6d-14ea3ce2fe42"
    },
    "status": 0
}