{
    "state": "success",
    "sessionId": null,
    "class": "org.openqa.selenium.remote.Response",
    "value": [
        {
            "element-6066-11e4-a52e-4f735466cecf": "85175e12-fa65-4425-af1a-c53124342cc1"
        }
    ],
    "status": 0
}