{
    "state": "success",
    "sessionId": null,
    "class": "org.openqa.selenium.remote.Response",
    "value": [
        {
            "element-6066-11e4-a52e-4f735466cecf": "fd1ee9ca-f279-43ae-8646-682c43be8cba"
        }
    ],
    "status": 0
}