{
    "state": "success",
    "sessionId": null,
    "class": "org.openqa.selenium.remote.Response",
    "value": {
        "element-6066-11e4-a52e-4f735466cecf": "02f0d4ad-f735-4e69-b43d-c9c4bc72d146"
    },
    "status": 0
}