{
    "state": "success",
    "sessionId": null,
    "class": "org.openqa.selenium.remote.Response",
    "value": {
        "element-6066-11e4-a52e-4f735466cecf": "73a751f6-b80b-47eb-bd13-464f33de981f"
    },
    "status": 0
}