{
    "state": "success",
    "sessionId": null,
    "class": "org.openqa.selenium.remote.Response",
    "value": {
        "element-6066-11e4-a52e-4f735466cecf": "7aa5a3c8-4160-4a7f-8f96-0305f287a7e1"
    },
    "status": 0
}