{
    "state": "success",
    "sessionId": null,
    "class": "org.openqa.selenium.remote.Response",
    "value": {
        "element-6066-11e4-a52e-4f735466cecf": "45c17d48-d54b-4958-9f64-d37611d1cd43"
    },
    "status": 0
}