{
    "state": "success",
    "sessionId": null,
    "class": "org.openqa.selenium.remote.Response",
    "value": [
        {
            "element-6066-11e4-a52e-4f735466cecf": "6927f4bb-499f-404d-8b7a-33a7755c17b0"
        }
    ],
    "status": 0
}