{
    "state": "success",
    "sessionId": null,
    "class": "org.openqa.selenium.remote.Response",
    "value": [
        {
            "element-6066-11e4-a52e-4f735466cecf": "df69a9c9-65d5-46ef-b1b8-587171a6d5e7"
        }
    ],
    "status": 0
}