{
    "state": "success",
    "sessionId": null,
    "class": "org.openqa.selenium.remote.Response",
    "value": {
        "element-6066-11e4-a52e-4f735466cecf": "f00652d1-f9c6-48c0-9407-74bb273ee1e6"
    },
    "status": 0
}