{
    "state": "success",
    "sessionId": null,
    "class": "org.openqa.selenium.remote.Response",
    "value": {
        "element-6066-11e4-a52e-4f735466cecf": "732c3cd0-5b86-45b2-8d1e-789c5e6910fa"
    },
    "status": 0
}