{
    "state": "success",
    "sessionId": null,
    "class": "org.openqa.selenium.remote.Response",
    "value": {
        "element-6066-11e4-a52e-4f735466cecf": "63dddeb9-fa70-4508-bca5-dadeb50de6bb"
    },
    "status": 0
}