{
    "state": "success",
    "sessionId": null,
    "class": "org.openqa.selenium.remote.Response",
    "value": {
        "element-6066-11e4-a52e-4f735466cecf": "ea14a07c-15e9-4972-85f2-03a79ffe1451"
    },
    "status": 0
}