{
    "state": "success",
    "sessionId": null,
    "class": "org.openqa.selenium.remote.Response",
    "value": {
        "element-6066-11e4-a52e-4f735466cecf": "5b3b8489-da8e-4df0-b731-1265c9705601"
    },
    "status": 0
}