{
    "state": "success",
    "sessionId": null,
    "class": "org.openqa.selenium.remote.Response",
    "value": [
        {
            "element-6066-11e4-a52e-4f735466cecf": "4e2da71b-3b73-414d-aaea-21e489c09c79"
        }
    ],
    "status": 0
}