{
    "state": "success",
    "sessionId": null,
    "class": "org.openqa.selenium.remote.Response",
    "value": {
        "element-6066-11e4-a52e-4f735466cecf": "b1c8203d-b034-40c7-82da-dec64e800ffe"
    },
    "status": 0
}