{
    "state": "success",
    "sessionId": null,
    "class": "org.openqa.selenium.remote.Response",
    "value": {
        "element-6066-11e4-a52e-4f735466cecf": "cf02fff6-d15e-4d46-9742-77f2b7104a59"
    },
    "status": 0
}