{
    "state": "success",
    "sessionId": null,
    "class": "org.openqa.selenium.remote.Response",
    "value": {
        "element-6066-11e4-a52e-4f735466cecf": "3ed7f5eb-4352-417a-8051-6257f413a0a8"
    },
    "status": 0
}