{
    "state": "success",
    "sessionId": null,
    "class": "org.openqa.selenium.remote.Response",
    "value": {
        "element-6066-11e4-a52e-4f735466cecf": "186e042a-16b7-45f0-892d-481b68e694c3"
    },
    "status": 0
}