{
    "state": "success",
    "sessionId": null,
    "class": "org.openqa.selenium.remote.Response",
    "value": {
        "element-6066-11e4-a52e-4f735466cecf": "df7281de-3a93-44dd-8a6e-22a2f8dd69b8"
    },
    "status": 0
}