{
    "state": "success",
    "sessionId": null,
    "class": "org.openqa.selenium.remote.Response",
    "value": [
        {
            "element-6066-11e4-a52e-4f735466cecf": "bf769ec6-cef1-47ea-9ba0-31f39b0e9be9"
        }
    ],
    "status": 0
}