{
    "state": "success",
    "sessionId": null,
    "class": "org.openqa.selenium.remote.Response",
    "value": [
        {
            "element-6066-11e4-a52e-4f735466cecf": "f0528ef3-71cd-4fa3-9f0d-128635da2682"
        }
    ],
    "status": 0
}