{
    "state": "success",
    "sessionId": null,
    "class": "org.openqa.selenium.remote.Response",
    "value": [
        {
            "element-6066-11e4-a52e-4f735466cecf": "f0c4b470-7d6a-4253-8f57-015cd6137198"
        }
    ],
    "status": 0
}