{
    "state": "success",
    "sessionId": null,
    "class": "org.openqa.selenium.remote.Response",
    "value": [
        {
            "element-6066-11e4-a52e-4f735466cecf": "0028f55b-e085-404b-9a44-25ffb2c1004a"
        }
    ],
    "status": 0
}