{
    "state": "success",
    "sessionId": null,
    "class": "org.openqa.selenium.remote.Response",
    "value": {
        "element-6066-11e4-a52e-4f735466cecf": "43d7993c-162b-4a21-b089-511235f3d934"
    },
    "status": 0
}