{
    "state": "success",
    "sessionId": null,
    "class": "org.openqa.selenium.remote.Response",
    "value": {
        "element-6066-11e4-a52e-4f735466cecf": "4b9c81bb-6313-43dd-9c08-7017d8217641"
    },
    "status": 0
}