{
    "state": "success",
    "sessionId": null,
    "class": "org.openqa.selenium.remote.Response",
    "value": [
        {
            "element-6066-11e4-a52e-4f735466cecf": "4780950b-bcad-4503-8e29-af06cb9cb8b5"
        }
    ],
    "status": 0
}