{
    "state": "success",
    "sessionId": null,
    "class": "org.openqa.selenium.remote.Response",
    "value": [
        {
            "element-6066-11e4-a52e-4f735466cecf": "0ed93a2b-423b-413e-9cb2-a9e4d9d4ee30"
        }
    ],
    "status": 0
}