{
    "state": "success",
    "sessionId": null,
    "class": "org.openqa.selenium.remote.Response",
    "value": [
        {
            "element-6066-11e4-a52e-4f735466cecf": "9389e824-e43b-46c5-955f-c6cceb53fae0"
        }
    ],
    "status": 0
}