{
    "state": "success",
    "sessionId": null,
    "class": "org.openqa.selenium.remote.Response",
    "value": [
        {
            "element-6066-11e4-a52e-4f735466cecf": "52e92d04-c74d-41e1-82cb-72abf0c97a3d"
        }
    ],
    "status": 0
}