{
    "state": "success",
    "sessionId": null,
    "class": "org.openqa.selenium.remote.Response",
    "value": [
        {
            "element-6066-11e4-a52e-4f735466cecf": "a21d0e74-319f-4cbe-b433-9cabdaf54c66"
        }
    ],
    "status": 0
}