{
    "state": "success",
    "sessionId": null,
    "class": "org.openqa.selenium.remote.Response",
    "value": {
        "element-6066-11e4-a52e-4f735466cecf": "b936ca23-162b-4446-a27b-df1046ae9c97"
    },
    "status": 0
}