{
    "state": "success",
    "sessionId": null,
    "class": "org.openqa.selenium.remote.Response",
    "value": {
        "element-6066-11e4-a52e-4f735466cecf": "404df8a5-a07c-44d1-8acd-5a7f57a51efc"
    },
    "status": 0
}