{
    "state": "success",
    "sessionId": null,
    "class": "org.openqa.selenium.remote.Response",
    "value": {
        "element-6066-11e4-a52e-4f735466cecf": "9816dfdb-5f72-4072-9c3f-7c4604759b53"
    },
    "status": 0
}