{
    "state": "success",
    "sessionId": null,
    "class": "org.openqa.selenium.remote.Response",
    "value": {
        "element-6066-11e4-a52e-4f735466cecf": "752b53cb-9f86-4a97-b868-d012b2bb4d29"
    },
    "status": 0
}