{
    "state": "success",
    "sessionId": null,
    "class": "org.openqa.selenium.remote.Response",
    "value": {
        "element-6066-11e4-a52e-4f735466cecf": "60c7cc0e-5594-431d-baae-ac6d412c9ccd"
    },
    "status": 0
}