{
    "state": "success",
    "sessionId": null,
    "class": "org.openqa.selenium.remote.Response",
    "value": [
        {
            "element-6066-11e4-a52e-4f735466cecf": "28f143c2-a6f5-4e46-955a-f882a420cbde"
        }
    ],
    "status": 0
}