{
    "state": "success",
    "sessionId": null,
    "class": "org.openqa.selenium.remote.Response",
    "value": {
        "element-6066-11e4-a52e-4f735466cecf": "f4bf82e2-17b1-45cf-94a5-e25a864bd676"
    },
    "status": 0
}