{
    "state": "success",
    "sessionId": null,
    "class": "org.openqa.selenium.remote.Response",
    "value": {
        "element-6066-11e4-a52e-4f735466cecf": "2a3d9383-e448-4ac4-84e3-968ebd1e2564"
    },
    "status": 0
}