{
    "state": "success",
    "sessionId": null,
    "class": "org.openqa.selenium.remote.Response",
    "value": {
        "element-6066-11e4-a52e-4f735466cecf": "7b445720-5c4b-4a8d-8a84-bff85eff37c0"
    },
    "status": 0
}