{
    "state": "success",
    "sessionId": null,
    "class": "org.openqa.selenium.remote.Response",
    "value": {
        "element-6066-11e4-a52e-4f735466cecf": "259c3b87-357c-44ba-817e-8af307419c39"
    },
    "status": 0
}