{
    "state": "success",
    "sessionId": null,
    "class": "org.openqa.selenium.remote.Response",
    "value": {
        "element-6066-11e4-a52e-4f735466cecf": "3b1212f0-a55d-437c-9b48-3b3060b7d29e"
    },
    "status": 0
}