{
    "state": "success",
    "sessionId": null,
    "class": "org.openqa.selenium.remote.Response",
    "value": {
        "element-6066-11e4-a52e-4f735466cecf": "1774cee8-7a10-42fd-a19a-d803ccdce568"
    },
    "status": 0
}