{
    "state": "success",
    "sessionId": null,
    "class": "org.openqa.selenium.remote.Response",
    "value": {
        "element-6066-11e4-a52e-4f735466cecf": "deeecb5b-5d87-4eb9-8e87-85513d4328a2"
    },
    "status": 0
}