{
    "state": "success",
    "sessionId": null,
    "class": "org.openqa.selenium.remote.Response",
    "value": {
        "element-6066-11e4-a52e-4f735466cecf": "f381819d-ff16-4f7b-8269-d83ca5164629"
    },
    "status": 0
}