{
    "state": "success",
    "sessionId": null,
    "class": "org.openqa.selenium.remote.Response",
    "value": {
        "element-6066-11e4-a52e-4f735466cecf": "2d801e34-587b-4828-a614-be3521be2091"
    },
    "status": 0
}