{
    "state": "success",
    "sessionId": null,
    "class": "org.openqa.selenium.remote.Response",
    "value": {
        "element-6066-11e4-a52e-4f735466cecf": "1171d11f-80f5-4cfc-89d3-5cfe5ce8b271"
    },
    "status": 0
}