{
    "state": "success",
    "sessionId": null,
    "class": "org.openqa.selenium.remote.Response",
    "value": {
        "element-6066-11e4-a52e-4f735466cecf": "7276acc0-a826-40b5-bb34-bfcf25ad50c5"
    },
    "status": 0
}