{
    "state": "success",
    "sessionId": null,
    "class": "org.openqa.selenium.remote.Response",
    "value": {
        "element-6066-11e4-a52e-4f735466cecf": "514b2be6-68e3-46a7-820f-0cd01abbab53"
    },
    "status": 0
}