{
    "state": "success",
    "sessionId": null,
    "class": "org.openqa.selenium.remote.Response",
    "value": [
        {
            "element-6066-11e4-a52e-4f735466cecf": "8789f681-9a87-4e21-a89f-84035fa5f52b"
        }
    ],
    "status": 0
}