{
    "state": "success",
    "sessionId": null,
    "class": "org.openqa.selenium.remote.Response",
    "value": {
        "element-6066-11e4-a52e-4f735466cecf": "caae3e84-a942-4efb-b67d-147e45f7665e"
    },
    "status": 0
}