{
    "state": "success",
    "sessionId": null,
    "class": "org.openqa.selenium.remote.Response",
    "value": {
        "element-6066-11e4-a52e-4f735466cecf": "9579dbf1-8d02-43eb-8b85-b54c88b137e3"
    },
    "status": 0
}