{
    "state": "success",
    "sessionId": null,
    "class": "org.openqa.selenium.remote.Response",
    "value": {
        "element-6066-11e4-a52e-4f735466cecf": "ab446c0f-4824-46f4-9801-7487b475abe5"
    },
    "status": 0
}