{
    "state": "success",
    "sessionId": null,
    "class": "org.openqa.selenium.remote.Response",
    "value": {
        "element-6066-11e4-a52e-4f735466cecf": "f693c19f-974e-4073-aee0-329fdc3ba0c2"
    },
    "status": 0
}