{
    "state": "success",
    "sessionId": null,
    "class": "org.openqa.selenium.remote.Response",
    "value": {
        "element-6066-11e4-a52e-4f735466cecf": "562d3c26-996b-4eb1-bd44-2d0df6049395"
    },
    "status": 0
}