{
    "state": "success",
    "sessionId": null,
    "class": "org.openqa.selenium.remote.Response",
    "value": {
        "element-6066-11e4-a52e-4f735466cecf": "4b7bbd11-8421-4b71-ad6b-30ca996396f7"
    },
    "status": 0
}