{
    "state": "success",
    "sessionId": null,
    "class": "org.openqa.selenium.remote.Response",
    "value": {
        "element-6066-11e4-a52e-4f735466cecf": "97223e03-3b8d-4a57-ab04-3df945eabe86"
    },
    "status": 0
}