{
    "state": "success",
    "sessionId": null,
    "class": "org.openqa.selenium.remote.Response",
    "value": {
        "element-6066-11e4-a52e-4f735466cecf": "ca0d1273-1eef-4cf4-b0f9-2b250657f998"
    },
    "status": 0
}