{
    "state": "success",
    "sessionId": null,
    "class": "org.openqa.selenium.remote.Response",
    "value": {
        "element-6066-11e4-a52e-4f735466cecf": "0e5a6295-1e1e-4d0c-b1b8-e72f7b918943"
    },
    "status": 0
}