{
    "state": "success",
    "sessionId": null,
    "class": "org.openqa.selenium.remote.Response",
    "value": {
        "element-6066-11e4-a52e-4f735466cecf": "909d7752-907b-4b74-b1bb-2e84eb20c144"
    },
    "status": 0
}