{
    "state": "success",
    "sessionId": null,
    "class": "org.openqa.selenium.remote.Response",
    "value": {
        "element-6066-11e4-a52e-4f735466cecf": "7eeffea7-bf87-471c-8e40-5a7a04247eee"
    },
    "status": 0
}