{
    "state": "success",
    "sessionId": null,
    "class": "org.openqa.selenium.remote.Response",
    "value": [
        {
            "element-6066-11e4-a52e-4f735466cecf": "60b013e4-3a21-4af4-87d1-9cd0444e3c3d"
        }
    ],
    "status": 0
}