{
    "state": "success",
    "sessionId": null,
    "class": "org.openqa.selenium.remote.Response",
    "value": {
        "element-6066-11e4-a52e-4f735466cecf": "42fecc1d-4370-44cb-8986-443bc65ea985"
    },
    "status": 0
}