{
    "state": "success",
    "sessionId": null,
    "class": "org.openqa.selenium.remote.Response",
    "value": {
        "element-6066-11e4-a52e-4f735466cecf": "4670dcc6-427f-40d6-a5f7-396382e5b0f7"
    },
    "status": 0
}