{
    "state": "success",
    "sessionId": null,
    "class": "org.openqa.selenium.remote.Response",
    "value": {
        "element-6066-11e4-a52e-4f735466cecf": "44706a9f-583d-4500-a847-638d42465b85"
    },
    "status": 0
}