{
    "state": "success",
    "sessionId": null,
    "class": "org.openqa.selenium.remote.Response",
    "value": {
        "element-6066-11e4-a52e-4f735466cecf": "87996f8c-070b-4d31-8eb0-f9682c47a97a"
    },
    "status": 0
}