{
    "state": "success",
    "sessionId": null,
    "class": "org.openqa.selenium.remote.Response",
    "value": {
        "element-6066-11e4-a52e-4f735466cecf": "67875db7-fe6e-4548-b6c9-accdee1c32fc"
    },
    "status": 0
}