{
    "state": "success",
    "sessionId": null,
    "class": "org.openqa.selenium.remote.Response",
    "value": [
        {
            "element-6066-11e4-a52e-4f735466cecf": "a934975d-bef4-44b3-936c-47255f8ed7cb"
        }
    ],
    "status": 0
}