{
    "state": "success",
    "sessionId": null,
    "class": "org.openqa.selenium.remote.Response",
    "value": [
        {
            "element-6066-11e4-a52e-4f735466cecf": "b399d865-c441-426d-951b-8003d0b1456e"
        }
    ],
    "status": 0
}