{
    "state": "success",
    "sessionId": null,
    "class": "org.openqa.selenium.remote.Response",
    "value": {
        "element-6066-11e4-a52e-4f735466cecf": "d3a92c07-7215-4ea5-a0af-8be0ed7f4c3d"
    },
    "status": 0
}