{
    "state": "success",
    "sessionId": null,
    "class": "org.openqa.selenium.remote.Response",
    "value": {
        "element-6066-11e4-a52e-4f735466cecf": "da33a369-796a-491f-b815-eae00829f600"
    },
    "status": 0
}