{
    "state": "success",
    "sessionId": null,
    "class": "org.openqa.selenium.remote.Response",
    "value": [
        {
            "element-6066-11e4-a52e-4f735466cecf": "6ed8670b-b671-4e82-b93d-94e391d6bb98"
        }
    ],
    "status": 0
}