{
    "state": "success",
    "sessionId": null,
    "class": "org.openqa.selenium.remote.Response",
    "value": {
        "element-6066-11e4-a52e-4f735466cecf": "72ae2fb8-4257-46c0-a48b-3a6745c04d18"
    },
    "status": 0
}