{
    "state": "success",
    "sessionId": null,
    "class": "org.openqa.selenium.remote.Response",
    "value": {
        "element-6066-11e4-a52e-4f735466cecf": "3be61dbd-a217-47e8-8ef4-082c8e649486"
    },
    "status": 0
}