{
    "state": "success",
    "sessionId": null,
    "class": "org.openqa.selenium.remote.Response",
    "value": [
        {
            "element-6066-11e4-a52e-4f735466cecf": "04eb5811-3ee2-49d5-8426-8b2e1b4255db"
        }
    ],
    "status": 0
}