{
    "state": "success",
    "sessionId": null,
    "class": "org.openqa.selenium.remote.Response",
    "value": {
        "element-6066-11e4-a52e-4f735466cecf": "dd08d4ca-9def-4a87-96e4-68c79b9d07e7"
    },
    "status": 0
}