{
    "state": "success",
    "sessionId": null,
    "class": "org.openqa.selenium.remote.Response",
    "value": {
        "element-6066-11e4-a52e-4f735466cecf": "f408a1bb-39cb-4461-8647-2236fc4e0e9e"
    },
    "status": 0
}