{
    "state": "success",
    "sessionId": null,
    "class": "org.openqa.selenium.remote.Response",
    "value": [
        {
            "element-6066-11e4-a52e-4f735466cecf": "319882b6-3269-49e3-afe4-ed276df4466a"
        }
    ],
    "status": 0
}