{
    "state": "success",
    "sessionId": null,
    "class": "org.openqa.selenium.remote.Response",
    "value": {
        "element-6066-11e4-a52e-4f735466cecf": "27443215-1942-4912-9727-11ac27868fa4"
    },
    "status": 0
}