{
    "state": "success",
    "sessionId": null,
    "class": "org.openqa.selenium.remote.Response",
    "value": {
        "element-6066-11e4-a52e-4f735466cecf": "c387408e-2374-47c9-b957-fcfe20008554"
    },
    "status": 0
}