{
    "state": "success",
    "sessionId": null,
    "class": "org.openqa.selenium.remote.Response",
    "value": {
        "element-6066-11e4-a52e-4f735466cecf": "31d27e0b-5fd6-4618-b5fc-351bb89df68e"
    },
    "status": 0
}