{
    "state": "success",
    "sessionId": null,
    "class": "org.openqa.selenium.remote.Response",
    "value": {
        "element-6066-11e4-a52e-4f735466cecf": "ce36e5a8-e8cc-4f10-a909-961d775171ec"
    },
    "status": 0
}