{
    "state": "success",
    "sessionId": null,
    "class": "org.openqa.selenium.remote.Response",
    "value": {
        "element-6066-11e4-a52e-4f735466cecf": "8e9db465-b536-46dc-877f-bad15c6a9661"
    },
    "status": 0
}