{
    "state": "success",
    "sessionId": null,
    "class": "org.openqa.selenium.remote.Response",
    "value": [
        {
            "element-6066-11e4-a52e-4f735466cecf": "c88f3bfd-fcee-4a70-8b48-cd323760e91c"
        }
    ],
    "status": 0
}