{
    "state": "success",
    "sessionId": null,
    "class": "org.openqa.selenium.remote.Response",
    "value": {
        "element-6066-11e4-a52e-4f735466cecf": "4ba0ee8d-6715-48f7-8ab0-618868de4b9c"
    },
    "status": 0
}