{
    "state": "success",
    "sessionId": null,
    "class": "org.openqa.selenium.remote.Response",
    "value": {
        "element-6066-11e4-a52e-4f735466cecf": "de8ebc59-f209-4aac-8d0f-40f6ffca1500"
    },
    "status": 0
}