{
    "state": "success",
    "sessionId": null,
    "class": "org.openqa.selenium.remote.Response",
    "value": [
        {
            "element-6066-11e4-a52e-4f735466cecf": "6c43b3f9-e389-4d9c-b8df-c9ebe9fcfdd0"
        }
    ],
    "status": 0
}