{
    "state": "success",
    "sessionId": null,
    "class": "org.openqa.selenium.remote.Response",
    "value": [
        {
            "element-6066-11e4-a52e-4f735466cecf": "90012740-ea88-4517-98ed-b4281e410195"
        }
    ],
    "status": 0
}