{
    "state": "success",
    "sessionId": null,
    "class": "org.openqa.selenium.remote.Response",
    "value": [
        {
            "element-6066-11e4-a52e-4f735466cecf": "c49c9ba2-ab72-4fd7-8020-d407a981bac5"
        }
    ],
    "status": 0
}