{
    "state": "success",
    "sessionId": null,
    "class": "org.openqa.selenium.remote.Response",
    "value": {
        "element-6066-11e4-a52e-4f735466cecf": "2a36913d-0422-4e9d-8b8e-9a3acefac5e3"
    },
    "status": 0
}