{
    "state": "success",
    "sessionId": null,
    "class": "org.openqa.selenium.remote.Response",
    "value": [
        {
            "element-6066-11e4-a52e-4f735466cecf": "9362b382-e757-4351-a49d-006032ec389e"
        }
    ],
    "status": 0
}