{
    "state": "success",
    "sessionId": null,
    "class": "org.openqa.selenium.remote.Response",
    "value": [
        {
            "element-6066-11e4-a52e-4f735466cecf": "80894ffe-dc9a-43bf-a5e1-32651601a436"
        }
    ],
    "status": 0
}