{
    "state": "success",
    "sessionId": null,
    "class": "org.openqa.selenium.remote.Response",
    "value": {
        "element-6066-11e4-a52e-4f735466cecf": "e5ef7eae-d74a-45f7-b740-daf747c5b973"
    },
    "status": 0
}