{
    "state": "success",
    "sessionId": null,
    "class": "org.openqa.selenium.remote.Response",
    "value": [
        {
            "element-6066-11e4-a52e-4f735466cecf": "72fbd81e-4d44-4fc8-8001-0824fbbb11e3"
        }
    ],
    "status": 0
}