{
    "state": "success",
    "sessionId": null,
    "class": "org.openqa.selenium.remote.Response",
    "value": {
        "element-6066-11e4-a52e-4f735466cecf": "016fccfa-1565-4361-a5be-39fc0c3940e6"
    },
    "status": 0
}