{
    "state": "success",
    "sessionId": null,
    "class": "org.openqa.selenium.remote.Response",
    "value": {
        "element-6066-11e4-a52e-4f735466cecf": "b0425a1c-11c8-44ec-9a6c-1fc9947c234d"
    },
    "status": 0
}