{
    "state": "success",
    "sessionId": null,
    "class": "org.openqa.selenium.remote.Response",
    "value": [
        {
            "element-6066-11e4-a52e-4f735466cecf": "d3bb4aa3-2682-4e80-a47e-fbcd59c412c6"
        }
    ],
    "status": 0
}