{
    "state": "success",
    "sessionId": null,
    "class": "org.openqa.selenium.remote.Response",
    "value": {
        "element-6066-11e4-a52e-4f735466cecf": "f5c1d05d-40a8-492f-8de7-6b8d8927620c"
    },
    "status": 0
}