{
    "state": "success",
    "sessionId": null,
    "class": "org.openqa.selenium.remote.Response",
    "value": {
        "element-6066-11e4-a52e-4f735466cecf": "68a62597-4219-4eff-87b8-24ad4e05407c"
    },
    "status": 0
}