{
    "state": "success",
    "sessionId": null,
    "class": "org.openqa.selenium.remote.Response",
    "value": {
        "element-6066-11e4-a52e-4f735466cecf": "2f905f89-4a49-4dd1-8de6-2e395ff1de18"
    },
    "status": 0
}