{
    "state": "success",
    "sessionId": null,
    "class": "org.openqa.selenium.remote.Response",
    "value": {
        "element-6066-11e4-a52e-4f735466cecf": "af1b66aa-6ee2-42b5-9f4c-cc723842a301"
    },
    "status": 0
}