{
    "state": "success",
    "sessionId": null,
    "class": "org.openqa.selenium.remote.Response",
    "value": [
        {
            "element-6066-11e4-a52e-4f735466cecf": "dfe0f430-17a3-4165-96e7-f90b0eefec91"
        }
    ],
    "status": 0
}