{
    "state": "success",
    "sessionId": null,
    "class": "org.openqa.selenium.remote.Response",
    "value": {
        "element-6066-11e4-a52e-4f735466cecf": "446977a8-f3db-4ca5-a2d2-97142514a912"
    },
    "status": 0
}