{
    "state": "success",
    "sessionId": null,
    "class": "org.openqa.selenium.remote.Response",
    "value": {
        "element-6066-11e4-a52e-4f735466cecf": "5179ed90-6f80-40f8-9439-49c9733cd3df"
    },
    "status": 0
}