{
    "state": "success",
    "sessionId": null,
    "class": "org.openqa.selenium.remote.Response",
    "value": {
        "element-6066-11e4-a52e-4f735466cecf": "b45d4c5e-2974-49af-a041-b5fac3950dcb"
    },
    "status": 0
}