{
    "state": "success",
    "sessionId": null,
    "class": "org.openqa.selenium.remote.Response",
    "value": {
        "element-6066-11e4-a52e-4f735466cecf": "00319762-f611-438f-946a-5bba9f6b8411"
    },
    "status": 0
}