{
    "state": "success",
    "sessionId": null,
    "class": "org.openqa.selenium.remote.Response",
    "value": [
        {
            "element-6066-11e4-a52e-4f735466cecf": "b6fbb9f7-9713-4a7b-8066-81097651555b"
        }
    ],
    "status": 0
}