{
    "state": "success",
    "sessionId": null,
    "class": "org.openqa.selenium.remote.Response",
    "value": {
        "element-6066-11e4-a52e-4f735466cecf": "89707383-8bfd-4d6d-b287-78c27d07de7d"
    },
    "status": 0
}