{
    "state": "success",
    "sessionId": null,
    "class": "org.openqa.selenium.remote.Response",
    "value": [
        {
            "element-6066-11e4-a52e-4f735466cecf": "fc99eab9-cb30-42d2-b66b-ce194d4b7522"
        }
    ],
    "status": 0
}