{
    "state": "success",
    "sessionId": null,
    "class": "org.openqa.selenium.remote.Response",
    "value": [
        {
            "element-6066-11e4-a52e-4f735466cecf": "4d1139c2-b780-450e-b328-27dcbb88d13f"
        }
    ],
    "status": 0
}