{
    "state": "success",
    "sessionId": null,
    "class": "org.openqa.selenium.remote.Response",
    "value": {
        "element-6066-11e4-a52e-4f735466cecf": "4525f689-78f9-4c86-8f6b-e3c808a9af68"
    },
    "status": 0
}