{
    "state": "success",
    "sessionId": null,
    "class": "org.openqa.selenium.remote.Response",
    "value": [
        {
            "element-6066-11e4-a52e-4f735466cecf": "b65f5b41-e1e7-4e1f-bfa7-a52a673cfdc7"
        }
    ],
    "status": 0
}