{
    "state": "success",
    "sessionId": null,
    "class": "org.openqa.selenium.remote.Response",
    "value": {
        "element-6066-11e4-a52e-4f735466cecf": "246da3ef-76e6-4954-ac28-f8932e137bea"
    },
    "status": 0
}