{
    "value": [
        "+",
        "9",
        "1",
        "8",
        "8",
        "6",
        "1",
        "8",
        "8",
        "8",
        "8",
        "3",
        "1"
    ],
    "text": "+918861888831"
}