{
    "state": "success",
    "sessionId": null,
    "class": "org.openqa.selenium.remote.Response",
    "value": {
        "element-6066-11e4-a52e-4f735466cecf": "33b71611-5d8d-49c3-a757-e8ba03bd4fca"
    },
    "status": 0
}