{
    "state": "success",
    "sessionId": null,
    "class": "org.openqa.selenium.remote.Response",
    "value": {
        "element-6066-11e4-a52e-4f735466cecf": "247301a5-fb25-44df-a543-8d5df6638bec"
    },
    "status": 0
}