{
    "state": "success",
    "sessionId": null,
    "class": "org.openqa.selenium.remote.Response",
    "value": {
        "element-6066-11e4-a52e-4f735466cecf": "a186c54a-5238-4ae2-9fde-d2e8bc2af69e"
    },
    "status": 0
}