{
    "state": "success",
    "sessionId": null,
    "class": "org.openqa.selenium.remote.Response",
    "value": {
        "element-6066-11e4-a52e-4f735466cecf": "3ef306ef-8466-4a9b-9d81-6ecb03b05a83"
    },
    "status": 0
}