{
    "state": "success",
    "sessionId": null,
    "class": "org.openqa.selenium.remote.Response",
    "value": [
        {
            "element-6066-11e4-a52e-4f735466cecf": "de0f3b21-86d8-44b5-9594-565099cb5ae5"
        }
    ],
    "status": 0
}