{
    "state": "success",
    "sessionId": null,
    "class": "org.openqa.selenium.remote.Response",
    "value": [
        {
            "element-6066-11e4-a52e-4f735466cecf": "a319b6c4-88bf-411a-913f-11e0d42ae754"
        }
    ],
    "status": 0
}