{
    "state": "success",
    "sessionId": null,
    "class": "org.openqa.selenium.remote.Response",
    "value": {
        "element-6066-11e4-a52e-4f735466cecf": "b1c6e0f9-f7a0-47d7-82e8-c07e0bc1bd55"
    },
    "status": 0
}