{
    "state": "success",
    "sessionId": null,
    "class": "org.openqa.selenium.remote.Response",
    "value": [
        {
            "element-6066-11e4-a52e-4f735466cecf": "64ecca1b-7f8a-4671-b852-62e06878e2da"
        }
    ],
    "status": 0
}