{
    "state": "success",
    "sessionId": null,
    "class": "org.openqa.selenium.remote.Response",
    "value": [
        {
            "element-6066-11e4-a52e-4f735466cecf": "032de946-1bb3-4d02-b6e4-ecf4d77d04d0"
        }
    ],
    "status": 0
}