{
    "state": "success",
    "sessionId": null,
    "class": "org.openqa.selenium.remote.Response",
    "value": {
        "element-6066-11e4-a52e-4f735466cecf": "85b5198c-2b12-49a4-8f0b-fbdb314b741f"
    },
    "status": 0
}