{
    "state": "success",
    "sessionId": null,
    "class": "org.openqa.selenium.remote.Response",
    "value": [
        {
            "element-6066-11e4-a52e-4f735466cecf": "dc55fe3a-c39e-46b2-8a7d-de19d8244c86"
        }
    ],
    "status": 0
}