{
    "state": "success",
    "sessionId": null,
    "class": "org.openqa.selenium.remote.Response",
    "value": [
        {
            "element-6066-11e4-a52e-4f735466cecf": "cada13d0-3623-4962-b63b-981484753a12"
        }
    ],
    "status": 0
}