{
    "state": "success",
    "sessionId": null,
    "class": "org.openqa.selenium.remote.Response",
    "value": {
        "element-6066-11e4-a52e-4f735466cecf": "c23193f8-cc19-4605-aff3-03c83946594d"
    },
    "status": 0
}