{
    "state": "success",
    "sessionId": null,
    "class": "org.openqa.selenium.remote.Response",
    "value": {
        "element-6066-11e4-a52e-4f735466cecf": "ead76611-bcfd-405f-a3bd-a5fb1ac14551"
    },
    "status": 0
}