{
    "state": "success",
    "sessionId": null,
    "class": "org.openqa.selenium.remote.Response",
    "value": [
        {
            "element-6066-11e4-a52e-4f735466cecf": "a3668a58-2393-4ad4-b986-f1851f5f24cf"
        }
    ],
    "status": 0
}