{
    "state": "success",
    "sessionId": null,
    "class": "org.openqa.selenium.remote.Response",
    "value": [
        {
            "element-6066-11e4-a52e-4f735466cecf": "b86d714b-ae21-4bd7-8912-2fea0c83a390"
        }
    ],
    "status": 0
}