{
    "state": "success",
    "sessionId": null,
    "class": "org.openqa.selenium.remote.Response",
    "value": {
        "element-6066-11e4-a52e-4f735466cecf": "3375f8ce-18c7-4767-a926-a3c78b310c72"
    },
    "status": 0
}