{
    "state": "success",
    "sessionId": null,
    "class": "org.openqa.selenium.remote.Response",
    "value": {
        "element-6066-11e4-a52e-4f735466cecf": "53d1c462-b35d-4301-b9dc-d51ab5f9d4d4"
    },
    "status": 0
}