{
    "state": "success",
    "sessionId": null,
    "class": "org.openqa.selenium.remote.Response",
    "value": {
        "element-6066-11e4-a52e-4f735466cecf": "373bf1f8-9ae4-491d-90be-8b4ba0822ba8"
    },
    "status": 0
}