{
    "state": "success",
    "sessionId": null,
    "class": "org.openqa.selenium.remote.Response",
    "value": [
        {
            "element-6066-11e4-a52e-4f735466cecf": "c93336ae-76f7-41d8-a9a8-fca1401dfb39"
        }
    ],
    "status": 0
}