{
    "state": "success",
    "sessionId": null,
    "class": "org.openqa.selenium.remote.Response",
    "value": [
        {
            "element-6066-11e4-a52e-4f735466cecf": "b472445a-6c91-4495-92e7-af137c9a0540"
        }
    ],
    "status": 0
}