{
    "state": "success",
    "sessionId": null,
    "class": "org.openqa.selenium.remote.Response",
    "value": {
        "element-6066-11e4-a52e-4f735466cecf": "54506172-3ef0-4cc9-aaea-61cacbe4d7ef"
    },
    "status": 0
}