{
    "state": "success",
    "sessionId": null,
    "class": "org.openqa.selenium.remote.Response",
    "value": {
        "element-6066-11e4-a52e-4f735466cecf": "b1f78c60-3620-4835-9be6-b4c5b7d27ab5"
    },
    "status": 0
}