{
    "state": "success",
    "sessionId": null,
    "class": "org.openqa.selenium.remote.Response",
    "value": {
        "element-6066-11e4-a52e-4f735466cecf": "27918b55-b590-480b-9b10-80069892f818"
    },
    "status": 0
}