{
    "state": "success",
    "sessionId": null,
    "class": "org.openqa.selenium.remote.Response",
    "value": [
        {
            "element-6066-11e4-a52e-4f735466cecf": "e29d451d-5cdd-465a-ab92-cc49652c6d91"
        }
    ],
    "status": 0
}