{
    "state": "success",
    "sessionId": null,
    "class": "org.openqa.selenium.remote.Response",
    "value": {
        "element-6066-11e4-a52e-4f735466cecf": "8d47a44c-1534-410e-9fb0-3313c5f8c18a"
    },
    "status": 0
}