{
    "state": "success",
    "sessionId": null,
    "class": "org.openqa.selenium.remote.Response",
    "value": {
        "element-6066-11e4-a52e-4f735466cecf": "b6fc3ca6-8d53-4f45-89da-779c77b1667e"
    },
    "status": 0
}