{
    "state": "success",
    "sessionId": null,
    "class": "org.openqa.selenium.remote.Response",
    "value": [
        {
            "element-6066-11e4-a52e-4f735466cecf": "ce35e1b0-f4f3-443b-9ed8-31b6ca1adce6"
        }
    ],
    "status": 0
}