{
    "state": "success",
    "sessionId": null,
    "class": "org.openqa.selenium.remote.Response",
    "value": [
        {
            "element-6066-11e4-a52e-4f735466cecf": "b33ece2f-0d2c-46bc-bfcb-7064f3335510"
        }
    ],
    "status": 0
}