{
    "state": "success",
    "sessionId": null,
    "class": "org.openqa.selenium.remote.Response",
    "value": {
        "element-6066-11e4-a52e-4f735466cecf": "ca2eff83-393d-48cd-9568-6c92e2af66f6"
    },
    "status": 0
}