{
    "state": "success",
    "sessionId": null,
    "class": "org.openqa.selenium.remote.Response",
    "value": [
        {
            "element-6066-11e4-a52e-4f735466cecf": "c58fdfb0-16c9-4feb-8b6c-6a7648be29f3"
        }
    ],
    "status": 0
}