{
    "state": "success",
    "sessionId": null,
    "class": "org.openqa.selenium.remote.Response",
    "value": {
        "element-6066-11e4-a52e-4f735466cecf": "acbe54a5-259d-4680-b614-e93352a8cf56"
    },
    "status": 0
}