{
    "state": "success",
    "sessionId": null,
    "class": "org.openqa.selenium.remote.Response",
    "value": {
        "element-6066-11e4-a52e-4f735466cecf": "cddd6df7-edf1-4430-951d-76aa49b23410"
    },
    "status": 0
}