{
    "state": "success",
    "sessionId": null,
    "class": "org.openqa.selenium.remote.Response",
    "value": {
        "element-6066-11e4-a52e-4f735466cecf": "22b36ad5-3e70-4511-8dbc-b0cb93c11e94"
    },
    "status": 0
}