{
    "state": "success",
    "sessionId": null,
    "class": "org.openqa.selenium.remote.Response",
    "value": {
        "element-6066-11e4-a52e-4f735466cecf": "e62f11b9-2dc0-4901-a602-1af0b52c9852"
    },
    "status": 0
}