{
    "state": "success",
    "sessionId": null,
    "class": "org.openqa.selenium.remote.Response",
    "value": [
        {
            "element-6066-11e4-a52e-4f735466cecf": "1d608ac2-f564-4dfd-a787-57fabd5701c8"
        }
    ],
    "status": 0
}