{
    "state": "success",
    "sessionId": null,
    "class": "org.openqa.selenium.remote.Response",
    "value": [
        {
            "element-6066-11e4-a52e-4f735466cecf": "864b5b6c-f060-4bac-9ffa-b7d1d0da3a48"
        }
    ],
    "status": 0
}