{
    "state": "success",
    "sessionId": null,
    "class": "org.openqa.selenium.remote.Response",
    "value": {
        "element-6066-11e4-a52e-4f735466cecf": "d5d2a1ce-db0b-48ce-9808-6afeed6cd340"
    },
    "status": 0
}