{
    "state": "success",
    "sessionId": null,
    "class": "org.openqa.selenium.remote.Response",
    "value": [
        {
            "element-6066-11e4-a52e-4f735466cecf": "4e3a4393-dd3e-41e6-bcec-0b5d7201cec9"
        }
    ],
    "status": 0
}