{
    "state": "success",
    "sessionId": null,
    "class": "org.openqa.selenium.remote.Response",
    "value": {
        "element-6066-11e4-a52e-4f735466cecf": "534b0f04-7f39-47e9-9aa5-334553e793da"
    },
    "status": 0
}