{
    "state": "success",
    "sessionId": null,
    "class": "org.openqa.selenium.remote.Response",
    "value": {
        "element-6066-11e4-a52e-4f735466cecf": "22399df0-a67d-4264-9247-eb7f471e7605"
    },
    "status": 0
}