{
    "state": "success",
    "sessionId": null,
    "class": "org.openqa.selenium.remote.Response",
    "value": {
        "element-6066-11e4-a52e-4f735466cecf": "31ca12ed-cedc-4957-a2eb-29b2d1d1ec23"
    },
    "status": 0
}