{
    "state": "success",
    "sessionId": null,
    "class": "org.openqa.selenium.remote.Response",
    "value": {
        "element-6066-11e4-a52e-4f735466cecf": "923e68c3-6a3a-49ba-b08d-a29456f732f4"
    },
    "status": 0
}