{
    "state": "success",
    "sessionId": null,
    "class": "org.openqa.selenium.remote.Response",
    "value": {
        "element-6066-11e4-a52e-4f735466cecf": "40c963e5-0739-44d1-b2e0-d3caa6925927"
    },
    "status": 0
}