{
    "state": "success",
    "sessionId": null,
    "class": "org.openqa.selenium.remote.Response",
    "value": {
        "element-6066-11e4-a52e-4f735466cecf": "ed0e5324-1974-4533-96e8-51235a4226ec"
    },
    "status": 0
}