{
    "state": "success",
    "sessionId": null,
    "class": "org.openqa.selenium.remote.Response",
    "value": [
        {
            "element-6066-11e4-a52e-4f735466cecf": "9a384d14-e6e0-4bf0-8460-41cc3f34bd03"
        }
    ],
    "status": 0
}