{
    "state": "success",
    "sessionId": null,
    "class": "org.openqa.selenium.remote.Response",
    "value": {
        "element-6066-11e4-a52e-4f735466cecf": "da483656-cae7-42d5-a3e2-2e8deb7cf24e"
    },
    "status": 0
}