{
    "state": "success",
    "sessionId": null,
    "class": "org.openqa.selenium.remote.Response",
    "value": [
        {
            "element-6066-11e4-a52e-4f735466cecf": "ffa5c056-f426-461d-aa41-ec32ba95bde5"
        }
    ],
    "status": 0
}