{
    "state": "success",
    "sessionId": null,
    "class": "org.openqa.selenium.remote.Response",
    "value": [
        {
            "element-6066-11e4-a52e-4f735466cecf": "61a86582-d571-46b3-ae7f-6fa953e51c61"
        }
    ],
    "status": 0
}