{
    "state": "success",
    "sessionId": null,
    "class": "org.openqa.selenium.remote.Response",
    "value": {
        "element-6066-11e4-a52e-4f735466cecf": "63474d02-6511-4865-944b-703c80324578"
    },
    "status": 0
}