{
    "state": "success",
    "sessionId": null,
    "class": "org.openqa.selenium.remote.Response",
    "value": [
        {
            "element-6066-11e4-a52e-4f735466cecf": "e3ea3b2a-bb2a-4efd-888b-e5a494c5bcb6"
        }
    ],
    "status": 0
}