{
    "state": "success",
    "sessionId": null,
    "class": "org.openqa.selenium.remote.Response",
    "value": [
        {
            "element-6066-11e4-a52e-4f735466cecf": "fc834aa0-992e-43d4-aefd-c84b5158f1cb"
        }
    ],
    "status": 0
}