{
    "state": "success",
    "sessionId": null,
    "class": "org.openqa.selenium.remote.Response",
    "value": {
        "element-6066-11e4-a52e-4f735466cecf": "f1e3a7c0-adac-4b0d-8fc4-6fdd3ea9818f"
    },
    "status": 0
}