{
    "state": "success",
    "sessionId": null,
    "class": "org.openqa.selenium.remote.Response",
    "value": [
        {
            "element-6066-11e4-a52e-4f735466cecf": "b13c8079-871c-4a54-9da7-461157845389"
        }
    ],
    "status": 0
}