{
    "state": "success",
    "sessionId": null,
    "class": "org.openqa.selenium.remote.Response",
    "value": {
        "element-6066-11e4-a52e-4f735466cecf": "4e1f1a6f-5619-4b46-a793-ba247682da71"
    },
    "status": 0
}