{
    "state": "success",
    "sessionId": null,
    "class": "org.openqa.selenium.remote.Response",
    "value": [
        {
            "element-6066-11e4-a52e-4f735466cecf": "6010c67e-9f38-4174-87a5-36f815393b42"
        }
    ],
    "status": 0
}