{
    "state": "success",
    "sessionId": null,
    "class": "org.openqa.selenium.remote.Response",
    "value": {
        "element-6066-11e4-a52e-4f735466cecf": "e1053bfc-d591-4bad-9079-f705d1fd5ddb"
    },
    "status": 0
}