{
    "state": "success",
    "sessionId": null,
    "class": "org.openqa.selenium.remote.Response",
    "value": {
        "element-6066-11e4-a52e-4f735466cecf": "00e7cc84-4e68-49c3-9c48-941b9e735615"
    },
    "status": 0
}