{
    "state": "success",
    "sessionId": null,
    "class": "org.openqa.selenium.remote.Response",
    "value": {
        "element-6066-11e4-a52e-4f735466cecf": "4e58c761-9c3c-498c-beea-0f78d0bdaeef"
    },
    "status": 0
}