{
    "state": "success",
    "sessionId": null,
    "class": "org.openqa.selenium.remote.Response",
    "value": [
        {
            "element-6066-11e4-a52e-4f735466cecf": "93360ef6-aaf2-4e04-b1b6-e8eca92cc98c"
        }
    ],
    "status": 0
}