{
    "state": "success",
    "sessionId": null,
    "class": "org.openqa.selenium.remote.Response",
    "value": {
        "element-6066-11e4-a52e-4f735466cecf": "099739a6-8e3d-47cf-b620-33b3daf5b0e6"
    },
    "status": 0
}