{
    "state": "success",
    "sessionId": null,
    "class": "org.openqa.selenium.remote.Response",
    "value": {
        "element-6066-11e4-a52e-4f735466cecf": "210852ba-ce3c-42e8-94ff-eb03770aa74f"
    },
    "status": 0
}