{
    "state": "success",
    "sessionId": null,
    "class": "org.openqa.selenium.remote.Response",
    "value": [
        {
            "element-6066-11e4-a52e-4f735466cecf": "8447c839-e6d2-4024-a041-785097ae6039"
        }
    ],
    "status": 0
}