{
    "state": "success",
    "sessionId": null,
    "class": "org.openqa.selenium.remote.Response",
    "value": {
        "element-6066-11e4-a52e-4f735466cecf": "f709d6da-3c52-40d4-ac57-06b520e8377b"
    },
    "status": 0
}