{
    "state": "success",
    "sessionId": null,
    "class": "org.openqa.selenium.remote.Response",
    "value": {
        "element-6066-11e4-a52e-4f735466cecf": "6eacbb5f-3948-4845-a9ae-56a849ad14b4"
    },
    "status": 0
}