{
    "state": "success",
    "sessionId": null,
    "class": "org.openqa.selenium.remote.Response",
    "value": [
        {
            "element-6066-11e4-a52e-4f735466cecf": "dc58421c-a83e-40bf-8703-6b58e1e7fdbb"
        }
    ],
    "status": 0
}