{
    "state": "success",
    "sessionId": null,
    "class": "org.openqa.selenium.remote.Response",
    "value": [
        {
            "element-6066-11e4-a52e-4f735466cecf": "577540a6-a951-4306-a7ff-0fd3e5b15f35"
        }
    ],
    "status": 0
}