{
    "state": "success",
    "sessionId": null,
    "class": "org.openqa.selenium.remote.Response",
    "value": [
        {
            "element-6066-11e4-a52e-4f735466cecf": "28c03f0a-c6f0-4b87-b616-e90de83f7de5"
        }
    ],
    "status": 0
}