{
    "state": "success",
    "sessionId": null,
    "class": "org.openqa.selenium.remote.Response",
    "value": [
        {
            "element-6066-11e4-a52e-4f735466cecf": "d474a1cf-cd15-426e-8895-e529250318cb"
        }
    ],
    "status": 0
}