{
    "state": "success",
    "sessionId": null,
    "class": "org.openqa.selenium.remote.Response",
    "value": {
        "element-6066-11e4-a52e-4f735466cecf": "f85363c3-6838-4330-b197-1248ed515646"
    },
    "status": 0
}