{
    "state": "success",
    "sessionId": null,
    "class": "org.openqa.selenium.remote.Response",
    "value": {
        "element-6066-11e4-a52e-4f735466cecf": "12d090bb-0350-4a5f-bb05-b72548e9e8e1"
    },
    "status": 0
}