{
    "state": "success",
    "sessionId": null,
    "class": "org.openqa.selenium.remote.Response",
    "value": {
        "element-6066-11e4-a52e-4f735466cecf": "15410fa5-f37a-425f-b359-7a83e659846c"
    },
    "status": 0
}