{
    "state": "success",
    "sessionId": null,
    "class": "org.openqa.selenium.remote.Response",
    "value": [
        {
            "element-6066-11e4-a52e-4f735466cecf": "c3b9739d-255c-4515-bbfc-f21bb861e817"
        }
    ],
    "status": 0
}