{
    "state": "success",
    "sessionId": null,
    "class": "org.openqa.selenium.remote.Response",
    "value": {
        "element-6066-11e4-a52e-4f735466cecf": "b6a97ae8-c28a-4c40-abcc-adeed97d79c6"
    },
    "status": 0
}