{
    "state": "success",
    "sessionId": null,
    "class": "org.openqa.selenium.remote.Response",
    "value": [
        {
            "element-6066-11e4-a52e-4f735466cecf": "dacb35b4-b66b-4983-873a-9f47ca00a68c"
        }
    ],
    "status": 0
}