{
    "value": [
        "s",
        "i",
        "n",
        "d",
        "h",
        "u",
        "p",
        "n",
        "b",
        "u",
        "r",
        "a",
        "5",
        "8",
        "7",
        "9",
        "@",
        "y",
        "o",
        "p",
        "m",
        "a",
        "i",
        "l",
        ".",
        "c",
        "o",
        "m",
        ""
    ],
    "text": "sindhupnbura5879@yopmail.com"
}