{
    "state": "success",
    "sessionId": null,
    "class": "org.openqa.selenium.remote.Response",
    "value": {
        "element-6066-11e4-a52e-4f735466cecf": "0f8c0d7f-a937-4b7c-ad5f-d53766483032"
    },
    "status": 0
}