{
    "state": "success",
    "sessionId": null,
    "class": "org.openqa.selenium.remote.Response",
    "value": [
        {
            "element-6066-11e4-a52e-4f735466cecf": "e9f7ac40-ed7a-4b70-994b-28b2225837aa"
        }
    ],
    "status": 0
}