{
    "state": "success",
    "sessionId": null,
    "class": "org.openqa.selenium.remote.Response",
    "value": {
        "element-6066-11e4-a52e-4f735466cecf": "6ca81593-a03b-4f21-8e22-e4e355a29eb7"
    },
    "status": 0
}