{
    "state": "success",
    "sessionId": null,
    "class": "org.openqa.selenium.remote.Response",
    "value": {
        "element-6066-11e4-a52e-4f735466cecf": "1e7aad61-80ae-456a-8b8b-41a11305eaea"
    },
    "status": 0
}