{
    "state": "success",
    "sessionId": null,
    "class": "org.openqa.selenium.remote.Response",
    "value": {
        "element-6066-11e4-a52e-4f735466cecf": "cc5383f9-07dd-4498-a174-57ffd40eee32"
    },
    "status": 0
}