{
    "state": "success",
    "sessionId": null,
    "class": "org.openqa.selenium.remote.Response",
    "value": [
        {
            "element-6066-11e4-a52e-4f735466cecf": "d7d4fcfd-7a1e-4268-9a96-38bea384c1f9"
        }
    ],
    "status": 0
}