{
    "state": "success",
    "sessionId": null,
    "class": "org.openqa.selenium.remote.Response",
    "value": {
        "element-6066-11e4-a52e-4f735466cecf": "ecf87292-7329-4c7f-9852-2d0b47546003"
    },
    "status": 0
}