{
    "state": "success",
    "sessionId": null,
    "class": "org.openqa.selenium.remote.Response",
    "value": [
        {
            "element-6066-11e4-a52e-4f735466cecf": "11cfc6f8-f293-4bb9-b691-e3477c3b9456"
        }
    ],
    "status": 0
}