{
    "state": "success",
    "sessionId": null,
    "class": "org.openqa.selenium.remote.Response",
    "value": {
        "element-6066-11e4-a52e-4f735466cecf": "d0f46f05-ca6e-47b1-a0f2-3ecbed33e6b8"
    },
    "status": 0
}