{
    "state": "success",
    "sessionId": null,
    "class": "org.openqa.selenium.remote.Response",
    "value": [
        {
            "element-6066-11e4-a52e-4f735466cecf": "00332829-42be-4a82-8140-d051a2976f3b"
        }
    ],
    "status": 0
}