{
    "state": "success",
    "sessionId": null,
    "class": "org.openqa.selenium.remote.Response",
    "value": {
        "element-6066-11e4-a52e-4f735466cecf": "16f789d7-1f49-40cf-a361-2fe7304b4c91"
    },
    "status": 0
}