{
    "state": "success",
    "sessionId": null,
    "class": "org.openqa.selenium.remote.Response",
    "value": [
        {
            "element-6066-11e4-a52e-4f735466cecf": "ee27b9af-cdf0-431a-8b13-cfd166eb726e"
        }
    ],
    "status": 0
}