{
    "state": "success",
    "sessionId": null,
    "class": "org.openqa.selenium.remote.Response",
    "value": [
        {
            "element-6066-11e4-a52e-4f735466cecf": "fb4f8d99-0b0f-4046-bfd4-9c7d97956818"
        }
    ],
    "status": 0
}