{
    "state": "success",
    "sessionId": null,
    "class": "org.openqa.selenium.remote.Response",
    "value": [
        {
            "element-6066-11e4-a52e-4f735466cecf": "f064663d-0264-4213-b4e1-5322164f85be"
        }
    ],
    "status": 0
}