{
    "state": "success",
    "sessionId": null,
    "class": "org.openqa.selenium.remote.Response",
    "value": {
        "element-6066-11e4-a52e-4f735466cecf": "a41b925b-2535-4233-9667-2d095409656c"
    },
    "status": 0
}