{
    "state": "success",
    "sessionId": null,
    "class": "org.openqa.selenium.remote.Response",
    "value": [
        {
            "element-6066-11e4-a52e-4f735466cecf": "b84cf542-b2d9-463d-ba5c-b2de754ecc4c"
        }
    ],
    "status": 0
}