{
    "state": "success",
    "sessionId": null,
    "class": "org.openqa.selenium.remote.Response",
    "value": [
        {
            "element-6066-11e4-a52e-4f735466cecf": "0cc611b4-929d-4605-b0fd-93bd5b9e0261"
        }
    ],
    "status": 0
}