{
    "state": "success",
    "sessionId": null,
    "class": "org.openqa.selenium.remote.Response",
    "value": [
        {
            "element-6066-11e4-a52e-4f735466cecf": "4b104345-5e29-4a48-b347-842779473b56"
        }
    ],
    "status": 0
}