{
    "state": "success",
    "sessionId": null,
    "class": "org.openqa.selenium.remote.Response",
    "value": {
        "element-6066-11e4-a52e-4f735466cecf": "109bb38e-8000-489d-a856-7c20e6a81278"
    },
    "status": 0
}