{
    "state": "success",
    "sessionId": null,
    "class": "org.openqa.selenium.remote.Response",
    "value": [
        {
            "element-6066-11e4-a52e-4f735466cecf": "63cdf214-2612-428f-95df-eab97f1de00c"
        }
    ],
    "status": 0
}