{
    "state": "success",
    "sessionId": null,
    "class": "org.openqa.selenium.remote.Response",
    "value": {
        "element-6066-11e4-a52e-4f735466cecf": "13828bd5-ba3e-458e-8c20-67fa26380146"
    },
    "status": 0
}