{
    "state": "success",
    "sessionId": null,
    "class": "org.openqa.selenium.remote.Response",
    "value": [
        {
            "element-6066-11e4-a52e-4f735466cecf": "bc7543c1-b079-4561-b983-0988ea341802"
        }
    ],
    "status": 0
}