{
    "state": "success",
    "sessionId": null,
    "class": "org.openqa.selenium.remote.Response",
    "value": [
        {
            "element-6066-11e4-a52e-4f735466cecf": "5e0b99ee-b495-417f-b3ae-9928989b4f61"
        }
    ],
    "status": 0
}