{
    "state": "success",
    "sessionId": null,
    "class": "org.openqa.selenium.remote.Response",
    "value": {
        "element-6066-11e4-a52e-4f735466cecf": "095c98ce-7197-402f-b848-0cec2112c8fe"
    },
    "status": 0
}