{
    "state": "success",
    "sessionId": null,
    "class": "org.openqa.selenium.remote.Response",
    "value": {
        "element-6066-11e4-a52e-4f735466cecf": "8e9a8684-8f4f-49ac-b5ec-470b38a2c2f2"
    },
    "status": 0
}