{
    "state": "success",
    "sessionId": null,
    "class": "org.openqa.selenium.remote.Response",
    "value": [
        {
            "element-6066-11e4-a52e-4f735466cecf": "5d45e7a4-4a16-4ad8-a54c-782fd85b0d10"
        }
    ],
    "status": 0
}