{
    "state": "success",
    "sessionId": null,
    "class": "org.openqa.selenium.remote.Response",
    "value": {
        "element-6066-11e4-a52e-4f735466cecf": "c0eadfd1-f95e-43a2-83de-a4146b846265"
    },
    "status": 0
}