{
    "state": "success",
    "sessionId": null,
    "class": "org.openqa.selenium.remote.Response",
    "value": {
        "element-6066-11e4-a52e-4f735466cecf": "ecde5fdc-0bfc-4781-86a9-55c2bbd19f52"
    },
    "status": 0
}