{
    "state": "success",
    "sessionId": null,
    "class": "org.openqa.selenium.remote.Response",
    "value": [
        {
            "element-6066-11e4-a52e-4f735466cecf": "69585cfe-67ac-4872-9f31-82747c04438a"
        }
    ],
    "status": 0
}