{
    "state": "success",
    "sessionId": null,
    "class": "org.openqa.selenium.remote.Response",
    "value": {
        "element-6066-11e4-a52e-4f735466cecf": "3956fec6-5739-47c0-938c-d0315674ad75"
    },
    "status": 0
}