{
    "state": "success",
    "sessionId": null,
    "class": "org.openqa.selenium.remote.Response",
    "value": {
        "element-6066-11e4-a52e-4f735466cecf": "75530291-eb93-4309-a5c9-b0b256e38a5e"
    },
    "status": 0
}