{
    "state": "success",
    "sessionId": null,
    "class": "org.openqa.selenium.remote.Response",
    "value": {
        "element-6066-11e4-a52e-4f735466cecf": "37e47997-4aaf-4e24-8e76-69fab1cb36b0"
    },
    "status": 0
}