{
    "state": "success",
    "sessionId": null,
    "class": "org.openqa.selenium.remote.Response",
    "value": {
        "element-6066-11e4-a52e-4f735466cecf": "bbf9c6fd-fc1d-441f-a91d-55550376b8c7"
    },
    "status": 0
}