{
    "state": "success",
    "sessionId": null,
    "class": "org.openqa.selenium.remote.Response",
    "value": {
        "element-6066-11e4-a52e-4f735466cecf": "9448becf-f912-4bdc-956c-3e02841afd7d"
    },
    "status": 0
}