{
    "state": "success",
    "sessionId": null,
    "class": "org.openqa.selenium.remote.Response",
    "value": {
        "element-6066-11e4-a52e-4f735466cecf": "f539b011-4ef3-4491-b770-283eeab7304c"
    },
    "status": 0
}