{
    "state": "success",
    "sessionId": null,
    "class": "org.openqa.selenium.remote.Response",
    "value": {
        "element-6066-11e4-a52e-4f735466cecf": "75f3c62d-b7a0-42e6-af8a-aeabf1315077"
    },
    "status": 0
}