{
    "state": "success",
    "sessionId": null,
    "class": "org.openqa.selenium.remote.Response",
    "value": {
        "element-6066-11e4-a52e-4f735466cecf": "95e949d2-aceb-48a9-b2be-285b79d051b7"
    },
    "status": 0
}