{
    "state": "success",
    "sessionId": null,
    "class": "org.openqa.selenium.remote.Response",
    "value": [
        {
            "element-6066-11e4-a52e-4f735466cecf": "caef07ed-021e-47f3-bff7-75ef787d3082"
        }
    ],
    "status": 0
}