{
    "state": "success",
    "sessionId": null,
    "class": "org.openqa.selenium.remote.Response",
    "value": {
        "element-6066-11e4-a52e-4f735466cecf": "a99c3681-3802-4193-a5d7-528dd2b2f5b2"
    },
    "status": 0
}