{
    "value": [
        "j",
        "i",
        "t",
        "h",
        "e",
        "n",
        "d",
        "r",
        "a",
        "@",
        "c",
        "a",
        "l",
        "i",
        "b",
        "r",
        "e",
        "c",
        "o",
        "d",
        "e",
        ".",
        "c",
        "o",
        "m",
        ""
    ],
    "text": "jithendra@calibrecode.com"
}