{
    "state": "success",
    "sessionId": null,
    "class": "org.openqa.selenium.remote.Response",
    "value": [
        {
            "element-6066-11e4-a52e-4f735466cecf": "20eae937-e304-41e8-9c5b-d96e883a8210"
        }
    ],
    "status": 0
}