{
    "state": "success",
    "sessionId": null,
    "class": "org.openqa.selenium.remote.Response",
    "value": [
        {
            "element-6066-11e4-a52e-4f735466cecf": "921c8e07-da57-4f66-b10e-5155e897e3a8"
        }
    ],
    "status": 0
}