{
    "state": "success",
    "sessionId": null,
    "class": "org.openqa.selenium.remote.Response",
    "value": [
        {
            "element-6066-11e4-a52e-4f735466cecf": "85a84a3e-1af5-4f5d-a542-10c3ebd0e514"
        }
    ],
    "status": 0
}