{
    "state": "success",
    "sessionId": null,
    "class": "org.openqa.selenium.remote.Response",
    "value": {
        "element-6066-11e4-a52e-4f735466cecf": "4018683f-0b53-4ac2-9a78-f16b40537a90"
    },
    "status": 0
}