{
    "state": "success",
    "sessionId": null,
    "class": "org.openqa.selenium.remote.Response",
    "value": [
        {
            "element-6066-11e4-a52e-4f735466cecf": "772f4971-847d-4400-aea8-7e3dcf8e7d7e"
        }
    ],
    "status": 0
}