{
    "state": "success",
    "sessionId": null,
    "class": "org.openqa.selenium.remote.Response",
    "value": [
        {
            "element-6066-11e4-a52e-4f735466cecf": "d7e11a33-0071-4bd8-a028-3136031ece45"
        }
    ],
    "status": 0
}