{
    "state": "success",
    "sessionId": null,
    "class": "org.openqa.selenium.remote.Response",
    "value": [
        {
            "element-6066-11e4-a52e-4f735466cecf": "c7805d5e-eaf4-4e41-af3b-a5dd7fc56960"
        }
    ],
    "status": 0
}