{
    "state": "success",
    "sessionId": null,
    "class": "org.openqa.selenium.remote.Response",
    "value": {
        "element-6066-11e4-a52e-4f735466cecf": "2edcf5d2-df28-41b6-aab1-485373f2daa8"
    },
    "status": 0
}