{
    "state": "success",
    "sessionId": null,
    "class": "org.openqa.selenium.remote.Response",
    "value": {
        "element-6066-11e4-a52e-4f735466cecf": "dc6782be-5bf5-4d62-83ee-5f00bee96d73"
    },
    "status": 0
}