{
    "state": "success",
    "sessionId": null,
    "class": "org.openqa.selenium.remote.Response",
    "value": {
        "element-6066-11e4-a52e-4f735466cecf": "902b2683-a27b-40ac-a2e2-899c3ebe1de7"
    },
    "status": 0
}