{
    "state": "success",
    "sessionId": null,
    "class": "org.openqa.selenium.remote.Response",
    "value": [
        {
            "element-6066-11e4-a52e-4f735466cecf": "881e8769-a673-424f-bc89-05bb8a6e75fb"
        }
    ],
    "status": 0
}