{
    "state": "success",
    "sessionId": null,
    "class": "org.openqa.selenium.remote.Response",
    "value": {
        "element-6066-11e4-a52e-4f735466cecf": "09950031-97cc-40e2-bb29-51001c5fef64"
    },
    "status": 0
}