{
    "state": "success",
    "sessionId": null,
    "class": "org.openqa.selenium.remote.Response",
    "value": [
        {
            "element-6066-11e4-a52e-4f735466cecf": "88d6b2a5-29c7-44dc-9146-d681b8c6f1b2"
        }
    ],
    "status": 0
}