{
    "state": "success",
    "sessionId": null,
    "class": "org.openqa.selenium.remote.Response",
    "value": {
        "element-6066-11e4-a52e-4f735466cecf": "0dabd36f-1639-424e-ba39-4d04603c6dc6"
    },
    "status": 0
}