{
    "state": "success",
    "sessionId": null,
    "class": "org.openqa.selenium.remote.Response",
    "value": {
        "element-6066-11e4-a52e-4f735466cecf": "2b3000fd-cbdd-42af-bc18-0eb5e39ed675"
    },
    "status": 0
}