{
    "state": "success",
    "sessionId": null,
    "class": "org.openqa.selenium.remote.Response",
    "value": {
        "element-6066-11e4-a52e-4f735466cecf": "f68f5246-ec44-4cbc-889e-2ba4e2a97ef0"
    },
    "status": 0
}