{
    "state": "success",
    "sessionId": null,
    "class": "org.openqa.selenium.remote.Response",
    "value": [
        {
            "element-6066-11e4-a52e-4f735466cecf": "ab75720b-3e92-40fb-ac7a-823ef1b5d1ac"
        }
    ],
    "status": 0
}