{
    "state": "success",
    "sessionId": null,
    "class": "org.openqa.selenium.remote.Response",
    "value": {
        "element-6066-11e4-a52e-4f735466cecf": "077497da-235a-4287-954b-0a81c039ecd0"
    },
    "status": 0
}