{
    "state": "success",
    "sessionId": null,
    "class": "org.openqa.selenium.remote.Response",
    "value": [
        {
            "element-6066-11e4-a52e-4f735466cecf": "f87eb1ea-8649-4838-ba6f-f752072a9ffe"
        }
    ],
    "status": 0
}