{
    "state": "success",
    "sessionId": null,
    "class": "org.openqa.selenium.remote.Response",
    "value": {
        "element-6066-11e4-a52e-4f735466cecf": "7a01f292-08ac-4105-9396-c6d3937f40c2"
    },
    "status": 0
}