{
    "state": "success",
    "sessionId": null,
    "class": "org.openqa.selenium.remote.Response",
    "value": {
        "element-6066-11e4-a52e-4f735466cecf": "caf52f93-217d-4fdb-941f-ef086705f7dd"
    },
    "status": 0
}