{
    "state": "success",
    "sessionId": null,
    "class": "org.openqa.selenium.remote.Response",
    "value": [
        {
            "element-6066-11e4-a52e-4f735466cecf": "c9905880-0e37-45ba-b744-a8df650b38cc"
        }
    ],
    "status": 0
}