{
    "state": "success",
    "sessionId": null,
    "class": "org.openqa.selenium.remote.Response",
    "value": [
        {
            "element-6066-11e4-a52e-4f735466cecf": "4a255896-ef2e-4b25-8215-f16e5a7a676f"
        }
    ],
    "status": 0
}