{
    "state": "success",
    "sessionId": null,
    "class": "org.openqa.selenium.remote.Response",
    "value": {
        "element-6066-11e4-a52e-4f735466cecf": "018e7a43-e210-4795-9a4b-655572db2419"
    },
    "status": 0
}