{
    "state": "success",
    "sessionId": null,
    "class": "org.openqa.selenium.remote.Response",
    "value": [
        {
            "element-6066-11e4-a52e-4f735466cecf": "367b3fd2-4634-4077-a3b9-a6a3bb53a4d9"
        }
    ],
    "status": 0
}