{
    "state": "success",
    "sessionId": null,
    "class": "org.openqa.selenium.remote.Response",
    "value": {
        "element-6066-11e4-a52e-4f735466cecf": "0699963d-e222-4017-8bb7-043ebd59e93e"
    },
    "status": 0
}