{
    "state": "success",
    "sessionId": null,
    "class": "org.openqa.selenium.remote.Response",
    "value": {
        "element-6066-11e4-a52e-4f735466cecf": "e52ccdb3-f5f7-4716-9af8-bd0b0a189325"
    },
    "status": 0
}