{
    "state": "success",
    "sessionId": null,
    "class": "org.openqa.selenium.remote.Response",
    "value": {
        "element-6066-11e4-a52e-4f735466cecf": "572cb6b6-2c2a-4c65-b3e6-123e29318066"
    },
    "status": 0
}