{
    "state": "success",
    "sessionId": null,
    "class": "org.openqa.selenium.remote.Response",
    "value": {
        "element-6066-11e4-a52e-4f735466cecf": "2a5bcc05-882f-43c6-af57-bd7299825dae"
    },
    "status": 0
}