{
    "state": "success",
    "sessionId": null,
    "class": "org.openqa.selenium.remote.Response",
    "value": {
        "element-6066-11e4-a52e-4f735466cecf": "27c80df9-9733-4cff-b983-d629b9d40df3"
    },
    "status": 0
}