{
    "state": "success",
    "sessionId": null,
    "class": "org.openqa.selenium.remote.Response",
    "value": [
        {
            "element-6066-11e4-a52e-4f735466cecf": "dc543376-9b8e-47a7-b939-421280560c1f"
        }
    ],
    "status": 0
}