{
    "state": "success",
    "sessionId": null,
    "class": "org.openqa.selenium.remote.Response",
    "value": {
        "element-6066-11e4-a52e-4f735466cecf": "1446b4af-4092-4e69-8520-05ef146e5508"
    },
    "status": 0
}