{
    "state": "success",
    "sessionId": null,
    "class": "org.openqa.selenium.remote.Response",
    "value": {
        "element-6066-11e4-a52e-4f735466cecf": "613819d5-5222-46db-8cee-be3defb56d3f"
    },
    "status": 0
}