{
    "state": "success",
    "sessionId": null,
    "class": "org.openqa.selenium.remote.Response",
    "value": [
        {
            "element-6066-11e4-a52e-4f735466cecf": "f15b25bc-8f9d-49f0-9201-2bdd2aa85c86"
        }
    ],
    "status": 0
}