{
    "state": "success",
    "sessionId": null,
    "class": "org.openqa.selenium.remote.Response",
    "value": [
        {
            "element-6066-11e4-a52e-4f735466cecf": "d696c72c-1c3f-46cd-80a2-f52b7715b323"
        }
    ],
    "status": 0
}