{
    "state": "success",
    "sessionId": null,
    "class": "org.openqa.selenium.remote.Response",
    "value": {
        "element-6066-11e4-a52e-4f735466cecf": "e4d0c215-bf55-461b-bc41-6c3616535e79"
    },
    "status": 0
}