{
    "state": "success",
    "sessionId": null,
    "class": "org.openqa.selenium.remote.Response",
    "value": [
        {
            "element-6066-11e4-a52e-4f735466cecf": "119f6bb3-7010-45ab-a523-e29ab8080ef9"
        }
    ],
    "status": 0
}