{
    "state": "success",
    "sessionId": null,
    "class": "org.openqa.selenium.remote.Response",
    "value": [
        {
            "element-6066-11e4-a52e-4f735466cecf": "b4009b86-b211-409e-b99a-676dc1e480ed"
        }
    ],
    "status": 0
}