{
    "state": "success",
    "sessionId": null,
    "class": "org.openqa.selenium.remote.Response",
    "value": {
        "element-6066-11e4-a52e-4f735466cecf": "6577008e-e63d-4194-84b4-38982d1f0dc7"
    },
    "status": 0
}