{
    "state": "success",
    "sessionId": null,
    "class": "org.openqa.selenium.remote.Response",
    "value": {
        "element-6066-11e4-a52e-4f735466cecf": "853196d4-4540-426c-9049-22d44209f00f"
    },
    "status": 0
}