{
    "state": "success",
    "sessionId": null,
    "class": "org.openqa.selenium.remote.Response",
    "value": {
        "element-6066-11e4-a52e-4f735466cecf": "d654183c-6d97-4fa1-8b8a-708afa52432a"
    },
    "status": 0
}