{
    "state": "success",
    "sessionId": null,
    "class": "org.openqa.selenium.remote.Response",
    "value": [
        {
            "element-6066-11e4-a52e-4f735466cecf": "35684a88-3e3c-4554-845b-890f679df2b8"
        }
    ],
    "status": 0
}