{
    "state": "success",
    "sessionId": null,
    "class": "org.openqa.selenium.remote.Response",
    "value": {
        "element-6066-11e4-a52e-4f735466cecf": "ba15fb0e-8e4e-4c56-81f3-da3c26f4647a"
    },
    "status": 0
}