{
    "state": "success",
    "sessionId": null,
    "class": "org.openqa.selenium.remote.Response",
    "value": [
        {
            "element-6066-11e4-a52e-4f735466cecf": "97016d35-b892-4a3b-ae67-03a5c8f83660"
        }
    ],
    "status": 0
}