{
    "state": "success",
    "sessionId": null,
    "class": "org.openqa.selenium.remote.Response",
    "value": {
        "element-6066-11e4-a52e-4f735466cecf": "66f759d4-4477-49e5-b3f2-73fa4bb1e019"
    },
    "status": 0
}