{
    "state": "success",
    "sessionId": null,
    "class": "org.openqa.selenium.remote.Response",
    "value": [
        {
            "element-6066-11e4-a52e-4f735466cecf": "7c3db8c9-1181-4e02-b27a-d398b0b7cf38"
        }
    ],
    "status": 0
}