{
    "state": "success",
    "sessionId": null,
    "class": "org.openqa.selenium.remote.Response",
    "value": {
        "element-6066-11e4-a52e-4f735466cecf": "0448d412-4666-48ab-99eb-be655a1a4c4c"
    },
    "status": 0
}