{
    "state": "success",
    "sessionId": null,
    "class": "org.openqa.selenium.remote.Response",
    "value": {
        "element-6066-11e4-a52e-4f735466cecf": "bfcc7025-99a3-4871-bcca-90014527a410"
    },
    "status": 0
}