{
    "state": "success",
    "sessionId": null,
    "class": "org.openqa.selenium.remote.Response",
    "value": [
        {
            "element-6066-11e4-a52e-4f735466cecf": "7eae6dc3-5bb6-4c97-98c1-96c8a4bbd656"
        }
    ],
    "status": 0
}