{
    "state": "success",
    "sessionId": null,
    "class": "org.openqa.selenium.remote.Response",
    "value": {
        "element-6066-11e4-a52e-4f735466cecf": "1e3b9fb1-5473-4627-a5d3-63b08c08b028"
    },
    "status": 0
}