{
    "state": "success",
    "sessionId": null,
    "class": "org.openqa.selenium.remote.Response",
    "value": {
        "element-6066-11e4-a52e-4f735466cecf": "08b8434f-7251-489c-b91c-efecb9176c31"
    },
    "status": 0
}