{
    "state": "success",
    "sessionId": null,
    "class": "org.openqa.selenium.remote.Response",
    "value": [
        {
            "element-6066-11e4-a52e-4f735466cecf": "1fe2be7a-647b-4042-95c0-0f470c6138e0"
        }
    ],
    "status": 0
}