{
    "state": "success",
    "sessionId": null,
    "class": "org.openqa.selenium.remote.Response",
    "value": {
        "element-6066-11e4-a52e-4f735466cecf": "bbbb767f-d9ce-4fb2-81c9-a6653921bbb8"
    },
    "status": 0
}