{
    "state": "success",
    "sessionId": null,
    "class": "org.openqa.selenium.remote.Response",
    "value": [
        {
            "element-6066-11e4-a52e-4f735466cecf": "459e3efe-8284-44cd-ba7a-21b0ea8c99f9"
        }
    ],
    "status": 0
}