{
    "state": "success",
    "sessionId": null,
    "class": "org.openqa.selenium.remote.Response",
    "value": {
        "element-6066-11e4-a52e-4f735466cecf": "9f7f496d-3123-4f4c-bfc3-911da10e4672"
    },
    "status": 0
}