{
    "state": "success",
    "sessionId": null,
    "class": "org.openqa.selenium.remote.Response",
    "value": {
        "element-6066-11e4-a52e-4f735466cecf": "ff55e874-c863-467d-9b21-fcdb9f493fbd"
    },
    "status": 0
}