{
    "state": "success",
    "sessionId": null,
    "class": "org.openqa.selenium.remote.Response",
    "value": [
        {
            "element-6066-11e4-a52e-4f735466cecf": "731a38c3-030d-4df9-9d25-61572f2e625f"
        }
    ],
    "status": 0
}