{
    "state": "success",
    "sessionId": null,
    "class": "org.openqa.selenium.remote.Response",
    "value": [
        {
            "element-6066-11e4-a52e-4f735466cecf": "d2d13c15-e52c-4c63-bdbc-bdb4d277b7c4"
        }
    ],
    "status": 0
}