{
    "state": "success",
    "sessionId": null,
    "class": "org.openqa.selenium.remote.Response",
    "value": {
        "element-6066-11e4-a52e-4f735466cecf": "95a4ee82-5de4-4347-874e-ada28fd48ad3"
    },
    "status": 0
}