{
    "state": "success",
    "sessionId": null,
    "class": "org.openqa.selenium.remote.Response",
    "value": {
        "element-6066-11e4-a52e-4f735466cecf": "425d993f-103d-4ad0-87a1-3cf92ba40709"
    },
    "status": 0
}