{
    "state": "success",
    "sessionId": null,
    "class": "org.openqa.selenium.remote.Response",
    "value": [
        {
            "element-6066-11e4-a52e-4f735466cecf": "f995b612-12f5-4454-a03b-47d4f5d3d81c"
        }
    ],
    "status": 0
}