{
    "state": "success",
    "sessionId": null,
    "class": "org.openqa.selenium.remote.Response",
    "value": {
        "element-6066-11e4-a52e-4f735466cecf": "9afe8cba-85b1-4fcc-bf9e-805a8a450671"
    },
    "status": 0
}