{
    "state": "success",
    "sessionId": null,
    "class": "org.openqa.selenium.remote.Response",
    "value": [
        {
            "element-6066-11e4-a52e-4f735466cecf": "70df43a3-0d10-47f3-87d5-7f987475d0b8"
        }
    ],
    "status": 0
}