{
    "state": "success",
    "sessionId": null,
    "class": "org.openqa.selenium.remote.Response",
    "value": {
        "element-6066-11e4-a52e-4f735466cecf": "6befe17f-89e4-4341-bafa-a2c2052ad901"
    },
    "status": 0
}