{
    "state": "success",
    "sessionId": null,
    "class": "org.openqa.selenium.remote.Response",
    "value": {
        "element-6066-11e4-a52e-4f735466cecf": "d4f95908-7ab2-46fe-8630-c0bb1a94573c"
    },
    "status": 0
}