{
    "state": "success",
    "sessionId": null,
    "class": "org.openqa.selenium.remote.Response",
    "value": [
        {
            "element-6066-11e4-a52e-4f735466cecf": "06226f18-8399-48a4-be05-b57b6e8d6aba"
        }
    ],
    "status": 0
}