{
    "state": "success",
    "sessionId": null,
    "class": "org.openqa.selenium.remote.Response",
    "value": {
        "element-6066-11e4-a52e-4f735466cecf": "e3cf0473-0df4-4d8e-a567-9e83db0c6989"
    },
    "status": 0
}