{
    "state": "success",
    "sessionId": null,
    "class": "org.openqa.selenium.remote.Response",
    "value": {
        "element-6066-11e4-a52e-4f735466cecf": "3ec0c1a9-c149-4d12-90fe-7926734c0e2a"
    },
    "status": 0
}