{
    "state": "success",
    "sessionId": null,
    "class": "org.openqa.selenium.remote.Response",
    "value": [
        {
            "element-6066-11e4-a52e-4f735466cecf": "28629e34-365b-4232-b87f-256fa5e68370"
        }
    ],
    "status": 0
}