{
    "state": "success",
    "sessionId": null,
    "class": "org.openqa.selenium.remote.Response",
    "value": [
        {
            "element-6066-11e4-a52e-4f735466cecf": "ea8747c0-152a-4792-b11c-596d5a42b294"
        }
    ],
    "status": 0
}