{
    "state": "success",
    "sessionId": null,
    "class": "org.openqa.selenium.remote.Response",
    "value": [
        {
            "element-6066-11e4-a52e-4f735466cecf": "a2b0adce-f43c-4738-a26f-1ed0d8748ec0"
        }
    ],
    "status": 0
}