{
    "state": "success",
    "sessionId": null,
    "class": "org.openqa.selenium.remote.Response",
    "value": {
        "element-6066-11e4-a52e-4f735466cecf": "378c6806-5774-41d7-ad16-79a7eb33a1e9"
    },
    "status": 0
}