{
    "state": "success",
    "sessionId": null,
    "class": "org.openqa.selenium.remote.Response",
    "value": [
        {
            "element-6066-11e4-a52e-4f735466cecf": "506b1ba0-34f1-43cb-8c32-73a6752e529c"
        }
    ],
    "status": 0
}