{
    "state": "success",
    "sessionId": null,
    "class": "org.openqa.selenium.remote.Response",
    "value": {
        "element-6066-11e4-a52e-4f735466cecf": "84908ae7-9a53-4570-b106-f05829189872"
    },
    "status": 0
}