{
    "state": "success",
    "sessionId": null,
    "class": "org.openqa.selenium.remote.Response",
    "value": {
        "element-6066-11e4-a52e-4f735466cecf": "d53abe23-e70a-42be-854c-93314d1d39a7"
    },
    "status": 0
}