{
    "state": "success",
    "sessionId": null,
    "class": "org.openqa.selenium.remote.Response",
    "value": {
        "element-6066-11e4-a52e-4f735466cecf": "b7c027b3-e103-47f8-9e45-39fbc1715995"
    },
    "status": 0
}