{
    "state": "success",
    "sessionId": null,
    "class": "org.openqa.selenium.remote.Response",
    "value": [
        {
            "element-6066-11e4-a52e-4f735466cecf": "474df3c1-c2a4-4444-9d11-7c29dcfa056d"
        }
    ],
    "status": 0
}