{
    "state": "success",
    "sessionId": null,
    "class": "org.openqa.selenium.remote.Response",
    "value": {
        "element-6066-11e4-a52e-4f735466cecf": "6cd0f1b2-0b48-4709-ad1a-64b1d4e142b6"
    },
    "status": 0
}