{
    "state": "success",
    "sessionId": null,
    "class": "org.openqa.selenium.remote.Response",
    "value": {
        "element-6066-11e4-a52e-4f735466cecf": "d0738c22-6620-4006-a81a-47db0ae475d3"
    },
    "status": 0
}