{
    "state": "success",
    "sessionId": null,
    "class": "org.openqa.selenium.remote.Response",
    "value": {
        "element-6066-11e4-a52e-4f735466cecf": "9215a89c-2452-4a0a-96d4-4a6b9a5cd69a"
    },
    "status": 0
}