{
    "state": "success",
    "sessionId": null,
    "class": "org.openqa.selenium.remote.Response",
    "value": {
        "element-6066-11e4-a52e-4f735466cecf": "addc9573-c1e4-442e-b078-063ecabb791e"
    },
    "status": 0
}