{
    "state": "success",
    "sessionId": null,
    "class": "org.openqa.selenium.remote.Response",
    "value": {
        "element-6066-11e4-a52e-4f735466cecf": "215ba4d9-35c2-4432-b438-6e76756b4f8f"
    },
    "status": 0
}