{
    "state": "success",
    "sessionId": null,
    "class": "org.openqa.selenium.remote.Response",
    "value": {
        "element-6066-11e4-a52e-4f735466cecf": "53ee4fbf-9a29-408e-833d-3c488f39b05e"
    },
    "status": 0
}