{
    "state": "success",
    "sessionId": null,
    "class": "org.openqa.selenium.remote.Response",
    "value": [
        {
            "element-6066-11e4-a52e-4f735466cecf": "4c74e3e5-28bd-4d52-90eb-cb14f89c7c12"
        }
    ],
    "status": 0
}