{
    "state": "success",
    "sessionId": null,
    "class": "org.openqa.selenium.remote.Response",
    "value": {
        "element-6066-11e4-a52e-4f735466cecf": "cbcc86fc-572d-4e46-9cc0-2fe114965997"
    },
    "status": 0
}