{
    "state": "success",
    "sessionId": null,
    "class": "org.openqa.selenium.remote.Response",
    "value": [
        {
            "element-6066-11e4-a52e-4f735466cecf": "7d4ca878-111b-42c5-b486-9190781433a4"
        }
    ],
    "status": 0
}