{
    "state": "success",
    "sessionId": null,
    "class": "org.openqa.selenium.remote.Response",
    "value": [
        {
            "element-6066-11e4-a52e-4f735466cecf": "dddfff33-715b-420a-af99-48a3815338c3"
        }
    ],
    "status": 0
}