{
    "state": "success",
    "sessionId": null,
    "class": "org.openqa.selenium.remote.Response",
    "value": {
        "element-6066-11e4-a52e-4f735466cecf": "dc7fe35a-9279-4af7-acb7-54ffbc3a46f2"
    },
    "status": 0
}