{
    "state": "success",
    "sessionId": null,
    "class": "org.openqa.selenium.remote.Response",
    "value": [
        {
            "element-6066-11e4-a52e-4f735466cecf": "0595229b-880d-4f5c-8dcb-19cc63015306"
        }
    ],
    "status": 0
}