{
    "state": "success",
    "sessionId": null,
    "class": "org.openqa.selenium.remote.Response",
    "value": [
        {
            "element-6066-11e4-a52e-4f735466cecf": "943588f2-7d42-45b0-b317-a45ab9c4ee4c"
        }
    ],
    "status": 0
}