{
    "state": "success",
    "sessionId": null,
    "class": "org.openqa.selenium.remote.Response",
    "value": {
        "element-6066-11e4-a52e-4f735466cecf": "11e1ea67-52a9-4c40-baf8-5a9f25c10802"
    },
    "status": 0
}