{
    "state": "success",
    "sessionId": null,
    "class": "org.openqa.selenium.remote.Response",
    "value": {
        "element-6066-11e4-a52e-4f735466cecf": "6a1fcc6d-04c7-47c0-ae19-2b55027d30bb"
    },
    "status": 0
}