{
    "state": "success",
    "sessionId": null,
    "class": "org.openqa.selenium.remote.Response",
    "value": [
        {
            "element-6066-11e4-a52e-4f735466cecf": "4b9de037-4280-436c-bcaf-99b7126bc641"
        }
    ],
    "status": 0
}