{
    "state": "success",
    "sessionId": null,
    "class": "org.openqa.selenium.remote.Response",
    "value": {
        "element-6066-11e4-a52e-4f735466cecf": "bcc8b4b1-badf-4f07-b7cc-f720d128cb5a"
    },
    "status": 0
}