{
    "state": "success",
    "sessionId": null,
    "class": "org.openqa.selenium.remote.Response",
    "value": {
        "element-6066-11e4-a52e-4f735466cecf": "9654dcdd-9246-4b5d-bacd-e102cfae04a1"
    },
    "status": 0
}