{
    "state": "success",
    "sessionId": null,
    "class": "org.openqa.selenium.remote.Response",
    "value": {
        "element-6066-11e4-a52e-4f735466cecf": "8c439cd2-b2f3-4e57-9425-d4f7f92ee314"
    },
    "status": 0
}