{
    "state": "success",
    "sessionId": null,
    "class": "org.openqa.selenium.remote.Response",
    "value": {
        "element-6066-11e4-a52e-4f735466cecf": "220b2fb0-0369-4a5f-a9f9-9993bf045a10"
    },
    "status": 0
}