{
    "state": "success",
    "sessionId": null,
    "class": "org.openqa.selenium.remote.Response",
    "value": [
        {
            "element-6066-11e4-a52e-4f735466cecf": "a7b194fa-2b5a-40f4-8cd9-8c7d5358f14d"
        }
    ],
    "status": 0
}