{
    "state": "success",
    "sessionId": null,
    "class": "org.openqa.selenium.remote.Response",
    "value": [
        {
            "element-6066-11e4-a52e-4f735466cecf": "7bb361d0-08ec-4a2d-a10c-5b6905231913"
        }
    ],
    "status": 0
}