{
    "state": "success",
    "sessionId": null,
    "class": "org.openqa.selenium.remote.Response",
    "value": {
        "element-6066-11e4-a52e-4f735466cecf": "f14003e8-644e-4e78-ba58-915b3828c050"
    },
    "status": 0
}