{
    "state": "success",
    "sessionId": null,
    "class": "org.openqa.selenium.remote.Response",
    "value": {
        "element-6066-11e4-a52e-4f735466cecf": "2d3d87fe-6a13-4ffa-9378-358f3d812ff8"
    },
    "status": 0
}