{
    "state": "success",
    "sessionId": null,
    "class": "org.openqa.selenium.remote.Response",
    "value": {
        "element-6066-11e4-a52e-4f735466cecf": "c81409ae-4c5a-4f70-8ae8-0c85338517df"
    },
    "status": 0
}