{
    "state": "success",
    "sessionId": null,
    "class": "org.openqa.selenium.remote.Response",
    "value": [
        {
            "element-6066-11e4-a52e-4f735466cecf": "10269db3-41a2-42a5-af2d-f6397e30cbe9"
        }
    ],
    "status": 0
}