{
    "state": "success",
    "sessionId": null,
    "class": "org.openqa.selenium.remote.Response",
    "value": {
        "element-6066-11e4-a52e-4f735466cecf": "c6f765a3-3a9c-4a91-a80c-5e83b91f79fa"
    },
    "status": 0
}