{
    "state": "success",
    "sessionId": null,
    "class": "org.openqa.selenium.remote.Response",
    "value": {
        "element-6066-11e4-a52e-4f735466cecf": "6c598f8d-7917-4a32-bd53-89b75b8f8f6a"
    },
    "status": 0
}