{
    "state": "success",
    "sessionId": null,
    "class": "org.openqa.selenium.remote.Response",
    "value": {
        "element-6066-11e4-a52e-4f735466cecf": "3383edfd-0f03-4f1e-9581-7cc476303874"
    },
    "status": 0
}