{
    "state": "success",
    "sessionId": null,
    "class": "org.openqa.selenium.remote.Response",
    "value": {
        "element-6066-11e4-a52e-4f735466cecf": "a5852de0-973c-4caf-b56c-61197fb5bdbf"
    },
    "status": 0
}