{
    "state": "success",
    "sessionId": null,
    "class": "org.openqa.selenium.remote.Response",
    "value": {
        "element-6066-11e4-a52e-4f735466cecf": "8fe033b1-c06d-4b5b-8723-6b26d85d0cf2"
    },
    "status": 0
}