{
    "state": "success",
    "sessionId": null,
    "class": "org.openqa.selenium.remote.Response",
    "value": {
        "element-6066-11e4-a52e-4f735466cecf": "9b4d06fc-7561-4998-aeaf-9f27a9510c08"
    },
    "status": 0
}