{
    "state": "success",
    "sessionId": null,
    "class": "org.openqa.selenium.remote.Response",
    "value": [
        {
            "element-6066-11e4-a52e-4f735466cecf": "880f6455-65ea-4f7c-befc-76c243a2c6cb"
        }
    ],
    "status": 0
}