{
    "state": "success",
    "sessionId": null,
    "class": "org.openqa.selenium.remote.Response",
    "value": {
        "element-6066-11e4-a52e-4f735466cecf": "0c3cb5d3-22ae-4581-b693-7523cda541fe"
    },
    "status": 0
}