{
    "state": "success",
    "sessionId": null,
    "class": "org.openqa.selenium.remote.Response",
    "value": {
        "element-6066-11e4-a52e-4f735466cecf": "6e282d7b-c9c5-49aa-a139-f820252e8443"
    },
    "status": 0
}