{
    "state": "success",
    "sessionId": null,
    "class": "org.openqa.selenium.remote.Response",
    "value": {
        "element-6066-11e4-a52e-4f735466cecf": "8ea9b720-26ff-4a7f-88f3-67817919e8ed"
    },
    "status": 0
}