{
    "state": "success",
    "sessionId": null,
    "class": "org.openqa.selenium.remote.Response",
    "value": {
        "element-6066-11e4-a52e-4f735466cecf": "9d4059c1-365d-44cc-8747-27bbd4100067"
    },
    "status": 0
}