{
    "state": "success",
    "sessionId": null,
    "class": "org.openqa.selenium.remote.Response",
    "value": [
        {
            "element-6066-11e4-a52e-4f735466cecf": "e3ced55a-444a-4c59-b701-1ee0872564f1"
        }
    ],
    "status": 0
}