{
    "state": "success",
    "sessionId": null,
    "class": "org.openqa.selenium.remote.Response",
    "value": [
        {
            "element-6066-11e4-a52e-4f735466cecf": "01f55a1b-5ebc-4dc0-88de-ec3b257440cc"
        }
    ],
    "status": 0
}