{
    "state": "success",
    "sessionId": null,
    "class": "org.openqa.selenium.remote.Response",
    "value": {
        "element-6066-11e4-a52e-4f735466cecf": "47c24935-f37f-4ec8-9c41-785adc4a5f92"
    },
    "status": 0
}