{
    "state": "success",
    "sessionId": null,
    "class": "org.openqa.selenium.remote.Response",
    "value": [
        {
            "element-6066-11e4-a52e-4f735466cecf": "78a407fd-0ee1-42bb-bd25-8c3fc9f8c364"
        }
    ],
    "status": 0
}