{
    "state": "success",
    "sessionId": null,
    "class": "org.openqa.selenium.remote.Response",
    "value": [
        {
            "element-6066-11e4-a52e-4f735466cecf": "536e49ee-ba3d-4c1f-a9dc-9a2e9e0bcfc0"
        }
    ],
    "status": 0
}