{
    "state": "success",
    "sessionId": null,
    "class": "org.openqa.selenium.remote.Response",
    "value": {
        "element-6066-11e4-a52e-4f735466cecf": "78ffe80d-e1dd-4e92-93e9-8d1b72795967"
    },
    "status": 0
}