{
    "state": "success",
    "sessionId": null,
    "class": "org.openqa.selenium.remote.Response",
    "value": {
        "element-6066-11e4-a52e-4f735466cecf": "e465513a-63eb-4d35-8a4d-3c25a6cff973"
    },
    "status": 0
}