{
    "state": "success",
    "sessionId": null,
    "class": "org.openqa.selenium.remote.Response",
    "value": {
        "element-6066-11e4-a52e-4f735466cecf": "83b58694-107a-4929-b530-e22a388aebba"
    },
    "status": 0
}