{
    "state": "success",
    "sessionId": null,
    "class": "org.openqa.selenium.remote.Response",
    "value": {
        "element-6066-11e4-a52e-4f735466cecf": "1dc24c64-e9be-4d11-aebb-6ff20d524809"
    },
    "status": 0
}