{
    "state": "success",
    "sessionId": null,
    "class": "org.openqa.selenium.remote.Response",
    "value": [
        {
            "element-6066-11e4-a52e-4f735466cecf": "115db35a-c5ee-457f-ad08-a721e5925fa6"
        }
    ],
    "status": 0
}