{
    "state": "success",
    "sessionId": null,
    "class": "org.openqa.selenium.remote.Response",
    "value": {
        "element-6066-11e4-a52e-4f735466cecf": "fded3381-b2b3-464c-b19a-2e5917eeb492"
    },
    "status": 0
}