{
    "state": "success",
    "sessionId": null,
    "class": "org.openqa.selenium.remote.Response",
    "value": [
        {
            "element-6066-11e4-a52e-4f735466cecf": "c2a92023-cc1c-491c-bee0-5017c8e79721"
        }
    ],
    "status": 0
}