{
    "state": "success",
    "sessionId": null,
    "class": "org.openqa.selenium.remote.Response",
    "value": [
        {
            "element-6066-11e4-a52e-4f735466cecf": "1d81e488-554e-4287-a0d2-2a7613ba0c8d"
        }
    ],
    "status": 0
}