{
    "state": "success",
    "sessionId": null,
    "class": "org.openqa.selenium.remote.Response",
    "value": {
        "element-6066-11e4-a52e-4f735466cecf": "b4e0fca6-e51b-418b-8763-f3f4a0b2d0eb"
    },
    "status": 0
}