{
    "state": "success",
    "sessionId": null,
    "class": "org.openqa.selenium.remote.Response",
    "value": {
        "element-6066-11e4-a52e-4f735466cecf": "55775bc4-ae72-411d-ba21-a1b1f05e0e15"
    },
    "status": 0
}