{
    "state": "success",
    "sessionId": null,
    "class": "org.openqa.selenium.remote.Response",
    "value": [
        {
            "element-6066-11e4-a52e-4f735466cecf": "16127a6e-5a01-4303-b7e6-9449e3f3c588"
        }
    ],
    "status": 0
}