{
    "state": "success",
    "sessionId": null,
    "class": "org.openqa.selenium.remote.Response",
    "value": [
        {
            "element-6066-11e4-a52e-4f735466cecf": "d8d20702-2962-4fdd-9784-40739e0b7524"
        }
    ],
    "status": 0
}