{
    "state": "success",
    "sessionId": null,
    "class": "org.openqa.selenium.remote.Response",
    "value": [
        {
            "element-6066-11e4-a52e-4f735466cecf": "977ab681-2e47-4de6-9c04-b5d4d788ce19"
        }
    ],
    "status": 0
}