{
    "state": "success",
    "sessionId": null,
    "class": "org.openqa.selenium.remote.Response",
    "value": [
        {
            "element-6066-11e4-a52e-4f735466cecf": "382b5ff6-dae8-4df1-a7ac-c7ec2d3ec9ec"
        }
    ],
    "status": 0
}