{
    "state": "success",
    "sessionId": null,
    "class": "org.openqa.selenium.remote.Response",
    "value": {
        "element-6066-11e4-a52e-4f735466cecf": "39859d88-85cf-4c80-99f9-7298e1314257"
    },
    "status": 0
}