{
    "state": "success",
    "sessionId": null,
    "class": "org.openqa.selenium.remote.Response",
    "value": {
        "element-6066-11e4-a52e-4f735466cecf": "64d09128-a2f0-4bd2-aa23-7a53dedd8fb9"
    },
    "status": 0
}