{
    "state": "success",
    "sessionId": null,
    "class": "org.openqa.selenium.remote.Response",
    "value": [
        {
            "element-6066-11e4-a52e-4f735466cecf": "28dffb59-e58d-4ee6-b56e-5d744057b6bd"
        }
    ],
    "status": 0
}