{
    "state": "success",
    "sessionId": null,
    "class": "org.openqa.selenium.remote.Response",
    "value": [
        {
            "element-6066-11e4-a52e-4f735466cecf": "fdcbe3c7-85d6-48d9-9de8-1b680a8a51f2"
        }
    ],
    "status": 0
}