{
    "state": "success",
    "sessionId": null,
    "class": "org.openqa.selenium.remote.Response",
    "value": [
        {
            "element-6066-11e4-a52e-4f735466cecf": "3eb283f5-43ea-4c00-b640-33e9bc7c518f"
        }
    ],
    "status": 0
}