{
    "state": "success",
    "sessionId": null,
    "class": "org.openqa.selenium.remote.Response",
    "value": {
        "element-6066-11e4-a52e-4f735466cecf": "2f8b28ca-2e3d-4a87-a067-a33e58c86a27"
    },
    "status": 0
}