{
    "state": "success",
    "sessionId": null,
    "class": "org.openqa.selenium.remote.Response",
    "value": {
        "element-6066-11e4-a52e-4f735466cecf": "2201bb10-d981-4304-8041-d88c0b87ba6a"
    },
    "status": 0
}