{
    "state": "success",
    "sessionId": null,
    "class": "org.openqa.selenium.remote.Response",
    "value": {
        "element-6066-11e4-a52e-4f735466cecf": "992cd6bd-1a6b-4956-9204-e001ae4d01c3"
    },
    "status": 0
}