{
    "state": "success",
    "sessionId": null,
    "class": "org.openqa.selenium.remote.Response",
    "value": {
        "element-6066-11e4-a52e-4f735466cecf": "3ffd7fec-5dc6-431f-9616-d4bbb0961ef9"
    },
    "status": 0
}