{
    "state": "success",
    "sessionId": null,
    "class": "org.openqa.selenium.remote.Response",
    "value": [
        {
            "element-6066-11e4-a52e-4f735466cecf": "1d44fb16-75bd-49b5-94d5-da51a385eee7"
        }
    ],
    "status": 0
}