{
    "state": "success",
    "sessionId": null,
    "class": "org.openqa.selenium.remote.Response",
    "value": [
        {
            "element-6066-11e4-a52e-4f735466cecf": "780fd49b-c270-4b57-9db9-db00ad0f6f4e"
        }
    ],
    "status": 0
}