{
    "state": "success",
    "sessionId": null,
    "class": "org.openqa.selenium.remote.Response",
    "value": [
        {
            "element-6066-11e4-a52e-4f735466cecf": "eef730f3-6df0-4c7d-a9b3-57e853b33608"
        }
    ],
    "status": 0
}