{
    "state": "success",
    "sessionId": null,
    "class": "org.openqa.selenium.remote.Response",
    "value": {
        "element-6066-11e4-a52e-4f735466cecf": "46f4ec7a-9369-4ead-bb90-d2543f213993"
    },
    "status": 0
}