{
    "state": "success",
    "sessionId": null,
    "class": "org.openqa.selenium.remote.Response",
    "value": {
        "element-6066-11e4-a52e-4f735466cecf": "9fd503cb-c2ff-4852-bf3b-660eb06f0d8b"
    },
    "status": 0
}