{
    "state": "success",
    "sessionId": null,
    "class": "org.openqa.selenium.remote.Response",
    "value": [
        {
            "element-6066-11e4-a52e-4f735466cecf": "2d92d8db-de46-4f4e-a9d1-8252296b8264"
        }
    ],
    "status": 0
}