{
    "state": "success",
    "sessionId": null,
    "class": "org.openqa.selenium.remote.Response",
    "value": {
        "element-6066-11e4-a52e-4f735466cecf": "3555aa5a-09ad-4d8e-a0e8-7d483a3a5b79"
    },
    "status": 0
}