{
    "state": "success",
    "sessionId": null,
    "class": "org.openqa.selenium.remote.Response",
    "value": {
        "element-6066-11e4-a52e-4f735466cecf": "c83ce6ac-5c78-41c0-ba4f-44c8549d18cc"
    },
    "status": 0
}