{
    "state": "success",
    "sessionId": null,
    "class": "org.openqa.selenium.remote.Response",
    "value": {
        "element-6066-11e4-a52e-4f735466cecf": "988e6a43-638f-404f-8954-7adc69c2c886"
    },
    "status": 0
}