{
    "state": "success",
    "sessionId": null,
    "class": "org.openqa.selenium.remote.Response",
    "value": {
        "element-6066-11e4-a52e-4f735466cecf": "7473b22a-ecda-46f5-a5f3-7bd783c7e4fe"
    },
    "status": 0
}