{
    "state": "success",
    "sessionId": null,
    "class": "org.openqa.selenium.remote.Response",
    "value": {
        "element-6066-11e4-a52e-4f735466cecf": "81cd1800-a596-4224-b0f6-90419b1b28b4"
    },
    "status": 0
}