{
    "state": "success",
    "sessionId": null,
    "class": "org.openqa.selenium.remote.Response",
    "value": {
        "element-6066-11e4-a52e-4f735466cecf": "351d5f09-1582-46f3-9651-eb254e07f697"
    },
    "status": 0
}