{
    "state": "success",
    "sessionId": null,
    "class": "org.openqa.selenium.remote.Response",
    "value": [
        {
            "element-6066-11e4-a52e-4f735466cecf": "e92fd227-af6f-4353-a13a-41cd96f80dbc"
        }
    ],
    "status": 0
}