{
    "state": "success",
    "sessionId": null,
    "class": "org.openqa.selenium.remote.Response",
    "value": [
        {
            "element-6066-11e4-a52e-4f735466cecf": "7074fa40-3af3-4940-b727-d5b51f843109"
        }
    ],
    "status": 0
}