{
    "state": "success",
    "sessionId": null,
    "class": "org.openqa.selenium.remote.Response",
    "value": [
        {
            "element-6066-11e4-a52e-4f735466cecf": "b51d5ca8-a765-4e12-8d5a-51323e9e7d64"
        }
    ],
    "status": 0
}