{
    "state": "success",
    "sessionId": null,
    "class": "org.openqa.selenium.remote.Response",
    "value": [
        {
            "element-6066-11e4-a52e-4f735466cecf": "3e6cc444-0f12-47ee-8482-b42e14092a77"
        }
    ],
    "status": 0
}