{
    "state": "success",
    "sessionId": null,
    "class": "org.openqa.selenium.remote.Response",
    "value": {
        "element-6066-11e4-a52e-4f735466cecf": "def01975-7ae8-469a-9581-e10e9d8646a7"
    },
    "status": 0
}