{
    "state": "success",
    "sessionId": null,
    "class": "org.openqa.selenium.remote.Response",
    "value": [
        "CDwindow-525961C6CBB219171464EFC710B84EA5",
        "CDwindow-A229EB1B71F26778BA6702254A58288E"
    ],
    "status": 0
}