{
    "state": "success",
    "sessionId": null,
    "class": "org.openqa.selenium.remote.Response",
    "value": [
        {
            "element-6066-11e4-a52e-4f735466cecf": "1f96a467-e40f-40a1-9f01-70b86c63eba6"
        }
    ],
    "status": 0
}