{
    "state": "success",
    "sessionId": null,
    "class": "org.openqa.selenium.remote.Response",
    "value": [
        {
            "element-6066-11e4-a52e-4f735466cecf": "9b3e3d13-c7fe-4bcd-aca1-6a01287ed402"
        }
    ],
    "status": 0
}