{
    "state": "success",
    "sessionId": null,
    "class": "org.openqa.selenium.remote.Response",
    "value": {
        "element-6066-11e4-a52e-4f735466cecf": "bd734262-4db3-485f-9240-0f6dca6e1eb0"
    },
    "status": 0
}