{
    "state": "success",
    "sessionId": null,
    "class": "org.openqa.selenium.remote.Response",
    "value": {
        "element-6066-11e4-a52e-4f735466cecf": "bbae0260-7d6e-4c2c-9d46-14f68864209e"
    },
    "status": 0
}