{
    "state": "success",
    "sessionId": null,
    "class": "org.openqa.selenium.remote.Response",
    "value": {
        "element-6066-11e4-a52e-4f735466cecf": "d4a4fa15-3ae5-44b7-bf36-0cf93c484623"
    },
    "status": 0
}