{
    "value": [
        "c",
        "n",
        "u",
        "s",
        "i",
        "n",
        "d",
        "h",
        "u",
        "9",
        "2",
        "@",
        "g",
        "m",
        "a",
        "i",
        "l",
        ".",
        "c",
        "o",
        "m",
        ""
    ],
    "text": "cnusindhu92@gmail.com"
}