{
    "state": "success",
    "sessionId": null,
    "class": "org.openqa.selenium.remote.Response",
    "value": [
        {
            "element-6066-11e4-a52e-4f735466cecf": "88a1ed06-8124-4799-abc7-ce57adcced89"
        }
    ],
    "status": 0
}