{
    "state": "success",
    "sessionId": null,
    "class": "org.openqa.selenium.remote.Response",
    "value": {
        "element-6066-11e4-a52e-4f735466cecf": "2bcee936-4894-410d-ba25-aa1df299d90d"
    },
    "status": 0
}