{
    "state": "success",
    "sessionId": null,
    "class": "org.openqa.selenium.remote.Response",
    "value": [
        {
            "element-6066-11e4-a52e-4f735466cecf": "5f121910-7caf-4e4a-ab69-5e3866491399"
        }
    ],
    "status": 0
}