{
    "state": "success",
    "sessionId": null,
    "class": "org.openqa.selenium.remote.Response",
    "value": [
        {
            "element-6066-11e4-a52e-4f735466cecf": "0ae5645c-657b-49fb-9526-75efb8101322"
        }
    ],
    "status": 0
}