{
    "state": "success",
    "sessionId": null,
    "class": "org.openqa.selenium.remote.Response",
    "value": [
        {
            "element-6066-11e4-a52e-4f735466cecf": "de669009-2937-4a11-91e9-845917d0d373"
        }
    ],
    "status": 0
}