{
    "state": "success",
    "sessionId": null,
    "class": "org.openqa.selenium.remote.Response",
    "value": {
        "element-6066-11e4-a52e-4f735466cecf": "742795a2-0a05-429f-a8c3-a51e2edfb7ec"
    },
    "status": 0
}