{
    "state": "success",
    "sessionId": null,
    "class": "org.openqa.selenium.remote.Response",
    "value": {
        "element-6066-11e4-a52e-4f735466cecf": "f19db8eb-6c79-4c40-a8a2-272cf7717a7e"
    },
    "status": 0
}