{
    "state": "success",
    "sessionId": null,
    "class": "org.openqa.selenium.remote.Response",
    "value": {
        "element-6066-11e4-a52e-4f735466cecf": "f1c16f89-4b42-45e4-a7d9-901b926a98d6"
    },
    "status": 0
}