{
    "state": "success",
    "sessionId": null,
    "class": "org.openqa.selenium.remote.Response",
    "value": [
        {
            "element-6066-11e4-a52e-4f735466cecf": "ed1b8320-4811-42f7-acec-c7967e4601b0"
        }
    ],
    "status": 0
}