{
    "state": "success",
    "sessionId": null,
    "class": "org.openqa.selenium.remote.Response",
    "value": {
        "element-6066-11e4-a52e-4f735466cecf": "6b5e39e8-9fcf-4499-b61c-b06f132b83b0"
    },
    "status": 0
}