{
    "state": "success",
    "sessionId": null,
    "class": "org.openqa.selenium.remote.Response",
    "value": [
        {
            "element-6066-11e4-a52e-4f735466cecf": "f32436b0-beea-4d94-bedb-b2a4af507b15"
        }
    ],
    "status": 0
}