{
    "state": "success",
    "sessionId": null,
    "class": "org.openqa.selenium.remote.Response",
    "value": [
        {
            "element-6066-11e4-a52e-4f735466cecf": "b56051fc-b6eb-40bb-8366-f09872c46ce7"
        }
    ],
    "status": 0
}