{
    "value": [
        "d",
        "e",
        "v",
        "_",
        "d",
        "i",
        "s",
        "s",
        "e",
        "m",
        "i",
        "n",
        "a",
        "t",
        "i",
        "o",
        "n"
    ],
    "text": "dev_dissemination"
}