{
    "state": "success",
    "sessionId": null,
    "class": "org.openqa.selenium.remote.Response",
    "value": [
        {
            "element-6066-11e4-a52e-4f735466cecf": "5677f998-7a34-419f-af00-a46b99b89b1f"
        }
    ],
    "status": 0
}