{
    "state": "success",
    "sessionId": null,
    "class": "org.openqa.selenium.remote.Response",
    "value": [
        {
            "element-6066-11e4-a52e-4f735466cecf": "b856ede5-74ac-4c0b-8203-64bca1dc6841"
        }
    ],
    "status": 0
}