{
    "state": "success",
    "sessionId": null,
    "class": "org.openqa.selenium.remote.Response",
    "value": {
        "element-6066-11e4-a52e-4f735466cecf": "33a2ee7f-3820-4bac-be24-8c21db5c4902"
    },
    "status": 0
}