{
    "state": "success",
    "sessionId": null,
    "class": "org.openqa.selenium.remote.Response",
    "value": [
        {
            "element-6066-11e4-a52e-4f735466cecf": "af60d702-213f-4075-8d36-c5e37948bdd0"
        }
    ],
    "status": 0
}