{
    "state": "success",
    "sessionId": null,
    "class": "org.openqa.selenium.remote.Response",
    "value": {
        "element-6066-11e4-a52e-4f735466cecf": "ee5bf227-cd18-4b4e-a2a4-3382cef25d74"
    },
    "status": 0
}