{
    "state": "success",
    "sessionId": null,
    "class": "org.openqa.selenium.remote.Response",
    "value": {
        "element-6066-11e4-a52e-4f735466cecf": "20cb5cd6-40dd-4037-8062-81ab8f8cd0ec"
    },
    "status": 0
}