{
    "state": "success",
    "sessionId": null,
    "class": "org.openqa.selenium.remote.Response",
    "value": {
        "element-6066-11e4-a52e-4f735466cecf": "9ad163d3-51c7-4a7d-85dc-43432705fa37"
    },
    "status": 0
}