{
    "state": "success",
    "sessionId": null,
    "class": "org.openqa.selenium.remote.Response",
    "value": {
        "element-6066-11e4-a52e-4f735466cecf": "772d94db-eeb7-42c2-bdb7-8a91fee74154"
    },
    "status": 0
}