{
    "state": "success",
    "sessionId": null,
    "class": "org.openqa.selenium.remote.Response",
    "value": [
        {
            "element-6066-11e4-a52e-4f735466cecf": "f5429778-1ce1-476b-be54-09d0e6a85bd1"
        }
    ],
    "status": 0
}