{
    "state": "success",
    "sessionId": null,
    "class": "org.openqa.selenium.remote.Response",
    "value": [
        {
            "element-6066-11e4-a52e-4f735466cecf": "4fb17a1e-f1df-4937-b3f6-748789c0fcf4"
        }
    ],
    "status": 0
}