{
    "state": "success",
    "sessionId": null,
    "class": "org.openqa.selenium.remote.Response",
    "value": {
        "element-6066-11e4-a52e-4f735466cecf": "1e5e076b-573b-46ce-8322-dcf1348fed0c"
    },
    "status": 0
}