{
    "state": "success",
    "sessionId": null,
    "class": "org.openqa.selenium.remote.Response",
    "value": {
        "element-6066-11e4-a52e-4f735466cecf": "b3be129c-af49-4730-9d61-2f3a5151cf6a"
    },
    "status": 0
}