{
    "state": "success",
    "sessionId": null,
    "class": "org.openqa.selenium.remote.Response",
    "value": {
        "element-6066-11e4-a52e-4f735466cecf": "b122dd91-5b86-43ac-9077-46db2b9304fd"
    },
    "status": 0
}