{
    "state": "success",
    "sessionId": null,
    "class": "org.openqa.selenium.remote.Response",
    "value": {
        "element-6066-11e4-a52e-4f735466cecf": "49e23be5-b7c8-4336-b10d-70ca51a16e74"
    },
    "status": 0
}