{
    "state": "success",
    "sessionId": null,
    "class": "org.openqa.selenium.remote.Response",
    "value": [
        {
            "element-6066-11e4-a52e-4f735466cecf": "9392c520-78b0-4b62-b5e6-7b8c052f84af"
        }
    ],
    "status": 0
}