{
    "state": "success",
    "sessionId": null,
    "class": "org.openqa.selenium.remote.Response",
    "value": {
        "element-6066-11e4-a52e-4f735466cecf": "a8aea564-8fb0-45cb-8e53-ea9cd1153cfd"
    },
    "status": 0
}