{
    "state": "success",
    "sessionId": null,
    "class": "org.openqa.selenium.remote.Response",
    "value": {
        "element-6066-11e4-a52e-4f735466cecf": "6a065e3d-506c-4881-aa29-b98734b5f67a"
    },
    "status": 0
}