{
    "state": "success",
    "sessionId": null,
    "class": "org.openqa.selenium.remote.Response",
    "value": [
        {
            "element-6066-11e4-a52e-4f735466cecf": "cd300d38-f11c-40da-ac1f-1061ae57d2c1"
        }
    ],
    "status": 0
}