{
    "state": "success",
    "sessionId": null,
    "class": "org.openqa.selenium.remote.Response",
    "value": [
        {
            "element-6066-11e4-a52e-4f735466cecf": "1a2e65f9-6046-4a3b-a118-d8b3aa2c0ed9"
        }
    ],
    "status": 0
}