{
    "state": "success",
    "sessionId": null,
    "class": "org.openqa.selenium.remote.Response",
    "value": {
        "element-6066-11e4-a52e-4f735466cecf": "636822bd-e6ab-480b-82f4-a28146e32cfc"
    },
    "status": 0
}