{
    "state": "success",
    "sessionId": null,
    "class": "org.openqa.selenium.remote.Response",
    "value": {
        "element-6066-11e4-a52e-4f735466cecf": "5104d72e-9deb-429c-abc8-4481953ca6b5"
    },
    "status": 0
}