{
    "state": "success",
    "sessionId": null,
    "class": "org.openqa.selenium.remote.Response",
    "value": {
        "element-6066-11e4-a52e-4f735466cecf": "520328e0-1d5b-448f-8e0f-e09e655bbe77"
    },
    "status": 0
}