{
    "state": "success",
    "sessionId": null,
    "class": "org.openqa.selenium.remote.Response",
    "value": [
        {
            "element-6066-11e4-a52e-4f735466cecf": "6100c177-4c99-4676-ac18-cf5b25eca695"
        }
    ],
    "status": 0
}