{
    "state": "success",
    "sessionId": null,
    "class": "org.openqa.selenium.remote.Response",
    "value": {
        "element-6066-11e4-a52e-4f735466cecf": "96af0433-810a-4da0-9ba7-4b318f8166f8"
    },
    "status": 0
}