{
    "state": "success",
    "sessionId": null,
    "class": "org.openqa.selenium.remote.Response",
    "value": {
        "element-6066-11e4-a52e-4f735466cecf": "dd9199da-3f90-484b-95df-2038eda00d4a"
    },
    "status": 0
}