{
    "state": "success",
    "sessionId": null,
    "class": "org.openqa.selenium.remote.Response",
    "value": [
        {
            "element-6066-11e4-a52e-4f735466cecf": "6b9b6049-4941-41bf-97c6-bd32bd2643b7"
        }
    ],
    "status": 0
}