{
    "state": "success",
    "sessionId": null,
    "class": "org.openqa.selenium.remote.Response",
    "value": {
        "element-6066-11e4-a52e-4f735466cecf": "084585ad-5198-480f-b56a-ff90cf10bbd7"
    },
    "status": 0
}