{
    "state": "success",
    "sessionId": null,
    "class": "org.openqa.selenium.remote.Response",
    "value": {
        "element-6066-11e4-a52e-4f735466cecf": "674440e0-905f-4f80-9453-eb30d1362673"
    },
    "status": 0
}