{
    "state": "success",
    "sessionId": null,
    "class": "org.openqa.selenium.remote.Response",
    "value": [
        {
            "element-6066-11e4-a52e-4f735466cecf": "d7c3a2b7-0d6f-4d86-a1aa-5f8ea6843c0e"
        }
    ],
    "status": 0
}