{
    "state": "success",
    "sessionId": null,
    "class": "org.openqa.selenium.remote.Response",
    "value": {
        "element-6066-11e4-a52e-4f735466cecf": "6b99c9db-c1c8-4e40-bae8-8b3186c1a3e7"
    },
    "status": 0
}