{
    "state": "success",
    "sessionId": null,
    "class": "org.openqa.selenium.remote.Response",
    "value": [
        {
            "element-6066-11e4-a52e-4f735466cecf": "8df22759-12e7-4bf6-aa7f-cfeada972ae2"
        }
    ],
    "status": 0
}