{
    "state": "success",
    "sessionId": null,
    "class": "org.openqa.selenium.remote.Response",
    "value": {
        "element-6066-11e4-a52e-4f735466cecf": "db3bef0d-5c14-4249-a4f5-1c4eddd95a02"
    },
    "status": 0
}