{
    "state": "success",
    "sessionId": null,
    "class": "org.openqa.selenium.remote.Response",
    "value": {
        "element-6066-11e4-a52e-4f735466cecf": "e295501e-431e-4904-ac2e-7626c76dd77d"
    },
    "status": 0
}