{
    "state": "success",
    "sessionId": null,
    "class": "org.openqa.selenium.remote.Response",
    "value": {
        "element-6066-11e4-a52e-4f735466cecf": "e0c5a495-1b9c-481c-bc82-b39a8a9d8cd4"
    },
    "status": 0
}