{
    "state": "success",
    "sessionId": null,
    "class": "org.openqa.selenium.remote.Response",
    "value": [
        {
            "element-6066-11e4-a52e-4f735466cecf": "a6ee0e0c-f2e9-4710-9ed0-ad0e9b6c604a"
        }
    ],
    "status": 0
}