{
    "state": "success",
    "sessionId": null,
    "class": "org.openqa.selenium.remote.Response",
    "value": {
        "element-6066-11e4-a52e-4f735466cecf": "fe392574-edc3-42db-a418-361feaf2d256"
    },
    "status": 0
}