{
    "state": "success",
    "sessionId": null,
    "class": "org.openqa.selenium.remote.Response",
    "value": [
        {
            "element-6066-11e4-a52e-4f735466cecf": "7dfd4344-f891-4ede-af9d-49def862aff7"
        }
    ],
    "status": 0
}