{
    "state": "success",
    "sessionId": null,
    "class": "org.openqa.selenium.remote.Response",
    "value": [
        {
            "element-6066-11e4-a52e-4f735466cecf": "5d4c394b-8366-4b05-9e96-66b0069d4ad7"
        }
    ],
    "status": 0
}