{
    "state": "success",
    "sessionId": null,
    "class": "org.openqa.selenium.remote.Response",
    "value": [
        {
            "element-6066-11e4-a52e-4f735466cecf": "d22448e0-cf7a-4bea-b123-98d4e7f18f9d"
        }
    ],
    "status": 0
}