{
    "state": "success",
    "sessionId": null,
    "class": "org.openqa.selenium.remote.Response",
    "value": [
        {
            "element-6066-11e4-a52e-4f735466cecf": "efb50fa6-52ce-4d72-86b2-7aefbf217e29"
        }
    ],
    "status": 0
}