{
    "state": "success",
    "sessionId": null,
    "class": "org.openqa.selenium.remote.Response",
    "value": {
        "element-6066-11e4-a52e-4f735466cecf": "57baf127-e543-44ea-87b3-45dcfde6e2d0"
    },
    "status": 0
}