{
    "state": "success",
    "sessionId": null,
    "class": "org.openqa.selenium.remote.Response",
    "value": {
        "element-6066-11e4-a52e-4f735466cecf": "6d594ad5-78a4-40bd-9ffd-2024a4e32aec"
    },
    "status": 0
}