{
    "state": "success",
    "sessionId": null,
    "class": "org.openqa.selenium.remote.Response",
    "value": {
        "element-6066-11e4-a52e-4f735466cecf": "e432dc3a-2f60-4071-819f-46c99686007a"
    },
    "status": 0
}