{
    "state": "success",
    "sessionId": null,
    "class": "org.openqa.selenium.remote.Response",
    "value": {
        "element-6066-11e4-a52e-4f735466cecf": "7229a3ab-4047-4425-bf62-6370ec8a30c0"
    },
    "status": 0
}