{
    "state": "success",
    "sessionId": null,
    "class": "org.openqa.selenium.remote.Response",
    "value": {
        "element-6066-11e4-a52e-4f735466cecf": "8e873c5b-c625-4808-aa7f-656f0ea88839"
    },
    "status": 0
}