{
    "state": "success",
    "sessionId": null,
    "class": "org.openqa.selenium.remote.Response",
    "value": [
        {
            "element-6066-11e4-a52e-4f735466cecf": "2ce5ec09-184c-40dd-9ea7-29659ef6840e"
        }
    ],
    "status": 0
}