{
    "state": "success",
    "sessionId": null,
    "class": "org.openqa.selenium.remote.Response",
    "value": {
        "element-6066-11e4-a52e-4f735466cecf": "1e2a937f-909f-4e51-8881-e967ab804181"
    },
    "status": 0
}