{
    "state": "success",
    "sessionId": null,
    "class": "org.openqa.selenium.remote.Response",
    "value": [
        {
            "element-6066-11e4-a52e-4f735466cecf": "9d1d94df-0797-4e31-8490-4f3fa6462812"
        }
    ],
    "status": 0
}