{
    "state": "success",
    "sessionId": null,
    "class": "org.openqa.selenium.remote.Response",
    "value": {
        "element-6066-11e4-a52e-4f735466cecf": "9f178f04-454a-446a-844e-447f2d51f9b2"
    },
    "status": 0
}