{
    "state": "success",
    "sessionId": null,
    "class": "org.openqa.selenium.remote.Response",
    "value": {
        "element-6066-11e4-a52e-4f735466cecf": "8ec54219-65dd-4c28-8174-fbbc353c3006"
    },
    "status": 0
}