{
    "state": "success",
    "sessionId": null,
    "class": "org.openqa.selenium.remote.Response",
    "value": {
        "element-6066-11e4-a52e-4f735466cecf": "b7686ec3-8a16-45fe-898e-a085b174f379"
    },
    "status": 0
}