{
    "state": "success",
    "sessionId": null,
    "class": "org.openqa.selenium.remote.Response",
    "value": {
        "element-6066-11e4-a52e-4f735466cecf": "051157f5-eb30-4066-b261-16a70e9a13f1"
    },
    "status": 0
}