{
    "state": "success",
    "sessionId": null,
    "class": "org.openqa.selenium.remote.Response",
    "value": {
        "element-6066-11e4-a52e-4f735466cecf": "586396ef-4ac8-4cf0-b971-5236c7af5b91"
    },
    "status": 0
}