{
    "state": "success",
    "sessionId": null,
    "class": "org.openqa.selenium.remote.Response",
    "value": {
        "element-6066-11e4-a52e-4f735466cecf": "e1756bf1-575f-4299-b715-7b6f52d51c41"
    },
    "status": 0
}