{
    "state": "success",
    "sessionId": null,
    "class": "org.openqa.selenium.remote.Response",
    "value": {
        "element-6066-11e4-a52e-4f735466cecf": "26014d3b-8a2d-4070-9d0b-8ad1b452e7bc"
    },
    "status": 0
}