{
    "state": "success",
    "sessionId": null,
    "class": "org.openqa.selenium.remote.Response",
    "value": [
        {
            "element-6066-11e4-a52e-4f735466cecf": "351b24c4-d2a0-4357-82f8-066bb0d8cdae"
        }
    ],
    "status": 0
}