{
    "state": "success",
    "sessionId": null,
    "class": "org.openqa.selenium.remote.Response",
    "value": [
        {
            "element-6066-11e4-a52e-4f735466cecf": "7d47060e-6ef4-41ee-946e-cacd13aa3ee7"
        }
    ],
    "status": 0
}