{
    "state": "success",
    "sessionId": null,
    "class": "org.openqa.selenium.remote.Response",
    "value": {
        "element-6066-11e4-a52e-4f735466cecf": "b6c82a03-1e32-46f8-a089-a1154aada6ef"
    },
    "status": 0
}