{
    "state": "success",
    "sessionId": null,
    "class": "org.openqa.selenium.remote.Response",
    "value": {
        "element-6066-11e4-a52e-4f735466cecf": "60a326f6-a257-48cc-b2c9-8417720b9c55"
    },
    "status": 0
}