{
    "state": "success",
    "sessionId": null,
    "class": "org.openqa.selenium.remote.Response",
    "value": [
        {
            "element-6066-11e4-a52e-4f735466cecf": "f6a8355e-29b8-4514-8fd5-e1cbc42933d0"
        }
    ],
    "status": 0
}