{
    "state": "success",
    "sessionId": null,
    "class": "org.openqa.selenium.remote.Response",
    "value": [
        {
            "element-6066-11e4-a52e-4f735466cecf": "26b73cda-dd83-41fe-b6bc-5052493dc08c"
        }
    ],
    "status": 0
}