{
    "state": "success",
    "sessionId": null,
    "class": "org.openqa.selenium.remote.Response",
    "value": [
        {
            "element-6066-11e4-a52e-4f735466cecf": "d855dfe9-ecef-492a-a322-262ae751c05e"
        }
    ],
    "status": 0
}