{
    "state": "success",
    "sessionId": null,
    "class": "org.openqa.selenium.remote.Response",
    "value": {
        "element-6066-11e4-a52e-4f735466cecf": "0b33f7e0-0ec5-4ce1-a17b-0145f47fcf7d"
    },
    "status": 0
}