{
    "state": "success",
    "sessionId": null,
    "class": "org.openqa.selenium.remote.Response",
    "value": {
        "element-6066-11e4-a52e-4f735466cecf": "d9acef24-a4e9-4394-b58f-7daa4e81eeb0"
    },
    "status": 0
}