{
    "state": "success",
    "sessionId": null,
    "class": "org.openqa.selenium.remote.Response",
    "value": [
        {
            "element-6066-11e4-a52e-4f735466cecf": "2c97f6fe-9795-47e9-8e60-83c6fa78f3cf"
        }
    ],
    "status": 0
}