{
    "state": "success",
    "sessionId": null,
    "class": "org.openqa.selenium.remote.Response",
    "value": {
        "element-6066-11e4-a52e-4f735466cecf": "8f4f3565-c076-4112-a565-430a4dabc793"
    },
    "status": 0
}