{
    "state": "success",
    "sessionId": null,
    "class": "org.openqa.selenium.remote.Response",
    "value": {
        "element-6066-11e4-a52e-4f735466cecf": "ec754bc5-37ab-4313-b609-a6636d466273"
    },
    "status": 0
}