{
    "state": "success",
    "sessionId": null,
    "class": "org.openqa.selenium.remote.Response",
    "value": [
        {
            "element-6066-11e4-a52e-4f735466cecf": "db95fee1-853a-489b-b955-13e21255804d"
        }
    ],
    "status": 0
}