{
    "state": "success",
    "sessionId": null,
    "class": "org.openqa.selenium.remote.Response",
    "value": [
        {
            "element-6066-11e4-a52e-4f735466cecf": "58c61f47-3b69-47c8-a691-cebb5c957ba7"
        }
    ],
    "status": 0
}