{
    "state": "success",
    "sessionId": null,
    "class": "org.openqa.selenium.remote.Response",
    "value": [
        {
            "element-6066-11e4-a52e-4f735466cecf": "7abc427f-d3d8-41ff-aad4-5663566cbc09"
        }
    ],
    "status": 0
}