{
    "state": "success",
    "sessionId": null,
    "class": "org.openqa.selenium.remote.Response",
    "value": [
        {
            "element-6066-11e4-a52e-4f735466cecf": "2e0d9250-46ee-4ff1-b0ca-5f06c1cba3fb"
        }
    ],
    "status": 0
}