{
    "state": "success",
    "sessionId": null,
    "class": "org.openqa.selenium.remote.Response",
    "value": {
        "element-6066-11e4-a52e-4f735466cecf": "f9afb640-2169-4669-ac91-69df71ad466b"
    },
    "status": 0
}