{
    "state": "success",
    "sessionId": null,
    "class": "org.openqa.selenium.remote.Response",
    "value": [
        {
            "element-6066-11e4-a52e-4f735466cecf": "42f098dc-09e9-405d-9b5a-8316ce07de07"
        }
    ],
    "status": 0
}