{
    "state": "success",
    "sessionId": null,
    "class": "org.openqa.selenium.remote.Response",
    "value": [
        {
            "element-6066-11e4-a52e-4f735466cecf": "4ad01a51-9bf5-4fd7-bb5c-9e5706d5a42a"
        }
    ],
    "status": 0
}