{
    "state": "success",
    "sessionId": null,
    "class": "org.openqa.selenium.remote.Response",
    "value": [
        {
            "element-6066-11e4-a52e-4f735466cecf": "3b1ccc3d-2760-40e3-a714-b059bb2741e2"
        }
    ],
    "status": 0
}