{
    "state": "success",
    "sessionId": null,
    "class": "org.openqa.selenium.remote.Response",
    "value": [
        {
            "element-6066-11e4-a52e-4f735466cecf": "f005a7e6-cbed-4d12-b7cf-754fd4fca83d"
        }
    ],
    "status": 0
}