{
    "state": "success",
    "sessionId": null,
    "class": "org.openqa.selenium.remote.Response",
    "value": {
        "element-6066-11e4-a52e-4f735466cecf": "01c7b828-22cf-4bdc-b3bb-16c57fda6b22"
    },
    "status": 0
}