{
    "state": "success",
    "sessionId": null,
    "class": "org.openqa.selenium.remote.Response",
    "value": [
        {
            "element-6066-11e4-a52e-4f735466cecf": "fec39b98-ef59-4c2b-b74c-742a1c82b112"
        }
    ],
    "status": 0
}