{
    "message": "stale element reference: element is not attached to the page document",
    "type": "RuntimeError",
    "seleniumStack": {
        "type": "StaleElementReference",
        "message": "An element command failed because the referenced element is no longer attached to the DOM.",
        "orgStatusMessage": "stale element reference: element is not attached to the page document\n  (Session info: chrome=103.0.5060.134)\nFor documentation on this error, please visit: https://www.seleniumhq.org/exceptions/stale_element_reference.html\nBuild info: version: '3.141.59', revision: 'e82be7d358', time: '2018-11-14T08:25:53'\nSystem info: host: 'Amoghas-MacBook-Air.local', ip: 'fe80:0:0:0:10c3:33ab:dfd1:ef8e%en0', os.name: 'Mac OS X', os.arch: 'x86_64', os.version: '10.15.7', java.version: '16.0.1'\nDriver info: driver.version: unknown"
    }
}