{
    "state": "success",
    "sessionId": null,
    "class": "org.openqa.selenium.remote.Response",
    "value": {
        "element-6066-11e4-a52e-4f735466cecf": "915d62f0-6ba3-4f29-8f90-bf0a7481c756"
    },
    "status": 0
}