{
    "state": "success",
    "sessionId": null,
    "class": "org.openqa.selenium.remote.Response",
    "value": [
        {
            "element-6066-11e4-a52e-4f735466cecf": "97781cde-3bfd-4037-8e80-1fb344702a71"
        }
    ],
    "status": 0
}