{
    "value": [
        "Q",
        "A",
        " ",
        "R",
        "u",
        "l",
        "e",
        " ",
        "T",
        "e",
        "s",
        "t",
        " ",
        "w",
        "i",
        "t",
        "h",
        " ",
        "T",
        "M",
        "D",
        "-",
        "a",
        "u",
        "t",
        "o",
        "m",
        "a",
        "t",
        "i",
        "o",
        "n"
    ],
    "text": "QA Rule Test with TMD-automation"
}