{
    "state": "success",
    "sessionId": null,
    "class": "org.openqa.selenium.remote.Response",
    "value": {
        "element-6066-11e4-a52e-4f735466cecf": "5a00f15b-a392-4558-b2c1-e01c6de7f32d"
    },
    "status": 0
}