{
    "state": "success",
    "sessionId": null,
    "class": "org.openqa.selenium.remote.Response",
    "value": {
        "element-6066-11e4-a52e-4f735466cecf": "f1404e7d-e212-4835-80f3-3da6e3a75907"
    },
    "status": 0
}