{
    "state": "success",
    "sessionId": null,
    "class": "org.openqa.selenium.remote.Response",
    "value": {
        "element-6066-11e4-a52e-4f735466cecf": "a3db5aef-120d-4504-8024-75c253635a6a"
    },
    "status": 0
}