{
    "state": "success",
    "sessionId": null,
    "class": "org.openqa.selenium.remote.Response",
    "value": [
        {
            "element-6066-11e4-a52e-4f735466cecf": "690bbfd9-6a4c-485c-a884-ad83e31339f1"
        }
    ],
    "status": 0
}