{
    "state": "success",
    "sessionId": null,
    "class": "org.openqa.selenium.remote.Response",
    "value": {
        "element-6066-11e4-a52e-4f735466cecf": "b1ee7885-bc32-4c7c-9d5c-2f728d35a584"
    },
    "status": 0
}