{
    "state": "success",
    "sessionId": null,
    "class": "org.openqa.selenium.remote.Response",
    "value": [
        {
            "element-6066-11e4-a52e-4f735466cecf": "3fc8dacb-7c67-444d-afc6-ec62ce2b374e"
        }
    ],
    "status": 0
}