{
    "state": "success",
    "sessionId": null,
    "class": "org.openqa.selenium.remote.Response",
    "value": {
        "element-6066-11e4-a52e-4f735466cecf": "705d233a-3db3-48f9-8ff8-928c186191bb"
    },
    "status": 0
}