{
    "state": "success",
    "sessionId": null,
    "class": "org.openqa.selenium.remote.Response",
    "value": {
        "element-6066-11e4-a52e-4f735466cecf": "20349c4c-da71-4e75-9870-b87bb12565b0"
    },
    "status": 0
}