{
    "state": "success",
    "sessionId": null,
    "class": "org.openqa.selenium.remote.Response",
    "value": [
        {
            "element-6066-11e4-a52e-4f735466cecf": "ca3a7c61-b239-44a6-9a0b-c0b4ba053b8f"
        }
    ],
    "status": 0
}