{
    "state": "success",
    "sessionId": null,
    "class": "org.openqa.selenium.remote.Response",
    "value": {
        "element-6066-11e4-a52e-4f735466cecf": "66bf360b-58d7-4f2d-816a-63b9cc13b8bd"
    },
    "status": 0
}