{
    "state": "success",
    "sessionId": null,
    "class": "org.openqa.selenium.remote.Response",
    "value": {
        "element-6066-11e4-a52e-4f735466cecf": "b9c889fb-5f28-464a-8dda-27051c61e982"
    },
    "status": 0
}