{
    "state": "success",
    "sessionId": null,
    "class": "org.openqa.selenium.remote.Response",
    "value": [
        "CDwindow-2F8E9A125D27B5D4B796A6393027ADAC",
        "CDwindow-B26A7B66460423B97EC4644D646CE246"
    ],
    "status": 0
}