{
    "state": "success",
    "sessionId": null,
    "class": "org.openqa.selenium.remote.Response",
    "value": {
        "element-6066-11e4-a52e-4f735466cecf": "b8781493-2b50-4819-b4c0-8c722a8990e4"
    },
    "status": 0
}