{
    "state": "success",
    "sessionId": null,
    "class": "org.openqa.selenium.remote.Response",
    "value": {
        "element-6066-11e4-a52e-4f735466cecf": "0724b083-4842-4ae6-b171-df8bf887c812"
    },
    "status": 0
}