{
    "state": "success",
    "sessionId": null,
    "class": "org.openqa.selenium.remote.Response",
    "value": [
        {
            "element-6066-11e4-a52e-4f735466cecf": "34479113-86d5-44d3-8010-1768c5e71e8b"
        }
    ],
    "status": 0
}