{
    "state": "success",
    "sessionId": null,
    "class": "org.openqa.selenium.remote.Response",
    "value": [
        {
            "element-6066-11e4-a52e-4f735466cecf": "0eb370d6-4621-485d-bc27-07b8d28e8457"
        }
    ],
    "status": 0
}