{
    "state": "success",
    "sessionId": null,
    "class": "org.openqa.selenium.remote.Response",
    "value": {
        "element-6066-11e4-a52e-4f735466cecf": "cc3cdb8a-2866-4146-9696-c701a7798a2c"
    },
    "status": 0
}