{
    "state": "success",
    "sessionId": null,
    "class": "org.openqa.selenium.remote.Response",
    "value": [
        {
            "element-6066-11e4-a52e-4f735466cecf": "b2e4f790-8f1b-47df-a4e2-3043d2e58d03"
        }
    ],
    "status": 0
}