{
    "state": "success",
    "sessionId": null,
    "class": "org.openqa.selenium.remote.Response",
    "value": {
        "element-6066-11e4-a52e-4f735466cecf": "30341a84-abf1-4ce0-8c63-f34e5f0ab3d9"
    },
    "status": 0
}