{
    "state": "success",
    "sessionId": null,
    "class": "org.openqa.selenium.remote.Response",
    "value": [
        {
            "element-6066-11e4-a52e-4f735466cecf": "09560822-9e01-4d4a-b23b-c4bd175aa3bf"
        }
    ],
    "status": 0
}