{
    "state": "success",
    "sessionId": null,
    "class": "org.openqa.selenium.remote.Response",
    "value": {
        "element-6066-11e4-a52e-4f735466cecf": "fa2a1431-1187-41e2-a726-27d1796a3889"
    },
    "status": 0
}