{
    "state": "success",
    "sessionId": null,
    "class": "org.openqa.selenium.remote.Response",
    "value": {
        "element-6066-11e4-a52e-4f735466cecf": "78a19e49-279f-4657-a757-47e92aad4826"
    },
    "status": 0
}