{
    "state": "success",
    "sessionId": null,
    "class": "org.openqa.selenium.remote.Response",
    "value": [
        {
            "element-6066-11e4-a52e-4f735466cecf": "80b34405-0aad-4250-91f0-ad05d9c009d8"
        }
    ],
    "status": 0
}