{
    "state": "success",
    "sessionId": null,
    "class": "org.openqa.selenium.remote.Response",
    "value": {
        "element-6066-11e4-a52e-4f735466cecf": "38c9b60d-a1e5-4fa7-b9f2-6d132dca218a"
    },
    "status": 0
}