{
    "state": "success",
    "sessionId": null,
    "class": "org.openqa.selenium.remote.Response",
    "value": {
        "element-6066-11e4-a52e-4f735466cecf": "566fe7ab-ed67-4acd-bbde-c7e97f5f48ab"
    },
    "status": 0
}