{
    "state": "success",
    "sessionId": null,
    "class": "org.openqa.selenium.remote.Response",
    "value": {
        "element-6066-11e4-a52e-4f735466cecf": "76965be0-3263-41dd-ae8f-344e17ee8946"
    },
    "status": 0
}