{
    "state": "success",
    "sessionId": null,
    "class": "org.openqa.selenium.remote.Response",
    "value": {
        "element-6066-11e4-a52e-4f735466cecf": "b3b5e677-04cc-4caa-a856-41be65ef5641"
    },
    "status": 0
}