{
    "state": "success",
    "sessionId": null,
    "class": "org.openqa.selenium.remote.Response",
    "value": {
        "element-6066-11e4-a52e-4f735466cecf": "40e8ec99-cc0f-44fb-ad12-7defae1a9cc6"
    },
    "status": 0
}