{
    "state": "success",
    "sessionId": null,
    "class": "org.openqa.selenium.remote.Response",
    "value": {
        "element-6066-11e4-a52e-4f735466cecf": "cf1c7b79-e1ee-42dd-acaf-5ec63cd8e6ff"
    },
    "status": 0
}