{
    "state": "success",
    "sessionId": null,
    "class": "org.openqa.selenium.remote.Response",
    "value": {
        "element-6066-11e4-a52e-4f735466cecf": "6ed9348e-8d01-416a-af57-799d68b37a5a"
    },
    "status": 0
}