{
    "state": "success",
    "sessionId": null,
    "class": "org.openqa.selenium.remote.Response",
    "value": {
        "element-6066-11e4-a52e-4f735466cecf": "4f371fe8-616b-445b-a131-82aaa3768c07"
    },
    "status": 0
}