{
    "state": "success",
    "sessionId": null,
    "class": "org.openqa.selenium.remote.Response",
    "value": {
        "element-6066-11e4-a52e-4f735466cecf": "62836aac-6df5-457f-aa8b-d19ffc09a849"
    },
    "status": 0
}