{
    "state": "success",
    "sessionId": null,
    "class": "org.openqa.selenium.remote.Response",
    "value": [
        {
            "element-6066-11e4-a52e-4f735466cecf": "7055b667-bf83-4387-b1ac-d92c0fb6d673"
        }
    ],
    "status": 0
}