{
    "state": "success",
    "sessionId": null,
    "class": "org.openqa.selenium.remote.Response",
    "value": {
        "element-6066-11e4-a52e-4f735466cecf": "4b712d29-5e53-4daf-8d02-3d1bf9704f31"
    },
    "status": 0
}