{
    "state": "success",
    "sessionId": null,
    "class": "org.openqa.selenium.remote.Response",
    "value": {
        "element-6066-11e4-a52e-4f735466cecf": "7f00ec48-e1b8-428e-8fe2-7bfa7ab83bb7"
    },
    "status": 0
}