{
    "state": "success",
    "sessionId": null,
    "class": "org.openqa.selenium.remote.Response",
    "value": {
        "element-6066-11e4-a52e-4f735466cecf": "0fb0f3ca-fc77-4b66-8000-15598fa65adf"
    },
    "status": 0
}