{
    "state": "success",
    "sessionId": null,
    "class": "org.openqa.selenium.remote.Response",
    "value": {
        "element-6066-11e4-a52e-4f735466cecf": "06bc6206-8fbd-4107-9125-4ce801636a02"
    },
    "status": 0
}