{
    "state": "success",
    "sessionId": null,
    "class": "org.openqa.selenium.remote.Response",
    "value": [
        {
            "element-6066-11e4-a52e-4f735466cecf": "1dd2103b-3170-4369-90ea-7febcf220300"
        }
    ],
    "status": 0
}