{
    "state": "success",
    "sessionId": null,
    "class": "org.openqa.selenium.remote.Response",
    "value": [
        {
            "element-6066-11e4-a52e-4f735466cecf": "e9b052c7-ae3d-4a64-a978-96f70e8c0831"
        }
    ],
    "status": 0
}