{
    "state": "success",
    "sessionId": null,
    "class": "org.openqa.selenium.remote.Response",
    "value": [
        {
            "element-6066-11e4-a52e-4f735466cecf": "4ad22718-d6d3-42e3-af33-70ef8f4f5344"
        }
    ],
    "status": 0
}