{
    "state": "success",
    "sessionId": null,
    "class": "org.openqa.selenium.remote.Response",
    "value": {
        "element-6066-11e4-a52e-4f735466cecf": "21bbc30d-22a0-40fd-be0f-3665f300d2c3"
    },
    "status": 0
}