{
    "state": "success",
    "sessionId": null,
    "class": "org.openqa.selenium.remote.Response",
    "value": [
        {
            "element-6066-11e4-a52e-4f735466cecf": "d7f4d9a0-1530-4d84-a7bd-950e4bd21ae8"
        }
    ],
    "status": 0
}