{
    "state": "success",
    "sessionId": null,
    "class": "org.openqa.selenium.remote.Response",
    "value": [
        {
            "element-6066-11e4-a52e-4f735466cecf": "9e885f4d-ff0d-454e-b970-f746fc56585f"
        }
    ],
    "status": 0
}