{
    "state": "success",
    "sessionId": null,
    "class": "org.openqa.selenium.remote.Response",
    "value": [
        {
            "element-6066-11e4-a52e-4f735466cecf": "8f9c2101-3ac7-462b-9537-e794d86f1591"
        }
    ],
    "status": 0
}