{
    "state": "success",
    "sessionId": null,
    "class": "org.openqa.selenium.remote.Response",
    "value": [
        {
            "element-6066-11e4-a52e-4f735466cecf": "3f301e57-e2a9-4a20-8a61-b670de222039"
        }
    ],
    "status": 0
}