{
    "state": "success",
    "sessionId": null,
    "class": "org.openqa.selenium.remote.Response",
    "value": [
        {
            "element-6066-11e4-a52e-4f735466cecf": "326af887-f600-48be-a81b-09f5c9457bdd"
        }
    ],
    "status": 0
}