{
    "state": "success",
    "sessionId": null,
    "class": "org.openqa.selenium.remote.Response",
    "value": [
        {
            "element-6066-11e4-a52e-4f735466cecf": "89d8f15b-c6fb-4c1e-8b58-2373fa17ad60"
        }
    ],
    "status": 0
}