{
    "state": "success",
    "sessionId": null,
    "class": "org.openqa.selenium.remote.Response",
    "value": [
        {
            "element-6066-11e4-a52e-4f735466cecf": "10879a48-5e18-4c2f-a628-1d81338eab6a"
        }
    ],
    "status": 0
}