{
    "state": "success",
    "sessionId": null,
    "class": "org.openqa.selenium.remote.Response",
    "value": [
        {
            "element-6066-11e4-a52e-4f735466cecf": "1026e5cc-5c79-4ad4-80ad-a4250361a881"
        }
    ],
    "status": 0
}