{
    "state": "success",
    "sessionId": null,
    "class": "org.openqa.selenium.remote.Response",
    "value": {
        "element-6066-11e4-a52e-4f735466cecf": "29aad0b2-43a4-40dd-abab-7d82255c5eae"
    },
    "status": 0
}