{
    "state": "success",
    "sessionId": null,
    "class": "org.openqa.selenium.remote.Response",
    "value": [
        {
            "element-6066-11e4-a52e-4f735466cecf": "5d4ca0ca-f3c7-43c3-9e66-d3bc30e13642"
        }
    ],
    "status": 0
}