{
    "state": "success",
    "sessionId": null,
    "class": "org.openqa.selenium.remote.Response",
    "value": {
        "element-6066-11e4-a52e-4f735466cecf": "039ae033-a8e7-48ea-a250-59df84c42f9b"
    },
    "status": 0
}