{
    "state": "success",
    "sessionId": null,
    "class": "org.openqa.selenium.remote.Response",
    "value": {
        "element-6066-11e4-a52e-4f735466cecf": "8803bc58-4547-45a9-bd72-3a61c744e2b6"
    },
    "status": 0
}