{
    "state": "success",
    "sessionId": null,
    "class": "org.openqa.selenium.remote.Response",
    "value": [
        {
            "element-6066-11e4-a52e-4f735466cecf": "4a6477aa-65f9-4e7b-b869-36dc626373f0"
        }
    ],
    "status": 0
}