{
    "state": "success",
    "sessionId": null,
    "class": "org.openqa.selenium.remote.Response",
    "value": [
        {
            "element-6066-11e4-a52e-4f735466cecf": "f30c2fc1-cfef-40f9-a2e8-dd9c7991c0fc"
        }
    ],
    "status": 0
}