{
    "state": "success",
    "sessionId": null,
    "class": "org.openqa.selenium.remote.Response",
    "value": [
        {
            "element-6066-11e4-a52e-4f735466cecf": "c8cea65e-10f9-4e51-9534-d3202cc056c5"
        }
    ],
    "status": 0
}