{
    "state": "success",
    "sessionId": null,
    "class": "org.openqa.selenium.remote.Response",
    "value": {
        "element-6066-11e4-a52e-4f735466cecf": "0053372d-c229-4dfc-9b72-10e90e5b20e9"
    },
    "status": 0
}