{
    "state": "success",
    "sessionId": null,
    "class": "org.openqa.selenium.remote.Response",
    "value": {
        "element-6066-11e4-a52e-4f735466cecf": "df0524a2-a7d1-4490-a4d9-f264b3ca1efc"
    },
    "status": 0
}