{
    "state": "success",
    "sessionId": null,
    "class": "org.openqa.selenium.remote.Response",
    "value": {
        "element-6066-11e4-a52e-4f735466cecf": "040e9591-4477-458d-850f-7aaadfbd7725"
    },
    "status": 0
}