{
    "state": "success",
    "sessionId": null,
    "class": "org.openqa.selenium.remote.Response",
    "value": {
        "element-6066-11e4-a52e-4f735466cecf": "af1efc2d-b564-450e-bf22-4f9814d4f7f1"
    },
    "status": 0
}