{
    "state": "success",
    "sessionId": null,
    "class": "org.openqa.selenium.remote.Response",
    "value": [
        {
            "element-6066-11e4-a52e-4f735466cecf": "17636bf5-9a92-4eb5-8c35-a76a5f59a949"
        }
    ],
    "status": 0
}