{
    "state": "success",
    "sessionId": null,
    "class": "org.openqa.selenium.remote.Response",
    "value": [
        {
            "element-6066-11e4-a52e-4f735466cecf": "c3214719-44fc-4a79-bd97-6b6b962dd5b8"
        }
    ],
    "status": 0
}