{
    "state": "success",
    "sessionId": null,
    "class": "org.openqa.selenium.remote.Response",
    "value": {
        "element-6066-11e4-a52e-4f735466cecf": "0af923dc-d0dd-48db-92fe-fb08efda1f31"
    },
    "status": 0
}