{
    "state": "success",
    "sessionId": null,
    "class": "org.openqa.selenium.remote.Response",
    "value": [
        {
            "element-6066-11e4-a52e-4f735466cecf": "e0215572-108c-404d-a3da-53de384357ba"
        }
    ],
    "status": 0
}