{
    "state": "success",
    "sessionId": null,
    "class": "org.openqa.selenium.remote.Response",
    "value": {
        "element-6066-11e4-a52e-4f735466cecf": "f2b3aeec-f26d-426c-9f15-b4c1a4977086"
    },
    "status": 0
}