{
    "state": "success",
    "sessionId": null,
    "class": "org.openqa.selenium.remote.Response",
    "value": [
        {
            "element-6066-11e4-a52e-4f735466cecf": "f1e63f37-7a45-460b-bb9f-a45cb4b57f84"
        }
    ],
    "status": 0
}