{
    "state": "success",
    "sessionId": null,
    "class": "org.openqa.selenium.remote.Response",
    "value": {
        "element-6066-11e4-a52e-4f735466cecf": "e48c3d2d-f0f5-493d-b4a8-2711f89ab77a"
    },
    "status": 0
}