{
    "state": "success",
    "sessionId": null,
    "class": "org.openqa.selenium.remote.Response",
    "value": [
        {
            "element-6066-11e4-a52e-4f735466cecf": "8bd4fd70-d3a7-4a45-b267-d4e37aeac45a"
        }
    ],
    "status": 0
}