{
    "state": "success",
    "sessionId": null,
    "class": "org.openqa.selenium.remote.Response",
    "value": [
        {
            "element-6066-11e4-a52e-4f735466cecf": "a61c9869-14b5-4d57-886d-c04806673ccf"
        }
    ],
    "status": 0
}