{
    "state": "success",
    "sessionId": null,
    "class": "org.openqa.selenium.remote.Response",
    "value": [
        {
            "element-6066-11e4-a52e-4f735466cecf": "77d874e0-605e-4c11-aa5c-aed68ec707b6"
        }
    ],
    "status": 0
}