{
    "state": "success",
    "sessionId": null,
    "class": "org.openqa.selenium.remote.Response",
    "value": {
        "element-6066-11e4-a52e-4f735466cecf": "4a2ce26b-8be7-4ab7-98a6-6a91bbff5a86"
    },
    "status": 0
}