{
    "state": "success",
    "sessionId": null,
    "class": "org.openqa.selenium.remote.Response",
    "value": {
        "element-6066-11e4-a52e-4f735466cecf": "9dc471ed-2146-4385-b92b-c7775ce9c66d"
    },
    "status": 0
}