{
    "state": "success",
    "sessionId": null,
    "class": "org.openqa.selenium.remote.Response",
    "value": {
        "element-6066-11e4-a52e-4f735466cecf": "69a1c906-b182-4062-8c1f-53abb3168d5c"
    },
    "status": 0
}