{
    "state": "success",
    "sessionId": null,
    "class": "org.openqa.selenium.remote.Response",
    "value": {
        "element-6066-11e4-a52e-4f735466cecf": "8307cfba-e7f6-4dc5-8e4a-7d861e94578a"
    },
    "status": 0
}