{
    "state": "success",
    "sessionId": null,
    "class": "org.openqa.selenium.remote.Response",
    "value": [
        "CDwindow-0B1CE580AD4C687B71897C5A07B3A28C",
        "CDwindow-2BB2CE256C8FE2840885107CF685BFDE",
        "CDwindow-5841B20B198DDCA6654B8BBEAEA1727D",
        "CDwindow-F7FCCA72F0940A3BBF3E0CE06E72D4BD"
    ],
    "status": 0
}