{
    "state": "success",
    "sessionId": null,
    "class": "org.openqa.selenium.remote.Response",
    "value": [
        {
            "element-6066-11e4-a52e-4f735466cecf": "414b754c-95df-45b3-b15e-01ea6a4b03c7"
        }
    ],
    "status": 0
}