{
    "state": "success",
    "sessionId": null,
    "class": "org.openqa.selenium.remote.Response",
    "value": {
        "element-6066-11e4-a52e-4f735466cecf": "0f2be319-063d-45da-963e-d03db77e12f4"
    },
    "status": 0
}