{
    "state": "success",
    "sessionId": null,
    "class": "org.openqa.selenium.remote.Response",
    "value": {
        "element-6066-11e4-a52e-4f735466cecf": "0ede9584-a5d2-4f56-81e5-bcc758c8e6af"
    },
    "status": 0
}