{
    "state": "success",
    "sessionId": null,
    "class": "org.openqa.selenium.remote.Response",
    "value": {
        "element-6066-11e4-a52e-4f735466cecf": "fd15291c-4358-41ce-acfa-5d5f2759f6a2"
    },
    "status": 0
}