{
    "state": "success",
    "sessionId": null,
    "class": "org.openqa.selenium.remote.Response",
    "value": [
        {
            "element-6066-11e4-a52e-4f735466cecf": "8d32bd05-ea47-41e0-a520-ea281246df3e"
        }
    ],
    "status": 0
}