{
    "state": "success",
    "sessionId": null,
    "class": "org.openqa.selenium.remote.Response",
    "value": {
        "element-6066-11e4-a52e-4f735466cecf": "65551f85-ae67-4b23-81f0-32b8cb5ffaf4"
    },
    "status": 0
}