{
    "state": "success",
    "sessionId": null,
    "class": "org.openqa.selenium.remote.Response",
    "value": {
        "element-6066-11e4-a52e-4f735466cecf": "8bc25354-8da6-445f-a653-48774091556f"
    },
    "status": 0
}