{
    "state": "success",
    "sessionId": null,
    "class": "org.openqa.selenium.remote.Response",
    "value": {
        "element-6066-11e4-a52e-4f735466cecf": "4c86cd73-dc62-4ca2-a9b0-e52d6fa99129"
    },
    "status": 0
}