{
    "state": "success",
    "sessionId": null,
    "class": "org.openqa.selenium.remote.Response",
    "value": {
        "element-6066-11e4-a52e-4f735466cecf": "66408ee4-46f2-49ee-9037-fa74ce74a58a"
    },
    "status": 0
}