{
    "state": "success",
    "sessionId": null,
    "class": "org.openqa.selenium.remote.Response",
    "value": {
        "element-6066-11e4-a52e-4f735466cecf": "e531781e-0971-4601-99a4-5579899d1e40"
    },
    "status": 0
}