{
    "state": "success",
    "sessionId": null,
    "class": "org.openqa.selenium.remote.Response",
    "value": {
        "element-6066-11e4-a52e-4f735466cecf": "e9d23244-0229-4aa9-907f-674960500bb0"
    },
    "status": 0
}