{
    "state": "success",
    "sessionId": null,
    "class": "org.openqa.selenium.remote.Response",
    "value": [
        {
            "element-6066-11e4-a52e-4f735466cecf": "a9e3410c-1c22-4ab5-883e-f64306c70bc6"
        }
    ],
    "status": 0
}