{
    "state": "success",
    "sessionId": null,
    "class": "org.openqa.selenium.remote.Response",
    "value": {
        "element-6066-11e4-a52e-4f735466cecf": "54eb61f3-c5d9-4e19-acb7-5ba9c866aafd"
    },
    "status": 0
}