{
    "state": "success",
    "sessionId": null,
    "class": "org.openqa.selenium.remote.Response",
    "value": [
        {
            "element-6066-11e4-a52e-4f735466cecf": "e9ac3fd4-3de3-4397-aabf-6cfc46e22ad8"
        }
    ],
    "status": 0
}