{
    "state": "success",
    "sessionId": null,
    "class": "org.openqa.selenium.remote.Response",
    "value": [
        {
            "element-6066-11e4-a52e-4f735466cecf": "8233b399-9812-4549-b7aa-122ae5949123"
        }
    ],
    "status": 0
}