{
    "state": "success",
    "sessionId": null,
    "class": "org.openqa.selenium.remote.Response",
    "value": [
        {
            "element-6066-11e4-a52e-4f735466cecf": "3067ad4e-340d-45b3-b330-0cfc09ccdd74"
        }
    ],
    "status": 0
}