{
    "state": "success",
    "sessionId": null,
    "class": "org.openqa.selenium.remote.Response",
    "value": {
        "element-6066-11e4-a52e-4f735466cecf": "be74f7b9-5140-47e6-b6fd-c34b88d0ac53"
    },
    "status": 0
}