{
    "state": "success",
    "sessionId": null,
    "class": "org.openqa.selenium.remote.Response",
    "value": [
        {
            "element-6066-11e4-a52e-4f735466cecf": "26c88e3c-a366-4e32-a7a7-7f7a9e9f2149"
        }
    ],
    "status": 0
}