{
    "state": "success",
    "sessionId": null,
    "class": "org.openqa.selenium.remote.Response",
    "value": {
        "element-6066-11e4-a52e-4f735466cecf": "75f1ca94-71c1-4659-b2eb-034d67750d6e"
    },
    "status": 0
}