{
    "state": "success",
    "sessionId": null,
    "class": "org.openqa.selenium.remote.Response",
    "value": [
        {
            "element-6066-11e4-a52e-4f735466cecf": "88fb1788-3171-414b-a696-3e7fb4218ee7"
        }
    ],
    "status": 0
}