{
    "state": "success",
    "sessionId": null,
    "class": "org.openqa.selenium.remote.Response",
    "value": [
        {
            "element-6066-11e4-a52e-4f735466cecf": "0e075160-db49-4363-a5da-30f6c2881ed3"
        }
    ],
    "status": 0
}