{
    "state": "success",
    "sessionId": null,
    "class": "org.openqa.selenium.remote.Response",
    "value": [
        {
            "element-6066-11e4-a52e-4f735466cecf": "a78d5445-019d-44ec-8b36-6f2f1ecfa59d"
        }
    ],
    "status": 0
}