{
    "state": "success",
    "sessionId": null,
    "class": "org.openqa.selenium.remote.Response",
    "value": {
        "element-6066-11e4-a52e-4f735466cecf": "c6cf40b0-e09d-4ba7-9012-1889b201fa4f"
    },
    "status": 0
}