{
    "state": "success",
    "sessionId": null,
    "class": "org.openqa.selenium.remote.Response",
    "value": [
        {
            "element-6066-11e4-a52e-4f735466cecf": "90482ded-4e5b-477c-bd9f-740d62643865"
        }
    ],
    "status": 0
}