{
    "state": "success",
    "sessionId": null,
    "class": "org.openqa.selenium.remote.Response",
    "value": {
        "element-6066-11e4-a52e-4f735466cecf": "b02fab9e-2746-437d-a95f-c98aa5dc6af9"
    },
    "status": 0
}