{
    "state": "success",
    "sessionId": null,
    "class": "org.openqa.selenium.remote.Response",
    "value": [
        {
            "element-6066-11e4-a52e-4f735466cecf": "8ef569e3-d280-4624-b8ab-c28e15f0b43b"
        }
    ],
    "status": 0
}