{
    "state": "success",
    "sessionId": null,
    "class": "org.openqa.selenium.remote.Response",
    "value": {
        "element-6066-11e4-a52e-4f735466cecf": "f126c01a-637b-4b87-b5cd-71d949727429"
    },
    "status": 0
}