{
    "state": "success",
    "sessionId": null,
    "class": "org.openqa.selenium.remote.Response",
    "value": {
        "element-6066-11e4-a52e-4f735466cecf": "f5100137-c5b2-43e9-95be-24301b0adadf"
    },
    "status": 0
}