{
    "state": "success",
    "sessionId": null,
    "class": "org.openqa.selenium.remote.Response",
    "value": [
        {
            "element-6066-11e4-a52e-4f735466cecf": "75373f88-a211-405a-94ed-8bb4f1644455"
        }
    ],
    "status": 0
}