{
    "state": "success",
    "sessionId": null,
    "class": "org.openqa.selenium.remote.Response",
    "value": {
        "element-6066-11e4-a52e-4f735466cecf": "eb2d06e5-a67c-410b-b91a-dba9d75bb1f4"
    },
    "status": 0
}