{
    "state": "success",
    "sessionId": null,
    "class": "org.openqa.selenium.remote.Response",
    "value": {
        "element-6066-11e4-a52e-4f735466cecf": "fbf0979d-bfc9-4a63-81d8-86c85dc3e9f4"
    },
    "status": 0
}