{
    "state": "success",
    "sessionId": null,
    "class": "org.openqa.selenium.remote.Response",
    "value": {
        "element-6066-11e4-a52e-4f735466cecf": "7ef2de97-2287-4c63-b3c7-1346868ee8dd"
    },
    "status": 0
}