{
    "state": "success",
    "sessionId": null,
    "class": "org.openqa.selenium.remote.Response",
    "value": {
        "element-6066-11e4-a52e-4f735466cecf": "05e39e48-263a-4a89-8d12-357541d272b9"
    },
    "status": 0
}