{
    "state": "success",
    "sessionId": null,
    "class": "org.openqa.selenium.remote.Response",
    "value": [
        {
            "element-6066-11e4-a52e-4f735466cecf": "0aae9fd3-eab2-4c6c-baa0-6bc1fe544b06"
        }
    ],
    "status": 0
}