{
    "value": [
        "+",
        "9",
        "1",
        "6",
        "3",
        "6",
        "2",
        "0",
        "1",
        "7",
        "5",
        "9",
        "4"
    ],
    "text": "+916362017594"
}