{
    "state": "success",
    "sessionId": null,
    "class": "org.openqa.selenium.remote.Response",
    "value": [
        {
            "element-6066-11e4-a52e-4f735466cecf": "3a4c7073-29c6-42c2-9e73-253a61416ab4"
        }
    ],
    "status": 0
}