{
    "state": "success",
    "sessionId": null,
    "class": "org.openqa.selenium.remote.Response",
    "value": {
        "element-6066-11e4-a52e-4f735466cecf": "50692054-a6a4-4fd7-afa1-ffbe84297d84"
    },
    "status": 0
}