{
    "state": "success",
    "sessionId": null,
    "class": "org.openqa.selenium.remote.Response",
    "value": {
        "element-6066-11e4-a52e-4f735466cecf": "93166699-c8fb-412b-8321-3a5e207fb19d"
    },
    "status": 0
}