{
    "state": "success",
    "sessionId": null,
    "class": "org.openqa.selenium.remote.Response",
    "value": {
        "element-6066-11e4-a52e-4f735466cecf": "b11a560c-fbba-4cec-a18b-0dd1732dd8d3"
    },
    "status": 0
}