{
    "state": "success",
    "sessionId": null,
    "class": "org.openqa.selenium.remote.Response",
    "value": {
        "element-6066-11e4-a52e-4f735466cecf": "b26f7934-e578-46e7-b5a3-d3f833a5d78d"
    },
    "status": 0
}