{
    "state": "success",
    "sessionId": null,
    "class": "org.openqa.selenium.remote.Response",
    "value": {
        "element-6066-11e4-a52e-4f735466cecf": "1929f24e-937d-430e-9223-61e7aeaf3ac6"
    },
    "status": 0
}