{
    "state": "success",
    "sessionId": null,
    "class": "org.openqa.selenium.remote.Response",
    "value": {
        "element-6066-11e4-a52e-4f735466cecf": "6f1b3c37-717f-47bb-b573-d8b22cfebf2f"
    },
    "status": 0
}