{
    "state": "success",
    "sessionId": null,
    "class": "org.openqa.selenium.remote.Response",
    "value": [
        {
            "element-6066-11e4-a52e-4f735466cecf": "503ae1fa-b80f-4b46-9001-d37fc42de83b"
        }
    ],
    "status": 0
}