{
    "state": "success",
    "sessionId": null,
    "class": "org.openqa.selenium.remote.Response",
    "value": {
        "element-6066-11e4-a52e-4f735466cecf": "d88eed6e-7331-4e9e-b6a3-0e01e42d2de4"
    },
    "status": 0
}