{
    "state": "success",
    "sessionId": null,
    "class": "org.openqa.selenium.remote.Response",
    "value": {
        "element-6066-11e4-a52e-4f735466cecf": "93238cb1-8224-44ac-a6f5-ec36b20a86aa"
    },
    "status": 0
}