{
    "state": "success",
    "sessionId": null,
    "class": "org.openqa.selenium.remote.Response",
    "value": {
        "element-6066-11e4-a52e-4f735466cecf": "1e0744ce-36be-4f0d-86fe-00e140f8f83f"
    },
    "status": 0
}