{
    "state": "success",
    "sessionId": null,
    "class": "org.openqa.selenium.remote.Response",
    "value": [
        {
            "element-6066-11e4-a52e-4f735466cecf": "be5a3cff-f73a-44a0-9f1b-2a43a313f242"
        }
    ],
    "status": 0
}