{
    "state": "success",
    "sessionId": null,
    "class": "org.openqa.selenium.remote.Response",
    "value": [
        {
            "element-6066-11e4-a52e-4f735466cecf": "0da70cf0-2151-4e59-a127-806249f629b4"
        }
    ],
    "status": 0
}