{
    "state": "success",
    "sessionId": null,
    "class": "org.openqa.selenium.remote.Response",
    "value": {
        "element-6066-11e4-a52e-4f735466cecf": "59ebf059-036c-44fd-862e-1ac5eb5b2022"
    },
    "status": 0
}