{
    "state": "success",
    "sessionId": null,
    "class": "org.openqa.selenium.remote.Response",
    "value": [
        {
            "element-6066-11e4-a52e-4f735466cecf": "2cefe1e8-3c47-4844-ae1a-185830bca14f"
        }
    ],
    "status": 0
}