{
    "state": "success",
    "sessionId": null,
    "class": "org.openqa.selenium.remote.Response",
    "value": [
        {
            "element-6066-11e4-a52e-4f735466cecf": "6e8d71a0-4d29-4e80-963b-2e4a541798d1"
        }
    ],
    "status": 0
}