{
    "state": "success",
    "sessionId": null,
    "class": "org.openqa.selenium.remote.Response",
    "value": {
        "element-6066-11e4-a52e-4f735466cecf": "52edb063-21ff-4753-93dc-e128d2f42537"
    },
    "status": 0
}