{
    "state": "success",
    "sessionId": null,
    "class": "org.openqa.selenium.remote.Response",
    "value": [
        {
            "element-6066-11e4-a52e-4f735466cecf": "04bf19c1-40e8-45f1-b9c1-7a2802a93b9e"
        }
    ],
    "status": 0
}