{
    "state": "success",
    "sessionId": null,
    "class": "org.openqa.selenium.remote.Response",
    "value": [
        {
            "element-6066-11e4-a52e-4f735466cecf": "a4676dad-d3c0-415a-8d3f-b9508e9093ba"
        }
    ],
    "status": 0
}