{
    "state": "success",
    "sessionId": null,
    "class": "org.openqa.selenium.remote.Response",
    "value": [
        {
            "element-6066-11e4-a52e-4f735466cecf": "88f7ced1-a7dd-4cac-87b5-c63c09d1b8ce"
        }
    ],
    "status": 0
}