{
    "state": "success",
    "sessionId": null,
    "class": "org.openqa.selenium.remote.Response",
    "value": [
        {
            "element-6066-11e4-a52e-4f735466cecf": "f727b589-c1cb-4a1f-beb6-0af431841064"
        }
    ],
    "status": 0
}