{
    "state": "success",
    "sessionId": null,
    "class": "org.openqa.selenium.remote.Response",
    "value": [
        {
            "element-6066-11e4-a52e-4f735466cecf": "c0e2e307-049e-48f1-95c4-b10bc387e9f7"
        }
    ],
    "status": 0
}