{
    "state": "success",
    "sessionId": null,
    "class": "org.openqa.selenium.remote.Response",
    "value": [
        {
            "element-6066-11e4-a52e-4f735466cecf": "334d3614-ea85-413b-ba0a-2ce988878be7"
        }
    ],
    "status": 0
}