{
    "state": "success",
    "sessionId": null,
    "class": "org.openqa.selenium.remote.Response",
    "value": {
        "element-6066-11e4-a52e-4f735466cecf": "2ee685c5-b95a-4280-b2cd-e26446831245"
    },
    "status": 0
}