{
    "state": "success",
    "sessionId": null,
    "class": "org.openqa.selenium.remote.Response",
    "value": {
        "element-6066-11e4-a52e-4f735466cecf": "0f1a9d50-4ccd-43f5-b2a8-04f6fc962740"
    },
    "status": 0
}