{
    "state": "success",
    "sessionId": null,
    "class": "org.openqa.selenium.remote.Response",
    "value": {
        "element-6066-11e4-a52e-4f735466cecf": "2bb76972-0641-41e0-b24a-b104c73246c7"
    },
    "status": 0
}