{
    "value": [
        "R",
        "e",
        "c",
        "i",
        "p",
        "i",
        "e",
        "n",
        "t",
        " ",
        "a",
        "u",
        "t",
        "o",
        "m",
        "a",
        "t",
        "i",
        "o",
        "n",
        ""
    ],
    "text": "Recipient automation"
}