{
    "state": "success",
    "sessionId": null,
    "class": "org.openqa.selenium.remote.Response",
    "value": [
        {
            "element-6066-11e4-a52e-4f735466cecf": "7c4f18a6-dc67-4c92-928e-a87833fd81bf"
        }
    ],
    "status": 0
}