{
    "state": "success",
    "sessionId": null,
    "class": "org.openqa.selenium.remote.Response",
    "value": [
        {
            "element-6066-11e4-a52e-4f735466cecf": "8eb8ab0f-3049-4d69-a319-da4f9e379c61"
        }
    ],
    "status": 0
}