{
    "state": "success",
    "sessionId": null,
    "class": "org.openqa.selenium.remote.Response",
    "value": [
        {
            "element-6066-11e4-a52e-4f735466cecf": "927e1ea4-d713-49d3-8b9e-ce10a977e00c"
        }
    ],
    "status": 0
}