{
    "state": "success",
    "sessionId": null,
    "class": "org.openqa.selenium.remote.Response",
    "value": [
        {
            "element-6066-11e4-a52e-4f735466cecf": "1d462e0b-c5ee-45da-9b1f-bde9dc879e23"
        }
    ],
    "status": 0
}