{
    "state": "success",
    "sessionId": null,
    "class": "org.openqa.selenium.remote.Response",
    "value": {
        "element-6066-11e4-a52e-4f735466cecf": "2982ae5c-088d-4e27-a8fd-7af00cbea988"
    },
    "status": 0
}