{
    "state": "success",
    "sessionId": null,
    "class": "org.openqa.selenium.remote.Response",
    "value": [
        {
            "element-6066-11e4-a52e-4f735466cecf": "f6bd1bb6-b39c-4f24-ba26-3f6f857550e4"
        }
    ],
    "status": 0
}