{
    "state": "success",
    "sessionId": null,
    "class": "org.openqa.selenium.remote.Response",
    "value": {
        "element-6066-11e4-a52e-4f735466cecf": "3b084be0-69f8-4ab5-ae7c-0cd681f4ce81"
    },
    "status": 0
}