{
    "state": "success",
    "sessionId": null,
    "class": "org.openqa.selenium.remote.Response",
    "value": {
        "element-6066-11e4-a52e-4f735466cecf": "b5e765ee-8411-4c3e-819f-841db15f2266"
    },
    "status": 0
}