{
    "state": "success",
    "sessionId": null,
    "class": "org.openqa.selenium.remote.Response",
    "value": {
        "element-6066-11e4-a52e-4f735466cecf": "4261d7d8-2659-4c50-bdee-e0a038977f8c"
    },
    "status": 0
}