{
    "state": "success",
    "sessionId": null,
    "class": "org.openqa.selenium.remote.Response",
    "value": {
        "element-6066-11e4-a52e-4f735466cecf": "0b0d0f9e-4cc4-4cab-a085-ce113e79bb42"
    },
    "status": 0
}