{
    "state": "success",
    "sessionId": null,
    "class": "org.openqa.selenium.remote.Response",
    "value": [
        {
            "element-6066-11e4-a52e-4f735466cecf": "5524ce3d-c194-49a3-95de-e30de728e92e"
        }
    ],
    "status": 0
}