{
    "state": "success",
    "sessionId": null,
    "class": "org.openqa.selenium.remote.Response",
    "value": {
        "element-6066-11e4-a52e-4f735466cecf": "9ae98ba0-c80b-4c0e-a275-3e0028d2f130"
    },
    "status": 0
}