{
    "state": "success",
    "sessionId": null,
    "class": "org.openqa.selenium.remote.Response",
    "value": [
        {
            "element-6066-11e4-a52e-4f735466cecf": "8154b2f0-5fd0-4567-bd1f-2fe146755e66"
        }
    ],
    "status": 0
}