{
    "state": "success",
    "sessionId": null,
    "class": "org.openqa.selenium.remote.Response",
    "value": [
        {
            "element-6066-11e4-a52e-4f735466cecf": "d290b9f4-3a78-4c62-90d5-5058636ed339"
        }
    ],
    "status": 0
}