{
    "state": "success",
    "sessionId": null,
    "class": "org.openqa.selenium.remote.Response",
    "value": {
        "element-6066-11e4-a52e-4f735466cecf": "8c22a58d-95e6-4c82-b99f-dc8a47449f9e"
    },
    "status": 0
}