{
    "value": [
        "Q",
        "A",
        " ",
        "Q",
        "A",
        " ",
        "Q",
        "A",
        " ",
        "t",
        "e",
        "s",
        "t",
        ""
    ],
    "text": "QA QA QA test"
}