{
    "state": "success",
    "sessionId": null,
    "class": "org.openqa.selenium.remote.Response",
    "value": {
        "element-6066-11e4-a52e-4f735466cecf": "ca53d183-9378-48a1-9faf-0415ae265ece"
    },
    "status": 0
}