{
    "state": "success",
    "sessionId": null,
    "class": "org.openqa.selenium.remote.Response",
    "value": {
        "element-6066-11e4-a52e-4f735466cecf": "6e054240-85f5-4bd6-b090-e5c7f679c764"
    },
    "status": 0
}