{
    "state": "success",
    "sessionId": null,
    "class": "org.openqa.selenium.remote.Response",
    "value": {
        "element-6066-11e4-a52e-4f735466cecf": "9d042a98-102f-4a3f-a8ef-fd5e927f572d"
    },
    "status": 0
}