{
    "state": "success",
    "sessionId": null,
    "class": "org.openqa.selenium.remote.Response",
    "value": {
        "element-6066-11e4-a52e-4f735466cecf": "c542a8a7-d52b-43c6-9c4c-05b1fd734eb9"
    },
    "status": 0
}