{
    "state": "success",
    "sessionId": null,
    "class": "org.openqa.selenium.remote.Response",
    "value": {
        "element-6066-11e4-a52e-4f735466cecf": "e2ef3e2e-5ab7-4c06-9f5a-09d15ffe6999"
    },
    "status": 0
}