{
    "state": "success",
    "sessionId": null,
    "class": "org.openqa.selenium.remote.Response",
    "value": [
        {
            "element-6066-11e4-a52e-4f735466cecf": "00b8cddd-c218-4d87-888e-030c743c51d2"
        }
    ],
    "status": 0
}