{
    "state": "success",
    "sessionId": null,
    "class": "org.openqa.selenium.remote.Response",
    "value": [
        {
            "element-6066-11e4-a52e-4f735466cecf": "5892ca32-ff06-48bb-a249-2da043ebc598"
        }
    ],
    "status": 0
}