{
    "state": "success",
    "sessionId": null,
    "class": "org.openqa.selenium.remote.Response",
    "value": {
        "element-6066-11e4-a52e-4f735466cecf": "ef3187d8-3e30-4c90-874e-f3e4a1b2310b"
    },
    "status": 0
}