{
    "state": "success",
    "sessionId": null,
    "class": "org.openqa.selenium.remote.Response",
    "value": [
        {
            "element-6066-11e4-a52e-4f735466cecf": "c24c725c-aca0-422c-9be4-f310f980df1d"
        }
    ],
    "status": 0
}