{
    "state": "success",
    "sessionId": null,
    "class": "org.openqa.selenium.remote.Response",
    "value": [
        {
            "element-6066-11e4-a52e-4f735466cecf": "9e128983-4599-4378-b6c7-6d9598238733"
        }
    ],
    "status": 0
}