{
    "state": "success",
    "sessionId": null,
    "class": "org.openqa.selenium.remote.Response",
    "value": {
        "element-6066-11e4-a52e-4f735466cecf": "5a6deba7-841f-4cdd-981f-a795de67d83d"
    },
    "status": 0
}