{
    "state": "success",
    "sessionId": null,
    "class": "org.openqa.selenium.remote.Response",
    "value": {
        "element-6066-11e4-a52e-4f735466cecf": "5a4c62a5-af8b-4dcf-a6c3-9babd08019df"
    },
    "status": 0
}