{
    "state": "success",
    "sessionId": null,
    "class": "org.openqa.selenium.remote.Response",
    "value": [
        {
            "element-6066-11e4-a52e-4f735466cecf": "c9c26922-5062-41eb-923a-83d81c8c2bb6"
        }
    ],
    "status": 0
}