{
    "state": "success",
    "sessionId": null,
    "class": "org.openqa.selenium.remote.Response",
    "value": [
        {
            "element-6066-11e4-a52e-4f735466cecf": "d62e06d6-cb4e-4a03-a901-48ddb6e1c13d"
        }
    ],
    "status": 0
}