{
    "state": "success",
    "sessionId": null,
    "class": "org.openqa.selenium.remote.Response",
    "value": [
        {
            "element-6066-11e4-a52e-4f735466cecf": "db4eb942-426b-4cf3-8913-112d15cbb274"
        }
    ],
    "status": 0
}