{
    "state": "success",
    "sessionId": null,
    "class": "org.openqa.selenium.remote.Response",
    "value": {
        "element-6066-11e4-a52e-4f735466cecf": "7ec8213f-f494-4be7-b94d-7df2f4b7106d"
    },
    "status": 0
}