{
    "state": "success",
    "sessionId": null,
    "class": "org.openqa.selenium.remote.Response",
    "value": {
        "element-6066-11e4-a52e-4f735466cecf": "53d745ba-50e0-4117-9f97-b2ed3da620dd"
    },
    "status": 0
}