{
    "state": "success",
    "sessionId": null,
    "class": "org.openqa.selenium.remote.Response",
    "value": {
        "element-6066-11e4-a52e-4f735466cecf": "6a90a6b5-4e92-4563-914e-6435b0b00691"
    },
    "status": 0
}