{
    "state": "success",
    "sessionId": null,
    "class": "org.openqa.selenium.remote.Response",
    "value": {
        "element-6066-11e4-a52e-4f735466cecf": "0cc1d9fe-7cf4-4673-a7c4-618be2728ade"
    },
    "status": 0
}