{
    "state": "success",
    "sessionId": null,
    "class": "org.openqa.selenium.remote.Response",
    "value": {
        "element-6066-11e4-a52e-4f735466cecf": "79e185ad-3e71-461d-ac33-8d757972c418"
    },
    "status": 0
}