{
    "state": "success",
    "sessionId": null,
    "class": "org.openqa.selenium.remote.Response",
    "value": {
        "element-6066-11e4-a52e-4f735466cecf": "681912cc-a38c-4358-8d65-d3a551efb0ba"
    },
    "status": 0
}