{
    "state": "success",
    "sessionId": null,
    "class": "org.openqa.selenium.remote.Response",
    "value": {
        "element-6066-11e4-a52e-4f735466cecf": "3c2bbcac-b05b-497f-875c-9ccc08aacb30"
    },
    "status": 0
}