{
    "state": "success",
    "sessionId": null,
    "class": "org.openqa.selenium.remote.Response",
    "value": {
        "element-6066-11e4-a52e-4f735466cecf": "b9c555be-88dc-436b-9ff6-0ff17ae9a91c"
    },
    "status": 0
}