{
    "state": "success",
    "sessionId": null,
    "class": "org.openqa.selenium.remote.Response",
    "value": [
        {
            "element-6066-11e4-a52e-4f735466cecf": "9cc915e4-621f-4c26-8349-6f2f23c12d6f"
        }
    ],
    "status": 0
}