{
    "state": "success",
    "sessionId": null,
    "class": "org.openqa.selenium.remote.Response",
    "value": [
        {
            "element-6066-11e4-a52e-4f735466cecf": "90d95276-924e-47bb-9ee2-35701434930a"
        }
    ],
    "status": 0
}