{
    "state": "success",
    "sessionId": null,
    "class": "org.openqa.selenium.remote.Response",
    "value": {
        "element-6066-11e4-a52e-4f735466cecf": "e9d4c73b-d536-4804-8b98-34cce329e453"
    },
    "status": 0
}