{
    "state": "success",
    "sessionId": null,
    "class": "org.openqa.selenium.remote.Response",
    "value": {
        "element-6066-11e4-a52e-4f735466cecf": "a1a7c999-11b1-41e2-b6c5-6b33a6cd4c02"
    },
    "status": 0
}