{
    "state": "success",
    "sessionId": null,
    "class": "org.openqa.selenium.remote.Response",
    "value": [
        {
            "element-6066-11e4-a52e-4f735466cecf": "f8661c4a-2692-44f0-8ffb-29a336f4db93"
        }
    ],
    "status": 0
}