{
    "state": "success",
    "sessionId": null,
    "class": "org.openqa.selenium.remote.Response",
    "value": [
        {
            "element-6066-11e4-a52e-4f735466cecf": "b631a22b-7d08-4445-8002-eb18fb0a7fae"
        }
    ],
    "status": 0
}