{
    "state": "success",
    "sessionId": null,
    "class": "org.openqa.selenium.remote.Response",
    "value": [
        {
            "element-6066-11e4-a52e-4f735466cecf": "6e3782fd-1b6d-4fd0-bc4f-4196010c207f"
        }
    ],
    "status": 0
}