{
    "state": "success",
    "sessionId": null,
    "class": "org.openqa.selenium.remote.Response",
    "value": {
        "element-6066-11e4-a52e-4f735466cecf": "dc8150b4-8d7e-4a06-82a0-f92e43eeddc3"
    },
    "status": 0
}