{
    "state": "success",
    "sessionId": null,
    "class": "org.openqa.selenium.remote.Response",
    "value": {
        "element-6066-11e4-a52e-4f735466cecf": "00104f8c-8983-4295-9c70-87dede9cbc1c"
    },
    "status": 0
}