{
    "state": "success",
    "sessionId": null,
    "class": "org.openqa.selenium.remote.Response",
    "value": [
        {
            "element-6066-11e4-a52e-4f735466cecf": "5e83feb1-a5eb-4119-aafd-4cb73ed9779f"
        }
    ],
    "status": 0
}