{
    "state": "success",
    "sessionId": null,
    "class": "org.openqa.selenium.remote.Response",
    "value": [
        {
            "element-6066-11e4-a52e-4f735466cecf": "db9b3a2e-19e2-4b2c-972c-9a6836c74665"
        }
    ],
    "status": 0
}