{
    "state": "success",
    "sessionId": null,
    "class": "org.openqa.selenium.remote.Response",
    "value": {
        "element-6066-11e4-a52e-4f735466cecf": "0fe124f4-d084-4050-ace7-d770520ce15f"
    },
    "status": 0
}