{
    "state": "success",
    "sessionId": null,
    "class": "org.openqa.selenium.remote.Response",
    "value": {
        "element-6066-11e4-a52e-4f735466cecf": "a7974c80-7e77-45c0-8513-bd4800041045"
    },
    "status": 0
}