{
    "state": "success",
    "sessionId": null,
    "class": "org.openqa.selenium.remote.Response",
    "value": [
        {
            "element-6066-11e4-a52e-4f735466cecf": "59324e5f-97bb-4202-b7ea-542430a924f6"
        }
    ],
    "status": 0
}