{
    "state": "success",
    "sessionId": null,
    "class": "org.openqa.selenium.remote.Response",
    "value": {
        "element-6066-11e4-a52e-4f735466cecf": "e136aa4c-9fc1-42a4-87e4-f57d0b5f0d62"
    },
    "status": 0
}