{
    "state": "success",
    "sessionId": null,
    "class": "org.openqa.selenium.remote.Response",
    "value": {
        "element-6066-11e4-a52e-4f735466cecf": "55bdacdd-6ef2-4f76-9bf4-f81447f27471"
    },
    "status": 0
}