{
    "state": "success",
    "sessionId": null,
    "class": "org.openqa.selenium.remote.Response",
    "value": [
        {
            "element-6066-11e4-a52e-4f735466cecf": "d04601f3-d924-4dea-9c04-187307836d89"
        }
    ],
    "status": 0
}