{
    "state": "success",
    "sessionId": null,
    "class": "org.openqa.selenium.remote.Response",
    "value": {
        "element-6066-11e4-a52e-4f735466cecf": "607b7b7e-f6e8-40ba-899a-ad2dfc4592b8"
    },
    "status": 0
}