{
    "state": "success",
    "sessionId": null,
    "class": "org.openqa.selenium.remote.Response",
    "value": [
        {
            "element-6066-11e4-a52e-4f735466cecf": "6a713f60-38c1-46bf-8184-cc90bbe81103"
        }
    ],
    "status": 0
}