{
    "state": "success",
    "sessionId": null,
    "class": "org.openqa.selenium.remote.Response",
    "value": {
        "element-6066-11e4-a52e-4f735466cecf": "cf520cb3-e9c7-4b45-822f-72cfa4b4bcf6"
    },
    "status": 0
}