{
    "state": "success",
    "sessionId": null,
    "class": "org.openqa.selenium.remote.Response",
    "value": {
        "element-6066-11e4-a52e-4f735466cecf": "4f6a3e20-bf5c-4c64-b230-bc075b419d98"
    },
    "status": 0
}