{
    "value": [
        "R",
        "e",
        "c",
        "i",
        "p",
        "i",
        "e",
        "n",
        "t",
        " ",
        "S",
        "F",
        "T",
        "P",
        " ",
        "p",
        "r",
        "i",
        "v",
        "a",
        "t",
        "e",
        "k",
        "e",
        "y",
        "_",
        "a",
        "u",
        "t",
        "o",
        "m",
        "a",
        "t",
        "i",
        "o",
        "n"
    ],
    "text": "Recipient SFTP privatekey_automation"
}