{
    "state": "success",
    "sessionId": null,
    "class": "org.openqa.selenium.remote.Response",
    "value": [
        {
            "element-6066-11e4-a52e-4f735466cecf": "52e9bb09-b895-43a5-8bf0-b68b3f82d040"
        }
    ],
    "status": 0
}