{
    "state": "success",
    "sessionId": null,
    "class": "org.openqa.selenium.remote.Response",
    "value": {
        "element-6066-11e4-a52e-4f735466cecf": "2bc41eb3-298a-4347-b2b0-2c5ef5a332f5"
    },
    "status": 0
}