{
    "state": "success",
    "sessionId": null,
    "class": "org.openqa.selenium.remote.Response",
    "value": [
        {
            "element-6066-11e4-a52e-4f735466cecf": "59aaa6ca-0f7e-46de-980c-61a03df7a2d2"
        }
    ],
    "status": 0
}