{
    "state": "success",
    "sessionId": null,
    "class": "org.openqa.selenium.remote.Response",
    "value": {
        "element-6066-11e4-a52e-4f735466cecf": "9266c205-863e-460e-b2e3-0db1dca7ee11"
    },
    "status": 0
}