{
    "state": "success",
    "sessionId": null,
    "class": "org.openqa.selenium.remote.Response",
    "value": {
        "element-6066-11e4-a52e-4f735466cecf": "ead8be1c-bbbd-4dde-b97c-dbd367aaf588"
    },
    "status": 0
}