{
    "state": "success",
    "sessionId": null,
    "class": "org.openqa.selenium.remote.Response",
    "value": [
        {
            "element-6066-11e4-a52e-4f735466cecf": "57f0f5d0-1713-454d-b196-a59d691d46f9"
        }
    ],
    "status": 0
}