{
    "state": "success",
    "sessionId": null,
    "class": "org.openqa.selenium.remote.Response",
    "value": [
        {
            "element-6066-11e4-a52e-4f735466cecf": "b04baecb-e7d0-42ed-a82b-4bb0c2a0e01c"
        }
    ],
    "status": 0
}