{
    "state": "success",
    "sessionId": null,
    "class": "org.openqa.selenium.remote.Response",
    "value": [
        {
            "element-6066-11e4-a52e-4f735466cecf": "dbe7e2ed-80d1-4722-83d1-39c23c37a73b"
        }
    ],
    "status": 0
}