{
    "state": "success",
    "sessionId": null,
    "class": "org.openqa.selenium.remote.Response",
    "value": {
        "element-6066-11e4-a52e-4f735466cecf": "a3bf8580-bb77-4aff-b9fa-3311828adf7f"
    },
    "status": 0
}