{
    "state": "success",
    "sessionId": null,
    "class": "org.openqa.selenium.remote.Response",
    "value": {
        "element-6066-11e4-a52e-4f735466cecf": "dcd3f461-b7ac-40de-81ad-3b7d546a8926"
    },
    "status": 0
}