{
    "state": "success",
    "sessionId": null,
    "class": "org.openqa.selenium.remote.Response",
    "value": {
        "element-6066-11e4-a52e-4f735466cecf": "d1459b43-a775-412d-bdd5-97399dd3404e"
    },
    "status": 0
}