{
    "state": "success",
    "sessionId": null,
    "class": "org.openqa.selenium.remote.Response",
    "value": {
        "element-6066-11e4-a52e-4f735466cecf": "0bff8a8e-769b-4577-96cb-3555d2f4cd99"
    },
    "status": 0
}