{
    "state": "success",
    "sessionId": null,
    "class": "org.openqa.selenium.remote.Response",
    "value": {
        "element-6066-11e4-a52e-4f735466cecf": "def8598d-75ae-40a0-88e9-c9a925f979c3"
    },
    "status": 0
}