{
    "state": "success",
    "sessionId": null,
    "class": "org.openqa.selenium.remote.Response",
    "value": {
        "element-6066-11e4-a52e-4f735466cecf": "42747bdf-a7d1-4a47-ac21-1e625fff074c"
    },
    "status": 0
}