{
    "state": "success",
    "sessionId": null,
    "class": "org.openqa.selenium.remote.Response",
    "value": {
        "element-6066-11e4-a52e-4f735466cecf": "07c394f7-0e17-4b07-9f6a-cef88c3d487c"
    },
    "status": 0
}