{
    "state": "success",
    "sessionId": null,
    "class": "org.openqa.selenium.remote.Response",
    "value": [
        {
            "element-6066-11e4-a52e-4f735466cecf": "63b425cf-3364-439c-a478-39e65947478f"
        }
    ],
    "status": 0
}