{
    "state": "success",
    "sessionId": null,
    "class": "org.openqa.selenium.remote.Response",
    "value": {
        "element-6066-11e4-a52e-4f735466cecf": "b946ce68-9f08-4054-964b-7066a0d596a2"
    },
    "status": 0
}