{
    "state": "success",
    "sessionId": null,
    "class": "org.openqa.selenium.remote.Response",
    "value": {
        "element-6066-11e4-a52e-4f735466cecf": "5af23abb-90fe-4c44-8ca5-b96345aedf98"
    },
    "status": 0
}