{
    "state": "success",
    "sessionId": null,
    "class": "org.openqa.selenium.remote.Response",
    "value": {
        "element-6066-11e4-a52e-4f735466cecf": "fb01b61d-d8e0-4528-b386-63f3c211839c"
    },
    "status": 0
}