{
    "value": [
        "Q",
        "A",
        "F",
        "T",
        "P",
        "F",
        "a",
        "i",
        "l",
        "R",
        "e",
        "c",
        "i",
        "p",
        "i",
        "e",
        "n",
        "t",
        "1"
    ],
    "text": "QAFTPFailRecipient1"
}