{
    "state": "success",
    "sessionId": null,
    "class": "org.openqa.selenium.remote.Response",
    "value": [
        {
            "element-6066-11e4-a52e-4f735466cecf": "f920bf2d-a54b-4a8f-9cec-b3bea7fbb5b8"
        }
    ],
    "status": 0
}