{
    "state": "success",
    "sessionId": null,
    "class": "org.openqa.selenium.remote.Response",
    "value": [
        {
            "element-6066-11e4-a52e-4f735466cecf": "5dfbb6c2-59bc-4abe-bbf7-2a995f076246"
        }
    ],
    "status": 0
}