{
    "state": "success",
    "sessionId": null,
    "class": "org.openqa.selenium.remote.Response",
    "value": {
        "element-6066-11e4-a52e-4f735466cecf": "b0088cff-8aea-413e-ab5d-a8c8354d10b2"
    },
    "status": 0
}