{
    "state": "success",
    "sessionId": null,
    "class": "org.openqa.selenium.remote.Response",
    "value": [
        {
            "element-6066-11e4-a52e-4f735466cecf": "32e7a8fe-bb53-4f6b-be58-3e56e03584ae"
        }
    ],
    "status": 0
}