{
    "state": "success",
    "sessionId": null,
    "class": "org.openqa.selenium.remote.Response",
    "value": {
        "element-6066-11e4-a52e-4f735466cecf": "6da3e688-7fd4-445d-a327-8f6633247397"
    },
    "status": 0
}