{
    "state": "success",
    "sessionId": null,
    "class": "org.openqa.selenium.remote.Response",
    "value": [
        {
            "element-6066-11e4-a52e-4f735466cecf": "0cefa095-c5f4-4b3d-8848-0a2947d903c5"
        }
    ],
    "status": 0
}