{
    "state": "success",
    "sessionId": null,
    "class": "org.openqa.selenium.remote.Response",
    "value": {
        "element-6066-11e4-a52e-4f735466cecf": "b476f405-c56c-40f4-ae02-27084501b1ec"
    },
    "status": 0
}