{
    "state": "success",
    "sessionId": null,
    "class": "org.openqa.selenium.remote.Response",
    "value": [
        {
            "element-6066-11e4-a52e-4f735466cecf": "d41a128a-01a0-4f44-b9af-9f713404d3b3"
        }
    ],
    "status": 0
}