{
    "state": "success",
    "sessionId": null,
    "class": "org.openqa.selenium.remote.Response",
    "value": {
        "element-6066-11e4-a52e-4f735466cecf": "ae264d5b-227c-4e47-90f0-6b02c49a641b"
    },
    "status": 0
}