{
    "state": "success",
    "sessionId": null,
    "class": "org.openqa.selenium.remote.Response",
    "value": [
        {
            "element-6066-11e4-a52e-4f735466cecf": "247d485d-aaad-41c8-b60d-4b036118b034"
        }
    ],
    "status": 0
}