{
    "state": "success",
    "sessionId": null,
    "class": "org.openqa.selenium.remote.Response",
    "value": {
        "element-6066-11e4-a52e-4f735466cecf": "ca002d24-2d90-4e86-ad82-c5fe806f1917"
    },
    "status": 0
}