{
    "state": "success",
    "sessionId": null,
    "class": "org.openqa.selenium.remote.Response",
    "value": [
        {
            "element-6066-11e4-a52e-4f735466cecf": "76a9c4b6-e37f-4d24-b993-305e098f27d3"
        }
    ],
    "status": 0
}