{
    "state": "success",
    "sessionId": null,
    "class": "org.openqa.selenium.remote.Response",
    "value": {
        "element-6066-11e4-a52e-4f735466cecf": "b3f22a66-3dec-418d-a808-2113a570d2e0"
    },
    "status": 0
}