{
    "state": "success",
    "sessionId": null,
    "class": "org.openqa.selenium.remote.Response",
    "value": [
        {
            "element-6066-11e4-a52e-4f735466cecf": "c1b83c59-4e3e-4d4a-94aa-e58433429e47"
        }
    ],
    "status": 0
}