{
    "state": "success",
    "sessionId": null,
    "class": "org.openqa.selenium.remote.Response",
    "value": [
        {
            "element-6066-11e4-a52e-4f735466cecf": "3eeb2b12-8550-4243-b598-a04bbdcb5350"
        }
    ],
    "status": 0
}