{
    "state": "success",
    "sessionId": null,
    "class": "org.openqa.selenium.remote.Response",
    "value": [
        {
            "element-6066-11e4-a52e-4f735466cecf": "660c10c8-fde0-4755-aa86-3cd48a7439f9"
        }
    ],
    "status": 0
}