{
    "state": "success",
    "sessionId": null,
    "class": "org.openqa.selenium.remote.Response",
    "value": {
        "element-6066-11e4-a52e-4f735466cecf": "ac1d2ee8-c2fb-4d30-9f59-956e466cadd7"
    },
    "status": 0
}