{
    "state": "success",
    "sessionId": null,
    "class": "org.openqa.selenium.remote.Response",
    "value": {
        "element-6066-11e4-a52e-4f735466cecf": "d2c626f1-8b8d-47cc-8e30-6cac26284945"
    },
    "status": 0
}