{
    "state": "success",
    "sessionId": null,
    "class": "org.openqa.selenium.remote.Response",
    "value": {
        "element-6066-11e4-a52e-4f735466cecf": "1f8cf644-ef09-42a6-87b3-a3a46a292744"
    },
    "status": 0
}