{
    "state": "success",
    "sessionId": null,
    "class": "org.openqa.selenium.remote.Response",
    "value": {
        "element-6066-11e4-a52e-4f735466cecf": "07ecb47a-9f36-4362-9412-4c7ba232b99a"
    },
    "status": 0
}