{
    "state": "success",
    "sessionId": null,
    "class": "org.openqa.selenium.remote.Response",
    "value": [
        {
            "element-6066-11e4-a52e-4f735466cecf": "1ec08336-094d-46ea-9072-d35e3d7e69ec"
        }
    ],
    "status": 0
}