{
    "state": "success",
    "sessionId": null,
    "class": "org.openqa.selenium.remote.Response",
    "value": {
        "element-6066-11e4-a52e-4f735466cecf": "b4fd6076-9547-44c9-abcb-7e284f3f5d7c"
    },
    "status": 0
}