{
    "state": "success",
    "sessionId": null,
    "class": "org.openqa.selenium.remote.Response",
    "value": {
        "element-6066-11e4-a52e-4f735466cecf": "f7d21722-bb46-42ff-9d2d-f0f705ef0f08"
    },
    "status": 0
}