{
    "state": "success",
    "sessionId": null,
    "class": "org.openqa.selenium.remote.Response",
    "value": [
        {
            "element-6066-11e4-a52e-4f735466cecf": "12f03d0e-c570-4b57-9a5a-d13039c1f0a1"
        }
    ],
    "status": 0
}