{
    "state": "success",
    "sessionId": null,
    "class": "org.openqa.selenium.remote.Response",
    "value": [
        {
            "element-6066-11e4-a52e-4f735466cecf": "0ef8bf71-0254-4cad-87f1-edfaf4df1a76"
        }
    ],
    "status": 0
}