{
    "state": "success",
    "sessionId": null,
    "class": "org.openqa.selenium.remote.Response",
    "value": {
        "element-6066-11e4-a52e-4f735466cecf": "05f0e209-8844-48fb-906e-3195c9a72b30"
    },
    "status": 0
}