{
    "state": "success",
    "sessionId": null,
    "class": "org.openqa.selenium.remote.Response",
    "value": [
        {
            "element-6066-11e4-a52e-4f735466cecf": "e006052f-129c-4dda-ad5b-e774f7b2a5a2"
        }
    ],
    "status": 0
}