{
    "state": "success",
    "sessionId": null,
    "class": "org.openqa.selenium.remote.Response",
    "value": [
        {
            "element-6066-11e4-a52e-4f735466cecf": "24716382-f553-48da-a500-9cf2b75f87b0"
        }
    ],
    "status": 0
}