{
    "state": "success",
    "sessionId": null,
    "class": "org.openqa.selenium.remote.Response",
    "value": {
        "element-6066-11e4-a52e-4f735466cecf": "4a70f24d-0034-4132-8487-1b83e7fb3127"
    },
    "status": 0
}