{
    "state": "success",
    "sessionId": null,
    "class": "org.openqa.selenium.remote.Response",
    "value": {
        "element-6066-11e4-a52e-4f735466cecf": "94313a71-b874-420d-a974-9ad87470af39"
    },
    "status": 0
}