{
    "state": "success",
    "sessionId": null,
    "class": "org.openqa.selenium.remote.Response",
    "value": {
        "element-6066-11e4-a52e-4f735466cecf": "80057a5f-f914-40f8-b37b-0c2568266203"
    },
    "status": 0
}