{
    "state": "success",
    "sessionId": null,
    "class": "org.openqa.selenium.remote.Response",
    "value": [
        {
            "element-6066-11e4-a52e-4f735466cecf": "7e631b0a-d4d5-405a-b34d-1c84d07cc133"
        }
    ],
    "status": 0
}