{
    "state": "success",
    "sessionId": null,
    "class": "org.openqa.selenium.remote.Response",
    "value": {
        "element-6066-11e4-a52e-4f735466cecf": "efafbd7c-3023-4ab7-ba74-fe63d74d3ca6"
    },
    "status": 0
}