{
    "state": "success",
    "sessionId": null,
    "class": "org.openqa.selenium.remote.Response",
    "value": {
        "element-6066-11e4-a52e-4f735466cecf": "8e5de900-2edc-4b2f-846a-37285a7b7b5d"
    },
    "status": 0
}