{
    "state": "success",
    "sessionId": null,
    "class": "org.openqa.selenium.remote.Response",
    "value": [
        {
            "element-6066-11e4-a52e-4f735466cecf": "80c9026b-9f0e-43ef-874a-a9e6a3568885"
        }
    ],
    "status": 0
}