{
    "state": "success",
    "sessionId": null,
    "class": "org.openqa.selenium.remote.Response",
    "value": [
        {
            "element-6066-11e4-a52e-4f735466cecf": "d850e28f-e6da-4832-af17-2424ce0cb45b"
        }
    ],
    "status": 0
}