{
    "state": "success",
    "sessionId": null,
    "class": "org.openqa.selenium.remote.Response",
    "value": {
        "element-6066-11e4-a52e-4f735466cecf": "fb40f223-1079-47c1-848b-14feecba8247"
    },
    "status": 0
}