{
    "state": "success",
    "sessionId": null,
    "class": "org.openqa.selenium.remote.Response",
    "value": {
        "element-6066-11e4-a52e-4f735466cecf": "22f5b9bc-7e6e-43e3-9dc5-fee0db684df9"
    },
    "status": 0
}