{
    "state": "success",
    "sessionId": null,
    "class": "org.openqa.selenium.remote.Response",
    "value": [
        {
            "element-6066-11e4-a52e-4f735466cecf": "6c8790c3-72f0-4e72-9929-4a00462e076b"
        }
    ],
    "status": 0
}