{
    "state": "success",
    "sessionId": null,
    "class": "org.openqa.selenium.remote.Response",
    "value": {
        "element-6066-11e4-a52e-4f735466cecf": "3c87e5f7-0052-4bf7-94b5-210d1fa1391f"
    },
    "status": 0
}