{
    "state": "success",
    "sessionId": null,
    "class": "org.openqa.selenium.remote.Response",
    "value": {
        "element-6066-11e4-a52e-4f735466cecf": "6705d771-199a-48b3-aa14-8cbaa4cfdbe6"
    },
    "status": 0
}