{
    "state": "success",
    "sessionId": null,
    "class": "org.openqa.selenium.remote.Response",
    "value": [
        {
            "element-6066-11e4-a52e-4f735466cecf": "c95b6b6d-69eb-4027-8588-40bca5c59a70"
        }
    ],
    "status": 0
}