{
    "state": "success",
    "sessionId": null,
    "class": "org.openqa.selenium.remote.Response",
    "value": [
        {
            "element-6066-11e4-a52e-4f735466cecf": "993d344f-7cfa-4eff-9453-4ac1f2e08551"
        }
    ],
    "status": 0
}