{
    "state": "success",
    "sessionId": null,
    "class": "org.openqa.selenium.remote.Response",
    "value": [
        "CDwindow-8E0ED1360F368F596A2671F43360B003",
        "CDwindow-B36C70DB99AD8A58CC0B9071C83B82D7"
    ],
    "status": 0
}