{
    "value": [
        "Q",
        "A",
        " ",
        "R",
        "u",
        "l",
        "e",
        " ",
        "T",
        "e",
        "s",
        "t",
        "t",
        "e",
        "s",
        "t",
        " ",
        "w",
        "i",
        "t",
        "h",
        " ",
        "e",
        "d",
        "i",
        "t"
    ],
    "text": "QA Rule Testtest with edit"
}