{
    "state": "success",
    "sessionId": null,
    "class": "org.openqa.selenium.remote.Response",
    "value": [
        {
            "element-6066-11e4-a52e-4f735466cecf": "a9bab674-e982-4409-9a6c-4cae14ad4c28"
        }
    ],
    "status": 0
}