{
    "state": "success",
    "sessionId": null,
    "class": "org.openqa.selenium.remote.Response",
    "value": {
        "element-6066-11e4-a52e-4f735466cecf": "ada68c37-95a3-45a5-ac03-050b2bc727b7"
    },
    "status": 0
}