{
    "state": "success",
    "sessionId": null,
    "class": "org.openqa.selenium.remote.Response",
    "value": {
        "element-6066-11e4-a52e-4f735466cecf": "f06b9ba6-3b77-46b1-a6ff-1a65d74ee21b"
    },
    "status": 0
}