{
    "state": "success",
    "sessionId": null,
    "class": "org.openqa.selenium.remote.Response",
    "value": [
        {
            "element-6066-11e4-a52e-4f735466cecf": "68612e9b-9b31-4495-93bd-6451170b263f"
        }
    ],
    "status": 0
}