{
    "state": "success",
    "sessionId": null,
    "class": "org.openqa.selenium.remote.Response",
    "value": {
        "element-6066-11e4-a52e-4f735466cecf": "bc61fccb-11e4-4e36-b577-f329a86d4e2e"
    },
    "status": 0
}