{
    "state": "success",
    "sessionId": null,
    "class": "org.openqa.selenium.remote.Response",
    "value": {
        "element-6066-11e4-a52e-4f735466cecf": "6ecd60f6-965c-4c1e-a8ed-84736d464fb3"
    },
    "status": 0
}