{
    "state": "success",
    "sessionId": null,
    "class": "org.openqa.selenium.remote.Response",
    "value": {
        "element-6066-11e4-a52e-4f735466cecf": "51c4b0e1-364f-4a4c-a0fa-c58b6e86be36"
    },
    "status": 0
}