{
    "state": "success",
    "sessionId": null,
    "class": "org.openqa.selenium.remote.Response",
    "value": [
        {
            "element-6066-11e4-a52e-4f735466cecf": "19203707-be92-4991-940b-f2d8eb975a83"
        }
    ],
    "status": 0
}