{
    "state": "success",
    "sessionId": null,
    "class": "org.openqa.selenium.remote.Response",
    "value": {
        "element-6066-11e4-a52e-4f735466cecf": "9d90b95e-62a9-4895-97e4-aeb30f78110d"
    },
    "status": 0
}