{
    "state": "success",
    "sessionId": null,
    "class": "org.openqa.selenium.remote.Response",
    "value": [
        {
            "element-6066-11e4-a52e-4f735466cecf": "fc6e941c-5d9a-42ea-99be-67787831ab5c"
        }
    ],
    "status": 0
}