{
    "state": "success",
    "sessionId": null,
    "class": "org.openqa.selenium.remote.Response",
    "value": {
        "element-6066-11e4-a52e-4f735466cecf": "cb5da020-ec5d-40f1-9184-4b95f0707d68"
    },
    "status": 0
}