{
    "state": "success",
    "sessionId": null,
    "class": "org.openqa.selenium.remote.Response",
    "value": [
        {
            "element-6066-11e4-a52e-4f735466cecf": "66378d7b-e24f-432e-af43-b5f789926e9f"
        }
    ],
    "status": 0
}