{
    "state": "success",
    "sessionId": null,
    "class": "org.openqa.selenium.remote.Response",
    "value": [
        {
            "element-6066-11e4-a52e-4f735466cecf": "172e8ac5-14b3-48dc-bb37-0353f1920efe"
        }
    ],
    "status": 0
}