{
    "state": "success",
    "sessionId": null,
    "class": "org.openqa.selenium.remote.Response",
    "value": {
        "element-6066-11e4-a52e-4f735466cecf": "c10f609f-fff8-44d1-972c-2100d5966809"
    },
    "status": 0
}