{
    "state": "success",
    "sessionId": null,
    "class": "org.openqa.selenium.remote.Response",
    "value": [
        {
            "element-6066-11e4-a52e-4f735466cecf": "1c39f6f2-e263-4932-a1d8-91760725bb45"
        }
    ],
    "status": 0
}