{
    "state": "success",
    "sessionId": null,
    "class": "org.openqa.selenium.remote.Response",
    "value": [
        {
            "element-6066-11e4-a52e-4f735466cecf": "194d3e7e-f7fd-4d84-ae49-28b37016cae3"
        }
    ],
    "status": 0
}