{
    "state": "success",
    "sessionId": null,
    "class": "org.openqa.selenium.remote.Response",
    "value": [
        {
            "element-6066-11e4-a52e-4f735466cecf": "f53c2cdb-fb51-4a6b-9788-ae0af14784d1"
        }
    ],
    "status": 0
}