{
    "state": "success",
    "sessionId": null,
    "class": "org.openqa.selenium.remote.Response",
    "value": {
        "element-6066-11e4-a52e-4f735466cecf": "103d2125-e42c-457f-8184-14cb2255c619"
    },
    "status": 0
}