{
    "state": "success",
    "sessionId": null,
    "class": "org.openqa.selenium.remote.Response",
    "value": {
        "element-6066-11e4-a52e-4f735466cecf": "23868f21-f83c-4a19-8110-a13f74d5db29"
    },
    "status": 0
}