{
    "state": "success",
    "sessionId": null,
    "class": "org.openqa.selenium.remote.Response",
    "value": [
        {
            "element-6066-11e4-a52e-4f735466cecf": "82bfd5a5-4ead-40a3-97a6-5ccf11867d20"
        }
    ],
    "status": 0
}