{
    "state": "success",
    "sessionId": null,
    "class": "org.openqa.selenium.remote.Response",
    "value": [
        {
            "element-6066-11e4-a52e-4f735466cecf": "615a468a-4c5a-4595-bf46-033381af504b"
        }
    ],
    "status": 0
}