{
    "state": "success",
    "sessionId": null,
    "class": "org.openqa.selenium.remote.Response",
    "value": {
        "element-6066-11e4-a52e-4f735466cecf": "3011a98f-1a7e-4fb4-811d-7b361a1f395d"
    },
    "status": 0
}