{
    "state": "success",
    "sessionId": null,
    "class": "org.openqa.selenium.remote.Response",
    "value": [
        {
            "element-6066-11e4-a52e-4f735466cecf": "cce68f8b-8acd-40c8-b2ea-d3739c775754"
        }
    ],
    "status": 0
}