{
    "state": "success",
    "sessionId": null,
    "class": "org.openqa.selenium.remote.Response",
    "value": [
        {
            "element-6066-11e4-a52e-4f735466cecf": "08104f13-c38f-4b9d-94ce-552a99a90ce2"
        }
    ],
    "status": 0
}