{
    "state": "success",
    "sessionId": null,
    "class": "org.openqa.selenium.remote.Response",
    "value": {
        "element-6066-11e4-a52e-4f735466cecf": "db1367c5-359d-4582-899d-6c9bc42754ef"
    },
    "status": 0
}