{
    "state": "success",
    "sessionId": null,
    "class": "org.openqa.selenium.remote.Response",
    "value": {
        "element-6066-11e4-a52e-4f735466cecf": "6e830b1b-aae7-42b2-8e95-287fa8ee99f6"
    },
    "status": 0
}