{
    "state": "success",
    "sessionId": null,
    "class": "org.openqa.selenium.remote.Response",
    "value": {
        "element-6066-11e4-a52e-4f735466cecf": "5f5fc8ff-9e22-4801-a1e6-abfdefe6c2c7"
    },
    "status": 0
}