{
    "state": "success",
    "sessionId": null,
    "class": "org.openqa.selenium.remote.Response",
    "value": {
        "element-6066-11e4-a52e-4f735466cecf": "c9617691-e8ab-430f-91f5-629b69c5756b"
    },
    "status": 0
}