{
    "state": "success",
    "sessionId": null,
    "class": "org.openqa.selenium.remote.Response",
    "value": {
        "element-6066-11e4-a52e-4f735466cecf": "40e07f27-1a34-4a09-b8c1-90386a1ea5c1"
    },
    "status": 0
}