{
    "state": "success",
    "sessionId": null,
    "class": "org.openqa.selenium.remote.Response",
    "value": {
        "element-6066-11e4-a52e-4f735466cecf": "6a3c5d46-9337-4695-b8ae-c4a7bd925097"
    },
    "status": 0
}