{
    "state": "success",
    "sessionId": null,
    "class": "org.openqa.selenium.remote.Response",
    "value": [
        {
            "element-6066-11e4-a52e-4f735466cecf": "eb18702d-bdc2-45eb-96b5-116f8e82714c"
        }
    ],
    "status": 0
}