{
    "state": "success",
    "sessionId": null,
    "class": "org.openqa.selenium.remote.Response",
    "value": [
        {
            "element-6066-11e4-a52e-4f735466cecf": "737e101f-01cd-4fc1-87ba-32b37845983e"
        }
    ],
    "status": 0
}