{
    "state": "success",
    "sessionId": null,
    "class": "org.openqa.selenium.remote.Response",
    "value": {
        "element-6066-11e4-a52e-4f735466cecf": "470e9357-7d4f-4b17-b9d8-c60f9e4f6d86"
    },
    "status": 0
}