{
    "state": "success",
    "sessionId": null,
    "class": "org.openqa.selenium.remote.Response",
    "value": [
        {
            "element-6066-11e4-a52e-4f735466cecf": "12353f72-ddd3-4f6d-9e26-7b3cfca518d1"
        }
    ],
    "status": 0
}