{
    "state": "success",
    "sessionId": null,
    "class": "org.openqa.selenium.remote.Response",
    "value": [
        {
            "element-6066-11e4-a52e-4f735466cecf": "d04ae609-2faf-4a1f-b664-aa9a864ca693"
        }
    ],
    "status": 0
}