{
    "state": "success",
    "sessionId": null,
    "class": "org.openqa.selenium.remote.Response",
    "value": [
        {
            "element-6066-11e4-a52e-4f735466cecf": "fffb1e99-830b-4137-8012-f8b47da4bc5a"
        }
    ],
    "status": 0
}