{
    "state": "success",
    "sessionId": null,
    "class": "org.openqa.selenium.remote.Response",
    "value": {
        "element-6066-11e4-a52e-4f735466cecf": "9c209e6f-7a22-4d10-a086-6102bb56aeb0"
    },
    "status": 0
}