{
    "state": "success",
    "sessionId": null,
    "class": "org.openqa.selenium.remote.Response",
    "value": [
        {
            "element-6066-11e4-a52e-4f735466cecf": "0cfb5e2e-1a5f-4ddc-af1a-3220eb4731ae"
        }
    ],
    "status": 0
}