{
    "state": "success",
    "sessionId": null,
    "class": "org.openqa.selenium.remote.Response",
    "value": {
        "element-6066-11e4-a52e-4f735466cecf": "cdaa0bab-2dcc-4d2c-bcb4-7c5e1549c7cf"
    },
    "status": 0
}