{
    "state": "success",
    "sessionId": null,
    "class": "org.openqa.selenium.remote.Response",
    "value": {
        "element-6066-11e4-a52e-4f735466cecf": "848c6b0a-4d5d-4d6f-92be-f56f1642b979"
    },
    "status": 0
}