{
    "state": "success",
    "sessionId": null,
    "class": "org.openqa.selenium.remote.Response",
    "value": [
        {
            "element-6066-11e4-a52e-4f735466cecf": "7eda0b0b-ff08-48e0-af5b-0d2fbb1f886a"
        }
    ],
    "status": 0
}