{
    "state": "success",
    "sessionId": null,
    "class": "org.openqa.selenium.remote.Response",
    "value": {
        "element-6066-11e4-a52e-4f735466cecf": "65c02c60-4b57-4b14-a0a1-b1f4425a1bab"
    },
    "status": 0
}