{
    "state": "success",
    "sessionId": null,
    "class": "org.openqa.selenium.remote.Response",
    "value": [
        {
            "element-6066-11e4-a52e-4f735466cecf": "05465b99-6c7d-474b-a2ff-3ae46c9c95a3"
        }
    ],
    "status": 0
}