{
    "state": "success",
    "sessionId": null,
    "class": "org.openqa.selenium.remote.Response",
    "value": [
        {
            "element-6066-11e4-a52e-4f735466cecf": "a9282fd9-e942-4a49-b0fd-eb5dd800a83c"
        }
    ],
    "status": 0
}