{
    "state": "success",
    "sessionId": null,
    "class": "org.openqa.selenium.remote.Response",
    "value": {
        "element-6066-11e4-a52e-4f735466cecf": "fd544d45-096d-4636-a9c1-8603da7199ec"
    },
    "status": 0
}