{
    "state": "success",
    "sessionId": null,
    "class": "org.openqa.selenium.remote.Response",
    "value": {
        "element-6066-11e4-a52e-4f735466cecf": "9fd531f4-f92d-4d81-bb9b-dbb1f16c4c31"
    },
    "status": 0
}