{
    "state": "success",
    "sessionId": null,
    "class": "org.openqa.selenium.remote.Response",
    "value": {
        "element-6066-11e4-a52e-4f735466cecf": "eaf47343-8571-45b5-8faa-d832998569dc"
    },
    "status": 0
}