{
    "state": "success",
    "sessionId": null,
    "class": "org.openqa.selenium.remote.Response",
    "value": {
        "element-6066-11e4-a52e-4f735466cecf": "d3175073-87fb-404b-97c7-d084446ed7bc"
    },
    "status": 0
}