{
    "state": "success",
    "sessionId": null,
    "class": "org.openqa.selenium.remote.Response",
    "value": {
        "element-6066-11e4-a52e-4f735466cecf": "008fefcc-0f86-4aa0-b734-dcf55501e90b"
    },
    "status": 0
}