{
    "state": "success",
    "sessionId": null,
    "class": "org.openqa.selenium.remote.Response",
    "value": {
        "element-6066-11e4-a52e-4f735466cecf": "f195e99f-82eb-4334-bd40-ad1baf74043b"
    },
    "status": 0
}