{
    "state": "success",
    "sessionId": null,
    "class": "org.openqa.selenium.remote.Response",
    "value": {
        "element-6066-11e4-a52e-4f735466cecf": "081a2843-a6f5-400f-bc9f-0ffdc0d973dd"
    },
    "status": 0
}