{
    "state": "success",
    "sessionId": null,
    "class": "org.openqa.selenium.remote.Response",
    "value": {
        "element-6066-11e4-a52e-4f735466cecf": "a5c70343-63a0-47ec-a011-f2e84a6cdb1c"
    },
    "status": 0
}