{
    "state": "success",
    "sessionId": null,
    "class": "org.openqa.selenium.remote.Response",
    "value": [
        {
            "element-6066-11e4-a52e-4f735466cecf": "ed0cba55-2d63-44e3-85e0-b5bc9a1de143"
        }
    ],
    "status": 0
}