{
    "state": "success",
    "sessionId": null,
    "class": "org.openqa.selenium.remote.Response",
    "value": {
        "element-6066-11e4-a52e-4f735466cecf": "382886ad-7adb-4b0f-beae-abe5eb12bb97"
    },
    "status": 0
}