{
    "state": "success",
    "sessionId": null,
    "class": "org.openqa.selenium.remote.Response",
    "value": [
        {
            "element-6066-11e4-a52e-4f735466cecf": "d8b7caf4-f6f4-4e72-90c2-b8517e4b99bd"
        }
    ],
    "status": 0
}