{
    "state": "success",
    "sessionId": null,
    "class": "org.openqa.selenium.remote.Response",
    "value": {
        "element-6066-11e4-a52e-4f735466cecf": "912d05a1-3fe0-4da1-99e6-88d4ffa38c1d"
    },
    "status": 0
}