{
    "state": "success",
    "sessionId": null,
    "class": "org.openqa.selenium.remote.Response",
    "value": [
        {
            "element-6066-11e4-a52e-4f735466cecf": "e1f8201f-0479-4202-a22d-1d65cad4f0bd"
        }
    ],
    "status": 0
}