{
    "state": "success",
    "sessionId": null,
    "class": "org.openqa.selenium.remote.Response",
    "value": {
        "element-6066-11e4-a52e-4f735466cecf": "e66e4c75-6b8f-4dcb-a053-6625229cc5f4"
    },
    "status": 0
}