{
    "state": "success",
    "sessionId": null,
    "class": "org.openqa.selenium.remote.Response",
    "value": [
        {
            "element-6066-11e4-a52e-4f735466cecf": "3eb56751-fb78-459d-ad95-a83acec17331"
        }
    ],
    "status": 0
}