{
    "state": "success",
    "sessionId": null,
    "class": "org.openqa.selenium.remote.Response",
    "value": {
        "element-6066-11e4-a52e-4f735466cecf": "aefb626e-d5cd-458e-8313-2e7b628655d0"
    },
    "status": 0
}