{
    "state": "success",
    "sessionId": null,
    "class": "org.openqa.selenium.remote.Response",
    "value": [
        {
            "element-6066-11e4-a52e-4f735466cecf": "ed1b242b-05c8-42d3-b0a7-b01f18d78179"
        }
    ],
    "status": 0
}