{
    "state": "success",
    "sessionId": null,
    "class": "org.openqa.selenium.remote.Response",
    "value": {
        "element-6066-11e4-a52e-4f735466cecf": "cebaa074-4da6-4937-a4dc-6c1da2b98c73"
    },
    "status": 0
}