{
    "state": "success",
    "sessionId": null,
    "class": "org.openqa.selenium.remote.Response",
    "value": {
        "element-6066-11e4-a52e-4f735466cecf": "fc01651a-4a67-4800-bd16-0b1001b6ac06"
    },
    "status": 0
}