{
    "state": "success",
    "sessionId": null,
    "class": "org.openqa.selenium.remote.Response",
    "value": {
        "element-6066-11e4-a52e-4f735466cecf": "e3f3d185-c578-4514-b943-fccc6accbf76"
    },
    "status": 0
}