{
    "state": "success",
    "sessionId": null,
    "class": "org.openqa.selenium.remote.Response",
    "value": {
        "element-6066-11e4-a52e-4f735466cecf": "535a117b-f750-49fc-b180-072666ab8451"
    },
    "status": 0
}