{
    "state": "success",
    "sessionId": null,
    "class": "org.openqa.selenium.remote.Response",
    "value": {
        "element-6066-11e4-a52e-4f735466cecf": "2a010e36-bfc2-4987-be99-9328730ef792"
    },
    "status": 0
}