{
    "state": "success",
    "sessionId": null,
    "class": "org.openqa.selenium.remote.Response",
    "value": [
        {
            "element-6066-11e4-a52e-4f735466cecf": "9ea71b73-b57e-4ef3-b53b-0dd470f621c1"
        }
    ],
    "status": 0
}