{
    "state": "success",
    "sessionId": null,
    "class": "org.openqa.selenium.remote.Response",
    "value": {
        "element-6066-11e4-a52e-4f735466cecf": "d06875f4-0383-4c7e-8c99-2cc24e20a61c"
    },
    "status": 0
}