{
    "state": "success",
    "sessionId": null,
    "class": "org.openqa.selenium.remote.Response",
    "value": {
        "element-6066-11e4-a52e-4f735466cecf": "c892dbda-d00f-42bf-b09b-8e8586264ee9"
    },
    "status": 0
}