{
    "state": "success",
    "sessionId": null,
    "class": "org.openqa.selenium.remote.Response",
    "value": {
        "element-6066-11e4-a52e-4f735466cecf": "dec2ae28-5874-4051-a0c0-c92f8efbc7e5"
    },
    "status": 0
}