{
    "state": "success",
    "sessionId": null,
    "class": "org.openqa.selenium.remote.Response",
    "value": [
        {
            "element-6066-11e4-a52e-4f735466cecf": "d6fc6cb5-7119-4818-9e5c-259005b755eb"
        }
    ],
    "status": 0
}