{
    "state": "success",
    "sessionId": null,
    "class": "org.openqa.selenium.remote.Response",
    "value": {
        "element-6066-11e4-a52e-4f735466cecf": "73289c0e-4bc4-46de-8901-9430d3755929"
    },
    "status": 0
}