{
    "state": "success",
    "sessionId": null,
    "class": "org.openqa.selenium.remote.Response",
    "value": [
        {
            "element-6066-11e4-a52e-4f735466cecf": "b7d4ecfe-42e8-4c68-bdfe-9127c4dfd543"
        }
    ],
    "status": 0
}