{
    "state": "success",
    "sessionId": null,
    "class": "org.openqa.selenium.remote.Response",
    "value": [
        {
            "element-6066-11e4-a52e-4f735466cecf": "635cdee4-f4f6-472e-97f2-d99e05c836fd"
        }
    ],
    "status": 0
}