{
    "state": "success",
    "sessionId": null,
    "class": "org.openqa.selenium.remote.Response",
    "value": [
        {
            "element-6066-11e4-a52e-4f735466cecf": "bbc505b6-70aa-47ca-bb37-06ecdaaee9ef"
        }
    ],
    "status": 0
}