{
    "state": "success",
    "sessionId": null,
    "class": "org.openqa.selenium.remote.Response",
    "value": {
        "element-6066-11e4-a52e-4f735466cecf": "1c4b77ad-e43d-4b17-ba70-dc4628dc132e"
    },
    "status": 0
}