{
    "state": "success",
    "sessionId": null,
    "class": "org.openqa.selenium.remote.Response",
    "value": {
        "element-6066-11e4-a52e-4f735466cecf": "0267ec70-f659-4ef4-83de-3657ad01b138"
    },
    "status": 0
}