{
    "state": "success",
    "sessionId": null,
    "class": "org.openqa.selenium.remote.Response",
    "value": [
        {
            "element-6066-11e4-a52e-4f735466cecf": "778b611c-7bc7-4c81-b4ab-bd2b93a6b361"
        }
    ],
    "status": 0
}