{
    "state": "success",
    "sessionId": null,
    "class": "org.openqa.selenium.remote.Response",
    "value": {
        "element-6066-11e4-a52e-4f735466cecf": "4807d06b-bee9-4624-ad5a-b7017cf6099d"
    },
    "status": 0
}