{
    "state": "success",
    "sessionId": null,
    "class": "org.openqa.selenium.remote.Response",
    "value": [
        {
            "element-6066-11e4-a52e-4f735466cecf": "e9d0def0-dd31-4cab-a822-41c4b28566a2"
        }
    ],
    "status": 0
}