{
    "state": "success",
    "sessionId": null,
    "class": "org.openqa.selenium.remote.Response",
    "value": {
        "element-6066-11e4-a52e-4f735466cecf": "7e1f19be-19d6-45dd-87b1-7e0964b99d9c"
    },
    "status": 0
}