{
    "state": "success",
    "sessionId": null,
    "class": "org.openqa.selenium.remote.Response",
    "value": {
        "element-6066-11e4-a52e-4f735466cecf": "f71b9563-4fdd-4b13-a846-63c87a8604be"
    },
    "status": 0
}