{
    "state": "success",
    "sessionId": null,
    "class": "org.openqa.selenium.remote.Response",
    "value": {
        "element-6066-11e4-a52e-4f735466cecf": "37e936f0-684f-459e-ac68-4fe50e37c8c3"
    },
    "status": 0
}