{
    "state": "success",
    "sessionId": null,
    "class": "org.openqa.selenium.remote.Response",
    "value": [
        {
            "element-6066-11e4-a52e-4f735466cecf": "fd970df8-6072-4e52-9a67-08cd35b80ecd"
        }
    ],
    "status": 0
}