{
    "state": "success",
    "sessionId": null,
    "class": "org.openqa.selenium.remote.Response",
    "value": [
        {
            "element-6066-11e4-a52e-4f735466cecf": "af6a1f9b-b188-46a7-8a81-54074c8b4972"
        }
    ],
    "status": 0
}