{
    "state": "success",
    "sessionId": null,
    "class": "org.openqa.selenium.remote.Response",
    "value": [
        {
            "element-6066-11e4-a52e-4f735466cecf": "67ec09d6-702d-481b-8741-9fb0141c7939"
        }
    ],
    "status": 0
}