{
    "state": "success",
    "sessionId": null,
    "class": "org.openqa.selenium.remote.Response",
    "value": [
        {
            "element-6066-11e4-a52e-4f735466cecf": "eed88fb9-61f7-4ca6-a378-243e534da100"
        }
    ],
    "status": 0
}