{
    "state": "success",
    "sessionId": null,
    "class": "org.openqa.selenium.remote.Response",
    "value": [
        {
            "element-6066-11e4-a52e-4f735466cecf": "bef267a6-7bd8-4b93-af93-22c82e8c2b8f"
        }
    ],
    "status": 0
}