{
    "state": "success",
    "sessionId": null,
    "class": "org.openqa.selenium.remote.Response",
    "value": {
        "element-6066-11e4-a52e-4f735466cecf": "3582cf45-c933-4e30-86a1-7638c5ae5287"
    },
    "status": 0
}