{
    "state": "success",
    "sessionId": null,
    "class": "org.openqa.selenium.remote.Response",
    "value": {
        "element-6066-11e4-a52e-4f735466cecf": "55d88f72-5c07-416f-b8f9-8c58ecea9e8f"
    },
    "status": 0
}