{
    "state": "success",
    "sessionId": null,
    "class": "org.openqa.selenium.remote.Response",
    "value": [
        {
            "element-6066-11e4-a52e-4f735466cecf": "da0d3427-9393-49c4-b944-6e979f643203"
        }
    ],
    "status": 0
}