{
    "state": "success",
    "sessionId": null,
    "class": "org.openqa.selenium.remote.Response",
    "value": {
        "element-6066-11e4-a52e-4f735466cecf": "ad556414-1ac0-4bb6-b364-894c96fd3f94"
    },
    "status": 0
}