{
    "state": "success",
    "sessionId": null,
    "class": "org.openqa.selenium.remote.Response",
    "value": {
        "element-6066-11e4-a52e-4f735466cecf": "f61a2da8-88e3-4319-9588-d0518a4d8809"
    },
    "status": 0
}