{
    "state": "success",
    "sessionId": null,
    "class": "org.openqa.selenium.remote.Response",
    "value": {
        "element-6066-11e4-a52e-4f735466cecf": "dad83f85-7608-4fc2-ba9a-c33332d18bbb"
    },
    "status": 0
}