{
    "state": "success",
    "sessionId": null,
    "class": "org.openqa.selenium.remote.Response",
    "value": {
        "element-6066-11e4-a52e-4f735466cecf": "db9fb7b4-fe25-4dae-ad84-67cb4ce09d2d"
    },
    "status": 0
}