{
    "state": "success",
    "sessionId": null,
    "class": "org.openqa.selenium.remote.Response",
    "value": {
        "element-6066-11e4-a52e-4f735466cecf": "376061f2-a1ff-4a05-bd0e-89bf24f30edc"
    },
    "status": 0
}