{
    "state": "success",
    "sessionId": null,
    "class": "org.openqa.selenium.remote.Response",
    "value": {
        "element-6066-11e4-a52e-4f735466cecf": "ffa693b7-93bb-462b-a11c-e20a4e61bfcb"
    },
    "status": 0
}