{
    "state": "success",
    "sessionId": null,
    "class": "org.openqa.selenium.remote.Response",
    "value": {
        "element-6066-11e4-a52e-4f735466cecf": "7bacdb4b-05a2-493d-bade-b4849f271f95"
    },
    "status": 0
}