{
    "state": "success",
    "sessionId": null,
    "class": "org.openqa.selenium.remote.Response",
    "value": {
        "element-6066-11e4-a52e-4f735466cecf": "bd8e9e6c-ac3f-434f-96fc-d05e7aa65fbe"
    },
    "status": 0
}