{
    "state": "success",
    "sessionId": null,
    "class": "org.openqa.selenium.remote.Response",
    "value": [
        {
            "element-6066-11e4-a52e-4f735466cecf": "6bd7f586-9839-4172-9736-8c9d50c9dcdc"
        }
    ],
    "status": 0
}