{
    "state": "success",
    "sessionId": null,
    "class": "org.openqa.selenium.remote.Response",
    "value": {
        "element-6066-11e4-a52e-4f735466cecf": "87c59d7b-9391-4d05-8a75-ef45114dcfb9"
    },
    "status": 0
}