{
    "state": "success",
    "sessionId": null,
    "class": "org.openqa.selenium.remote.Response",
    "value": [
        {
            "element-6066-11e4-a52e-4f735466cecf": "6c659729-5b00-47ab-bc5b-1d95a1da1d2b"
        }
    ],
    "status": 0
}