{
    "state": "success",
    "sessionId": null,
    "class": "org.openqa.selenium.remote.Response",
    "value": [
        {
            "element-6066-11e4-a52e-4f735466cecf": "5752510d-e846-4a1e-ac28-a1ddd6d4a416"
        }
    ],
    "status": 0
}