{
    "state": "success",
    "sessionId": null,
    "class": "org.openqa.selenium.remote.Response",
    "value": [
        {
            "element-6066-11e4-a52e-4f735466cecf": "21bf5f98-66c1-49a9-9717-98973b974b27"
        }
    ],
    "status": 0
}