{
    "state": "success",
    "sessionId": null,
    "class": "org.openqa.selenium.remote.Response",
    "value": {
        "element-6066-11e4-a52e-4f735466cecf": "dd69d6e3-633a-4a32-bf31-c53667da312d"
    },
    "status": 0
}