{
    "state": "success",
    "sessionId": null,
    "class": "org.openqa.selenium.remote.Response",
    "value": {
        "element-6066-11e4-a52e-4f735466cecf": "eb16a154-b934-44c4-be44-03ace5509898"
    },
    "status": 0
}