{
    "state": "success",
    "sessionId": null,
    "class": "org.openqa.selenium.remote.Response",
    "value": [
        {
            "element-6066-11e4-a52e-4f735466cecf": "d033d657-8365-494e-9024-aa4c2b6fc871"
        }
    ],
    "status": 0
}