{
    "state": "success",
    "sessionId": null,
    "class": "org.openqa.selenium.remote.Response",
    "value": {
        "element-6066-11e4-a52e-4f735466cecf": "73979f35-261c-4586-a81d-c7f58baf2346"
    },
    "status": 0
}