{
    "state": "success",
    "sessionId": null,
    "class": "org.openqa.selenium.remote.Response",
    "value": [
        {
            "element-6066-11e4-a52e-4f735466cecf": "0289d54d-bcab-4c71-ae10-a4aba6c3f4d2"
        }
    ],
    "status": 0
}