{
    "state": "success",
    "sessionId": null,
    "class": "org.openqa.selenium.remote.Response",
    "value": {
        "element-6066-11e4-a52e-4f735466cecf": "bc03df86-a377-4a56-9ce4-1a7f241b0d2a"
    },
    "status": 0
}