{
    "state": "success",
    "sessionId": null,
    "class": "org.openqa.selenium.remote.Response",
    "value": [
        {
            "element-6066-11e4-a52e-4f735466cecf": "1451f06d-4c32-49b5-82ea-320473d1946f"
        }
    ],
    "status": 0
}