{
    "state": "success",
    "sessionId": null,
    "class": "org.openqa.selenium.remote.Response",
    "value": [
        {
            "element-6066-11e4-a52e-4f735466cecf": "3d7bd298-ef79-4183-9f54-69b2c143e004"
        }
    ],
    "status": 0
}