{
    "state": "success",
    "sessionId": null,
    "class": "org.openqa.selenium.remote.Response",
    "value": [
        {
            "element-6066-11e4-a52e-4f735466cecf": "5a2bb09b-455d-4513-85dd-46bc15fed1d9"
        }
    ],
    "status": 0
}