{
    "state": "success",
    "sessionId": null,
    "class": "org.openqa.selenium.remote.Response",
    "value": [
        {
            "element-6066-11e4-a52e-4f735466cecf": "cc0b0688-5127-483b-afdc-db0d55c0747a"
        }
    ],
    "status": 0
}