{
    "state": "success",
    "sessionId": null,
    "class": "org.openqa.selenium.remote.Response",
    "value": {
        "element-6066-11e4-a52e-4f735466cecf": "3424221f-e594-471a-abbf-cd3cf4161f8c"
    },
    "status": 0
}