{
    "state": "success",
    "sessionId": null,
    "class": "org.openqa.selenium.remote.Response",
    "value": [
        {
            "element-6066-11e4-a52e-4f735466cecf": "ae87ba0e-ee27-4a1b-a1e4-1249cfc22922"
        }
    ],
    "status": 0
}