{
    "state": "success",
    "sessionId": null,
    "class": "org.openqa.selenium.remote.Response",
    "value": {
        "element-6066-11e4-a52e-4f735466cecf": "8f2b437a-eba2-4933-a9df-972137aa6c39"
    },
    "status": 0
}