{
    "state": "success",
    "sessionId": null,
    "class": "org.openqa.selenium.remote.Response",
    "value": [
        {
            "element-6066-11e4-a52e-4f735466cecf": "706f1700-3424-4165-8323-a756b7a95258"
        }
    ],
    "status": 0
}