{
    "state": "success",
    "sessionId": null,
    "class": "org.openqa.selenium.remote.Response",
    "value": {
        "element-6066-11e4-a52e-4f735466cecf": "b455f95c-8f0d-4f28-8bfd-1de2981a4237"
    },
    "status": 0
}