{
    "state": "success",
    "sessionId": null,
    "class": "org.openqa.selenium.remote.Response",
    "value": [
        {
            "element-6066-11e4-a52e-4f735466cecf": "31488670-09a1-4aa4-91ee-7ac4fd5837bf"
        }
    ],
    "status": 0
}