{
    "state": "success",
    "sessionId": null,
    "class": "org.openqa.selenium.remote.Response",
    "value": {
        "element-6066-11e4-a52e-4f735466cecf": "4546fb3d-685f-4b81-ac6e-2e5d9d8b30a8"
    },
    "status": 0
}