{
    "state": "success",
    "sessionId": null,
    "class": "org.openqa.selenium.remote.Response",
    "value": [
        {
            "element-6066-11e4-a52e-4f735466cecf": "310cbd38-cd96-4a50-8c0b-8b037b56ad26"
        }
    ],
    "status": 0
}