{
    "state": "success",
    "sessionId": null,
    "class": "org.openqa.selenium.remote.Response",
    "value": [
        {
            "element-6066-11e4-a52e-4f735466cecf": "8e6497ce-6163-43ba-ad59-4fe07453b815"
        }
    ],
    "status": 0
}