{
    "state": "success",
    "sessionId": null,
    "class": "org.openqa.selenium.remote.Response",
    "value": [
        "CDwindow-3953618DD0A5579D6D7875A9F2D4451B",
        "CDwindow-E6FC2A8A7027CF8969C13E2916336F4B"
    ],
    "status": 0
}