{
    "state": "success",
    "sessionId": null,
    "class": "org.openqa.selenium.remote.Response",
    "value": [
        {
            "element-6066-11e4-a52e-4f735466cecf": "a20cf3a7-2cba-4c04-bda0-533ba2384f72"
        }
    ],
    "status": 0
}