{
    "state": "success",
    "sessionId": null,
    "class": "org.openqa.selenium.remote.Response",
    "value": {
        "element-6066-11e4-a52e-4f735466cecf": "c14b54af-e80d-4083-8f6a-6d618e4406be"
    },
    "status": 0
}