{
    "state": "success",
    "sessionId": null,
    "class": "org.openqa.selenium.remote.Response",
    "value": {
        "element-6066-11e4-a52e-4f735466cecf": "5cdcf005-d2aa-457f-8a47-272fb17949b4"
    },
    "status": 0
}