{
    "state": "success",
    "sessionId": null,
    "class": "org.openqa.selenium.remote.Response",
    "value": [
        {
            "element-6066-11e4-a52e-4f735466cecf": "44bf9a55-33a1-4ad5-88e7-890d835049cf"
        }
    ],
    "status": 0
}