{
    "state": "success",
    "sessionId": null,
    "class": "org.openqa.selenium.remote.Response",
    "value": [
        {
            "element-6066-11e4-a52e-4f735466cecf": "f8e12de2-89cd-41d5-8193-c5fe90b0e81e"
        }
    ],
    "status": 0
}