{
    "value": [
        "Q",
        "A",
        " ",
        "t",
        "e",
        "t",
        "s",
        " ",
        "r",
        "u",
        "l",
        "e",
        " ",
        "f",
        "o",
        "r",
        " ",
        "s",
        "h",
        "a",
        "r",
        "e",
        "c",
        "l",
        "a",
        "s",
        "s"
    ],
    "text": "QA tets rule for shareclass"
}