{
    "state": "success",
    "sessionId": null,
    "class": "org.openqa.selenium.remote.Response",
    "value": {
        "element-6066-11e4-a52e-4f735466cecf": "b5866016-1dc4-412b-95b4-bd6e9ff38660"
    },
    "status": 0
}