{
    "state": "success",
    "sessionId": null,
    "class": "org.openqa.selenium.remote.Response",
    "value": {
        "element-6066-11e4-a52e-4f735466cecf": "588d5bcb-7151-4383-bde4-514468dad7b5"
    },
    "status": 0
}