{
    "state": "success",
    "sessionId": null,
    "class": "org.openqa.selenium.remote.Response",
    "value": {
        "element-6066-11e4-a52e-4f735466cecf": "ba43bab5-35f0-408e-bc4a-0833bc200c57"
    },
    "status": 0
}