{
    "state": "success",
    "sessionId": null,
    "class": "org.openqa.selenium.remote.Response",
    "value": [
        {
            "element-6066-11e4-a52e-4f735466cecf": "00ea91d5-6aa0-47e1-8e94-cc61e4effcb9"
        }
    ],
    "status": 0
}