{
    "state": "success",
    "sessionId": null,
    "class": "org.openqa.selenium.remote.Response",
    "value": {
        "element-6066-11e4-a52e-4f735466cecf": "6e4c0c73-3d0d-45e4-8617-3352b754332a"
    },
    "status": 0
}