{
    "state": "success",
    "sessionId": null,
    "class": "org.openqa.selenium.remote.Response",
    "value": [
        {
            "element-6066-11e4-a52e-4f735466cecf": "34d9eaa8-968b-4f0f-ac5d-e2b95e138cea"
        }
    ],
    "status": 0
}