{
    "state": "success",
    "sessionId": null,
    "class": "org.openqa.selenium.remote.Response",
    "value": [
        {
            "element-6066-11e4-a52e-4f735466cecf": "7518ac13-4cba-4ca7-bb74-578e00b46690"
        }
    ],
    "status": 0
}