{
    "state": "success",
    "sessionId": null,
    "class": "org.openqa.selenium.remote.Response",
    "value": [
        {
            "element-6066-11e4-a52e-4f735466cecf": "f49854ed-c1a9-4614-a37d-13c8aa0c0698"
        }
    ],
    "status": 0
}