{
    "state": "success",
    "sessionId": null,
    "class": "org.openqa.selenium.remote.Response",
    "value": {
        "element-6066-11e4-a52e-4f735466cecf": "624b39ef-876b-4087-ae20-a190d4f5158b"
    },
    "status": 0
}