{
    "state": "success",
    "sessionId": null,
    "class": "org.openqa.selenium.remote.Response",
    "value": {
        "element-6066-11e4-a52e-4f735466cecf": "d968c3e1-76f3-4cb8-9af0-30030a700ecd"
    },
    "status": 0
}