{
    "state": "success",
    "sessionId": null,
    "class": "org.openqa.selenium.remote.Response",
    "value": {
        "element-6066-11e4-a52e-4f735466cecf": "b0ffbb86-0a14-4898-8fc7-a3dd96a4a8ab"
    },
    "status": 0
}