{
    "state": "success",
    "sessionId": null,
    "class": "org.openqa.selenium.remote.Response",
    "value": {
        "element-6066-11e4-a52e-4f735466cecf": "7c90f000-4844-4cc1-96e4-2571a5815768"
    },
    "status": 0
}