{
    "state": "success",
    "sessionId": null,
    "class": "org.openqa.selenium.remote.Response",
    "value": [
        {
            "element-6066-11e4-a52e-4f735466cecf": "4c539edc-f830-49c7-bb57-c4f7e97ca4fb"
        }
    ],
    "status": 0
}