{
    "state": "success",
    "sessionId": null,
    "class": "org.openqa.selenium.remote.Response",
    "value": {
        "element-6066-11e4-a52e-4f735466cecf": "4514b668-b196-407d-9419-d9dedb3028da"
    },
    "status": 0
}