{
    "state": "success",
    "sessionId": null,
    "class": "org.openqa.selenium.remote.Response",
    "value": {
        "element-6066-11e4-a52e-4f735466cecf": "59abc29e-f6a9-43e8-90dd-ca8cc6da871c"
    },
    "status": 0
}