{
    "state": "success",
    "sessionId": null,
    "class": "org.openqa.selenium.remote.Response",
    "value": {
        "element-6066-11e4-a52e-4f735466cecf": "c126e016-923e-4c05-b40a-d42409624731"
    },
    "status": 0
}