{
    "state": "success",
    "sessionId": null,
    "class": "org.openqa.selenium.remote.Response",
    "value": [
        {
            "element-6066-11e4-a52e-4f735466cecf": "ee1ea800-b36c-4df1-addb-8ff484df518f"
        }
    ],
    "status": 0
}