{
    "state": "success",
    "sessionId": null,
    "class": "org.openqa.selenium.remote.Response",
    "value": [
        {
            "element-6066-11e4-a52e-4f735466cecf": "9f58c325-ed6b-44ab-9bca-9f43077fd787"
        }
    ],
    "status": 0
}