{
    "state": "success",
    "sessionId": null,
    "class": "org.openqa.selenium.remote.Response",
    "value": {
        "element-6066-11e4-a52e-4f735466cecf": "75790a1d-7169-4fff-b626-8c9c890f99cf"
    },
    "status": 0
}