{
    "state": "success",
    "sessionId": null,
    "class": "org.openqa.selenium.remote.Response",
    "value": [
        {
            "element-6066-11e4-a52e-4f735466cecf": "fadb9e43-f07b-44b0-a4e6-ae81cc58cea1"
        }
    ],
    "status": 0
}