{
    "state": "success",
    "sessionId": null,
    "class": "org.openqa.selenium.remote.Response",
    "value": [
        {
            "element-6066-11e4-a52e-4f735466cecf": "7061d7de-c0b1-4351-982c-f64df60c1818"
        }
    ],
    "status": 0
}