{
    "state": "success",
    "sessionId": null,
    "class": "org.openqa.selenium.remote.Response",
    "value": [
        {
            "element-6066-11e4-a52e-4f735466cecf": "0514bd18-4e73-4064-a4f8-380fd3727e93"
        }
    ],
    "status": 0
}