{
    "state": "success",
    "sessionId": null,
    "class": "org.openqa.selenium.remote.Response",
    "value": {
        "element-6066-11e4-a52e-4f735466cecf": "811670b2-2408-4bb3-8fa0-415e8dd4d85d"
    },
    "status": 0
}