{
    "state": "success",
    "sessionId": null,
    "class": "org.openqa.selenium.remote.Response",
    "value": {
        "element-6066-11e4-a52e-4f735466cecf": "d1448978-7d4b-4c11-a5c8-ad4d7b09728b"
    },
    "status": 0
}