{
    "state": "success",
    "sessionId": null,
    "class": "org.openqa.selenium.remote.Response",
    "value": {
        "element-6066-11e4-a52e-4f735466cecf": "bc0ea600-44eb-4f53-ac69-12a7e9cb1454"
    },
    "status": 0
}