{
    "state": "success",
    "sessionId": null,
    "class": "org.openqa.selenium.remote.Response",
    "value": [
        {
            "element-6066-11e4-a52e-4f735466cecf": "68e75b0b-28e7-45e7-a7f1-2fe95058d43e"
        }
    ],
    "status": 0
}