{
    "state": "success",
    "sessionId": null,
    "class": "org.openqa.selenium.remote.Response",
    "value": {
        "element-6066-11e4-a52e-4f735466cecf": "5c1af8f2-e3a9-44a1-838f-7e79cea6a8fe"
    },
    "status": 0
}