{
    "state": "success",
    "sessionId": null,
    "class": "org.openqa.selenium.remote.Response",
    "value": {
        "element-6066-11e4-a52e-4f735466cecf": "9643ca89-98a3-4656-9f23-18d6376b05b4"
    },
    "status": 0
}