{
    "state": "success",
    "sessionId": null,
    "class": "org.openqa.selenium.remote.Response",
    "value": {
        "element-6066-11e4-a52e-4f735466cecf": "ca215785-0a19-4370-8087-876851b00bf8"
    },
    "status": 0
}