{
    "state": "success",
    "sessionId": null,
    "class": "org.openqa.selenium.remote.Response",
    "value": {
        "element-6066-11e4-a52e-4f735466cecf": "fdcd6c0b-e5ed-4e6a-851a-9d64ef59d34d"
    },
    "status": 0
}