{
    "state": "success",
    "sessionId": null,
    "class": "org.openqa.selenium.remote.Response",
    "value": {
        "element-6066-11e4-a52e-4f735466cecf": "8def9cf3-cb7d-4101-b1df-bc3eb0833a96"
    },
    "status": 0
}