{
    "state": "success",
    "sessionId": null,
    "class": "org.openqa.selenium.remote.Response",
    "value": [
        {
            "element-6066-11e4-a52e-4f735466cecf": "b98effc8-62bf-4982-a2ed-5f9f196440f4"
        }
    ],
    "status": 0
}