{
    "state": "success",
    "sessionId": null,
    "class": "org.openqa.selenium.remote.Response",
    "value": [
        {
            "element-6066-11e4-a52e-4f735466cecf": "3bae0da7-490b-460a-b02c-6f22a2708b61"
        }
    ],
    "status": 0
}