{
    "state": "success",
    "sessionId": null,
    "class": "org.openqa.selenium.remote.Response",
    "value": {
        "element-6066-11e4-a52e-4f735466cecf": "10162cc4-50c5-43ed-a7e8-d271695a1079"
    },
    "status": 0
}