{
    "state": "success",
    "sessionId": null,
    "class": "org.openqa.selenium.remote.Response",
    "value": {
        "element-6066-11e4-a52e-4f735466cecf": "a7678c3d-ec56-450e-9b3a-975b9fca2e8f"
    },
    "status": 0
}