{
    "state": "success",
    "sessionId": null,
    "class": "org.openqa.selenium.remote.Response",
    "value": [
        {
            "element-6066-11e4-a52e-4f735466cecf": "ee96c390-e20d-4d6e-afd8-44e676e136bd"
        }
    ],
    "status": 0
}