{
    "state": "success",
    "sessionId": null,
    "class": "org.openqa.selenium.remote.Response",
    "value": {
        "element-6066-11e4-a52e-4f735466cecf": "fa23c9a9-0d96-4333-b8f2-24aa3f6a4a01"
    },
    "status": 0
}