{
    "state": "success",
    "sessionId": null,
    "class": "org.openqa.selenium.remote.Response",
    "value": [
        {
            "element-6066-11e4-a52e-4f735466cecf": "3f3c64a5-d226-423d-83fa-00009d863be4"
        }
    ],
    "status": 0
}