{
    "state": "success",
    "sessionId": null,
    "class": "org.openqa.selenium.remote.Response",
    "value": {
        "element-6066-11e4-a52e-4f735466cecf": "b02910e3-db0c-4bb1-ae7c-bb0c131ab033"
    },
    "status": 0
}