{
    "state": "success",
    "sessionId": null,
    "class": "org.openqa.selenium.remote.Response",
    "value": {
        "element-6066-11e4-a52e-4f735466cecf": "84f8b72f-56b4-476f-b356-eaa60e218063"
    },
    "status": 0
}