{
    "state": "success",
    "sessionId": null,
    "class": "org.openqa.selenium.remote.Response",
    "value": [
        {
            "element-6066-11e4-a52e-4f735466cecf": "6426b7c0-1acf-42ca-9e1c-2f81c3fa0182"
        }
    ],
    "status": 0
}