{
    "state": "success",
    "sessionId": null,
    "class": "org.openqa.selenium.remote.Response",
    "value": {
        "element-6066-11e4-a52e-4f735466cecf": "b6ec4403-0f0f-47de-846b-2101c34cc9b2"
    },
    "status": 0
}