{
    "state": "success",
    "sessionId": null,
    "class": "org.openqa.selenium.remote.Response",
    "value": {
        "element-6066-11e4-a52e-4f735466cecf": "c71f953a-74b1-4ee5-a2a9-0f36d50ff7ea"
    },
    "status": 0
}