{
    "state": "success",
    "sessionId": null,
    "class": "org.openqa.selenium.remote.Response",
    "value": [
        {
            "element-6066-11e4-a52e-4f735466cecf": "46bcd4e0-b799-4492-8ca1-7ebdcadaa060"
        }
    ],
    "status": 0
}