{
    "state": "success",
    "sessionId": null,
    "class": "org.openqa.selenium.remote.Response",
    "value": [
        {
            "element-6066-11e4-a52e-4f735466cecf": "9d08e8da-42eb-4250-92d5-7728c70adbc7"
        }
    ],
    "status": 0
}