{
    "state": "success",
    "sessionId": null,
    "class": "org.openqa.selenium.remote.Response",
    "value": {
        "element-6066-11e4-a52e-4f735466cecf": "9930ea74-6383-4a6e-abd1-4c7d7e84f1ed"
    },
    "status": 0
}