{
    "state": "success",
    "sessionId": null,
    "class": "org.openqa.selenium.remote.Response",
    "value": {
        "element-6066-11e4-a52e-4f735466cecf": "bd59833b-5252-4870-a350-779aa60006e9"
    },
    "status": 0
}