{
    "state": "success",
    "sessionId": null,
    "class": "org.openqa.selenium.remote.Response",
    "value": [
        {
            "element-6066-11e4-a52e-4f735466cecf": "f739e934-f7fc-482d-9ae8-89b2fa9d1c36"
        }
    ],
    "status": 0
}