{
    "state": "success",
    "sessionId": null,
    "class": "org.openqa.selenium.remote.Response",
    "value": {
        "element-6066-11e4-a52e-4f735466cecf": "6e5e3e5c-d5fa-426f-bc35-6a03edd726a7"
    },
    "status": 0
}