{
    "state": "success",
    "sessionId": null,
    "class": "org.openqa.selenium.remote.Response",
    "value": {
        "element-6066-11e4-a52e-4f735466cecf": "fa6c263d-c732-479c-9c7a-4d5b4127dd67"
    },
    "status": 0
}