{
    "state": "success",
    "sessionId": null,
    "class": "org.openqa.selenium.remote.Response",
    "value": {
        "element-6066-11e4-a52e-4f735466cecf": "30f5117d-6eb5-4387-bf89-30103ae7672a"
    },
    "status": 0
}