{
    "state": "success",
    "sessionId": null,
    "class": "org.openqa.selenium.remote.Response",
    "value": {
        "element-6066-11e4-a52e-4f735466cecf": "f7b0a73e-5f75-4b74-87c8-44f617ca3586"
    },
    "status": 0
}