{
    "state": "success",
    "sessionId": null,
    "class": "org.openqa.selenium.remote.Response",
    "value": [
        {
            "element-6066-11e4-a52e-4f735466cecf": "5b981a9b-ae8e-4604-b934-4ddd1edbabaf"
        }
    ],
    "status": 0
}