{
    "state": "success",
    "sessionId": null,
    "class": "org.openqa.selenium.remote.Response",
    "value": {
        "element-6066-11e4-a52e-4f735466cecf": "24da7463-4579-45b7-81f0-7d42ed105091"
    },
    "status": 0
}