{
    "state": "success",
    "sessionId": null,
    "class": "org.openqa.selenium.remote.Response",
    "value": [
        {
            "element-6066-11e4-a52e-4f735466cecf": "00db7dc5-97ba-4648-be31-c479587a7c83"
        }
    ],
    "status": 0
}