{
    "state": "success",
    "sessionId": null,
    "class": "org.openqa.selenium.remote.Response",
    "value": {
        "element-6066-11e4-a52e-4f735466cecf": "5c9da6e6-8b02-485e-9969-edf699dc0b45"
    },
    "status": 0
}