{
    "state": "success",
    "sessionId": null,
    "class": "org.openqa.selenium.remote.Response",
    "value": [
        {
            "element-6066-11e4-a52e-4f735466cecf": "62b0d6f6-e56c-40c9-93e0-6e9ba42a7522"
        }
    ],
    "status": 0
}