{
    "state": "success",
    "sessionId": null,
    "class": "org.openqa.selenium.remote.Response",
    "value": {
        "element-6066-11e4-a52e-4f735466cecf": "279c7c01-a936-4b53-b255-1ae8ef529e06"
    },
    "status": 0
}