{
    "state": "success",
    "sessionId": null,
    "class": "org.openqa.selenium.remote.Response",
    "value": {
        "element-6066-11e4-a52e-4f735466cecf": "ac0c6d08-4efa-40c5-b665-570914acad28"
    },
    "status": 0
}