{
    "state": "success",
    "sessionId": null,
    "class": "org.openqa.selenium.remote.Response",
    "value": [
        {
            "element-6066-11e4-a52e-4f735466cecf": "559129d2-6b00-4e51-aac4-e4283ab2b801"
        }
    ],
    "status": 0
}