{
    "state": "success",
    "sessionId": null,
    "class": "org.openqa.selenium.remote.Response",
    "value": {
        "element-6066-11e4-a52e-4f735466cecf": "88b82a31-4d22-4a23-a4be-283ec324c5e3"
    },
    "status": 0
}