{
    "state": "success",
    "sessionId": null,
    "class": "org.openqa.selenium.remote.Response",
    "value": {
        "element-6066-11e4-a52e-4f735466cecf": "a412e6a7-4796-4cba-a678-28c676c9acaf"
    },
    "status": 0
}