{
    "state": "success",
    "sessionId": null,
    "class": "org.openqa.selenium.remote.Response",
    "value": {
        "element-6066-11e4-a52e-4f735466cecf": "4c4c73c7-c953-4c43-a456-1df0f393f104"
    },
    "status": 0
}