{
    "state": "success",
    "sessionId": null,
    "class": "org.openqa.selenium.remote.Response",
    "value": {
        "element-6066-11e4-a52e-4f735466cecf": "6518d6be-3ae9-4c15-a7f3-f7f8a19dddc7"
    },
    "status": 0
}