{
    "state": "success",
    "sessionId": null,
    "class": "org.openqa.selenium.remote.Response",
    "value": {
        "element-6066-11e4-a52e-4f735466cecf": "59f954d8-e333-4a54-afde-200a2047f989"
    },
    "status": 0
}