{
    "state": "success",
    "sessionId": null,
    "class": "org.openqa.selenium.remote.Response",
    "value": {
        "element-6066-11e4-a52e-4f735466cecf": "a6d0244f-858a-4792-ac53-96965b72c51b"
    },
    "status": 0
}