{
    "state": "success",
    "sessionId": null,
    "class": "org.openqa.selenium.remote.Response",
    "value": {
        "element-6066-11e4-a52e-4f735466cecf": "01ff9a4c-22d4-4a27-948e-acb4fa1287c7"
    },
    "status": 0
}