{
    "state": "success",
    "sessionId": null,
    "class": "org.openqa.selenium.remote.Response",
    "value": [
        {
            "element-6066-11e4-a52e-4f735466cecf": "bb62ba1a-dfab-4fbb-8c7b-f924fe08d683"
        }
    ],
    "status": 0
}