{
    "state": "success",
    "sessionId": null,
    "class": "org.openqa.selenium.remote.Response",
    "value": [
        {
            "element-6066-11e4-a52e-4f735466cecf": "f0be5f1e-10d0-43e9-8d87-51a2442fc016"
        }
    ],
    "status": 0
}