{
    "state": "success",
    "sessionId": null,
    "class": "org.openqa.selenium.remote.Response",
    "value": [
        {
            "element-6066-11e4-a52e-4f735466cecf": "7ab508c8-0bc6-4eee-bc4d-efea86dfebc1"
        }
    ],
    "status": 0
}