{
    "state": "success",
    "sessionId": null,
    "class": "org.openqa.selenium.remote.Response",
    "value": {
        "element-6066-11e4-a52e-4f735466cecf": "a7383716-fd34-4c71-8d3b-deef19d5a2f8"
    },
    "status": 0
}