{
    "state": "success",
    "sessionId": null,
    "class": "org.openqa.selenium.remote.Response",
    "value": {
        "element-6066-11e4-a52e-4f735466cecf": "ddeb0198-a0d5-4921-bfdb-5c12a5f9cd94"
    },
    "status": 0
}