{
    "state": "success",
    "sessionId": null,
    "class": "org.openqa.selenium.remote.Response",
    "value": {
        "element-6066-11e4-a52e-4f735466cecf": "47b54c5f-0bc0-4078-8ef5-c4a2fd707941"
    },
    "status": 0
}