{
    "state": "success",
    "sessionId": null,
    "class": "org.openqa.selenium.remote.Response",
    "value": [
        {
            "element-6066-11e4-a52e-4f735466cecf": "9100f247-8de2-4fe2-af35-785be1dc1ac5"
        }
    ],
    "status": 0
}