{
    "state": "success",
    "sessionId": null,
    "class": "org.openqa.selenium.remote.Response",
    "value": {
        "element-6066-11e4-a52e-4f735466cecf": "982caffa-9c1b-431c-80e3-43c4a684aacb"
    },
    "status": 0
}