{
    "state": "success",
    "sessionId": null,
    "class": "org.openqa.selenium.remote.Response",
    "value": {
        "element-6066-11e4-a52e-4f735466cecf": "fc7a3673-f593-4143-9df8-62e496b83f82"
    },
    "status": 0
}