{
    "state": "success",
    "sessionId": null,
    "class": "org.openqa.selenium.remote.Response",
    "value": [
        {
            "element-6066-11e4-a52e-4f735466cecf": "17b97fb9-9e97-45a3-adf1-369b913d1102"
        }
    ],
    "status": 0
}