{
    "state": "success",
    "sessionId": null,
    "class": "org.openqa.selenium.remote.Response",
    "value": [
        {
            "element-6066-11e4-a52e-4f735466cecf": "076b1ed3-e680-4c31-93cd-92de859b215e"
        }
    ],
    "status": 0
}