{
    "state": "success",
    "sessionId": null,
    "class": "org.openqa.selenium.remote.Response",
    "value": [
        {
            "element-6066-11e4-a52e-4f735466cecf": "7ea4afa6-d265-4e66-9871-411c9b3db907"
        }
    ],
    "status": 0
}