{
    "state": "success",
    "sessionId": null,
    "class": "org.openqa.selenium.remote.Response",
    "value": {
        "element-6066-11e4-a52e-4f735466cecf": "b06483d0-2d98-4e6d-9a27-36253c5860ca"
    },
    "status": 0
}