{
    "state": "success",
    "sessionId": null,
    "class": "org.openqa.selenium.remote.Response",
    "value": [
        {
            "element-6066-11e4-a52e-4f735466cecf": "ff820801-e211-493c-b34d-6190b041acaa"
        }
    ],
    "status": 0
}