{
    "state": "success",
    "sessionId": null,
    "class": "org.openqa.selenium.remote.Response",
    "value": [
        {
            "element-6066-11e4-a52e-4f735466cecf": "28ac6254-ead6-4224-8f7f-62e3a99b3307"
        }
    ],
    "status": 0
}