{
    "state": "success",
    "sessionId": null,
    "class": "org.openqa.selenium.remote.Response",
    "value": [
        {
            "element-6066-11e4-a52e-4f735466cecf": "df182aea-6dff-421f-b927-62053a3b7584"
        }
    ],
    "status": 0
}