{
    "state": "success",
    "sessionId": null,
    "class": "org.openqa.selenium.remote.Response",
    "value": [
        {
            "element-6066-11e4-a52e-4f735466cecf": "53d3320a-1813-42b5-abc2-6d711e1ad35f"
        }
    ],
    "status": 0
}