{
    "state": "success",
    "sessionId": null,
    "class": "org.openqa.selenium.remote.Response",
    "value": {
        "element-6066-11e4-a52e-4f735466cecf": "d0eb77ec-7893-4f7a-a0b8-8ad42f9c49cf"
    },
    "status": 0
}