{
    "state": "success",
    "sessionId": null,
    "class": "org.openqa.selenium.remote.Response",
    "value": [
        {
            "element-6066-11e4-a52e-4f735466cecf": "1ba521e6-cc09-4b0b-b17c-8e80695afc17"
        }
    ],
    "status": 0
}