{
    "state": "success",
    "sessionId": null,
    "class": "org.openqa.selenium.remote.Response",
    "value": [
        {
            "element-6066-11e4-a52e-4f735466cecf": "7eb9df29-0d5f-48ae-b900-2b82228aa337"
        }
    ],
    "status": 0
}