{
    "state": "success",
    "sessionId": null,
    "class": "org.openqa.selenium.remote.Response",
    "value": [
        {
            "element-6066-11e4-a52e-4f735466cecf": "be89d6c7-7d01-4a6d-96d7-94426667e38d"
        }
    ],
    "status": 0
}