{
    "state": "success",
    "sessionId": null,
    "class": "org.openqa.selenium.remote.Response",
    "value": {
        "element-6066-11e4-a52e-4f735466cecf": "903ec31f-220b-4d88-b5d0-c2b4ee95702c"
    },
    "status": 0
}