{
    "state": "success",
    "sessionId": null,
    "class": "org.openqa.selenium.remote.Response",
    "value": [
        {
            "element-6066-11e4-a52e-4f735466cecf": "0a66e610-3400-4faa-8313-ab3cc2b1fe29"
        }
    ],
    "status": 0
}