{
    "state": "success",
    "sessionId": null,
    "class": "org.openqa.selenium.remote.Response",
    "value": {
        "element-6066-11e4-a52e-4f735466cecf": "fc975201-fd2e-45cc-a1e5-2d0b7f34b62e"
    },
    "status": 0
}