{
    "state": "success",
    "sessionId": null,
    "class": "org.openqa.selenium.remote.Response",
    "value": [
        {
            "element-6066-11e4-a52e-4f735466cecf": "ce9cd8e0-ea53-483d-b9b5-c549509d488f"
        }
    ],
    "status": 0
}