{
    "state": "success",
    "sessionId": null,
    "class": "org.openqa.selenium.remote.Response",
    "value": {
        "element-6066-11e4-a52e-4f735466cecf": "9da5d5e3-686b-4803-9a07-5e1a3e0af825"
    },
    "status": 0
}