{
    "state": "success",
    "sessionId": null,
    "class": "org.openqa.selenium.remote.Response",
    "value": {
        "element-6066-11e4-a52e-4f735466cecf": "175a7788-3253-4a28-aab3-6e6b316df660"
    },
    "status": 0
}