{
    "state": "success",
    "sessionId": null,
    "class": "org.openqa.selenium.remote.Response",
    "value": {
        "element-6066-11e4-a52e-4f735466cecf": "db0bbda9-2520-47ba-ad94-bdad7f331704"
    },
    "status": 0
}