{
    "state": "success",
    "sessionId": null,
    "class": "org.openqa.selenium.remote.Response",
    "value": {
        "element-6066-11e4-a52e-4f735466cecf": "54517923-5bff-4999-b009-32b5d73399e6"
    },
    "status": 0
}