{
    "state": "success",
    "sessionId": null,
    "class": "org.openqa.selenium.remote.Response",
    "value": {
        "element-6066-11e4-a52e-4f735466cecf": "34f80694-f5a8-4675-964c-c94034c960fa"
    },
    "status": 0
}