{
    "state": "success",
    "sessionId": null,
    "class": "org.openqa.selenium.remote.Response",
    "value": {
        "element-6066-11e4-a52e-4f735466cecf": "de0fdab0-3d59-4b05-8cb6-315b28ec33be"
    },
    "status": 0
}