{
    "state": "success",
    "sessionId": null,
    "class": "org.openqa.selenium.remote.Response",
    "value": [
        {
            "element-6066-11e4-a52e-4f735466cecf": "0edbcb97-0ec2-4858-803f-607dacb83767"
        }
    ],
    "status": 0
}