{
    "state": "success",
    "sessionId": null,
    "class": "org.openqa.selenium.remote.Response",
    "value": [
        {
            "element-6066-11e4-a52e-4f735466cecf": "abad973c-d027-4b26-bded-8fb6f73df7a3"
        }
    ],
    "status": 0
}