{
    "state": "success",
    "sessionId": null,
    "class": "org.openqa.selenium.remote.Response",
    "value": {
        "element-6066-11e4-a52e-4f735466cecf": "27eff5df-6ffb-425b-894b-b35559db684a"
    },
    "status": 0
}