{
    "state": "success",
    "sessionId": null,
    "class": "org.openqa.selenium.remote.Response",
    "value": {
        "element-6066-11e4-a52e-4f735466cecf": "7bf21f4d-ac64-468b-9908-f3afbceca92b"
    },
    "status": 0
}