{
    "state": "success",
    "sessionId": null,
    "class": "org.openqa.selenium.remote.Response",
    "value": [
        {
            "element-6066-11e4-a52e-4f735466cecf": "1cfbb736-fe92-484f-a821-433d5153c9b5"
        }
    ],
    "status": 0
}