{
    "state": "success",
    "sessionId": null,
    "class": "org.openqa.selenium.remote.Response",
    "value": {
        "element-6066-11e4-a52e-4f735466cecf": "8ea883ef-b716-47eb-808d-5c8f1149a36d"
    },
    "status": 0
}