{
    "state": "success",
    "sessionId": null,
    "class": "org.openqa.selenium.remote.Response",
    "value": {
        "element-6066-11e4-a52e-4f735466cecf": "e66dd252-2d2d-4e44-84de-a2fd754d38a6"
    },
    "status": 0
}