{
    "state": "success",
    "sessionId": null,
    "class": "org.openqa.selenium.remote.Response",
    "value": {
        "element-6066-11e4-a52e-4f735466cecf": "1f885370-811f-41da-a24e-83db1bf9d3a0"
    },
    "status": 0
}