{
    "state": "success",
    "sessionId": null,
    "class": "org.openqa.selenium.remote.Response",
    "value": [
        {
            "element-6066-11e4-a52e-4f735466cecf": "b4160e28-9b65-492f-889b-e28094424302"
        }
    ],
    "status": 0
}