{
    "state": "success",
    "sessionId": null,
    "class": "org.openqa.selenium.remote.Response",
    "value": {
        "element-6066-11e4-a52e-4f735466cecf": "616dd9dd-8b81-4fda-8532-2843c5b5a2b8"
    },
    "status": 0
}