{
    "state": "success",
    "sessionId": null,
    "class": "org.openqa.selenium.remote.Response",
    "value": {
        "element-6066-11e4-a52e-4f735466cecf": "d23c3245-6063-4c7b-ab49-604d89f52233"
    },
    "status": 0
}