{
    "state": "success",
    "sessionId": null,
    "class": "org.openqa.selenium.remote.Response",
    "value": {
        "element-6066-11e4-a52e-4f735466cecf": "0ac8059d-88ce-4fdc-b1ab-ff78fdb18378"
    },
    "status": 0
}