{
    "state": "success",
    "sessionId": null,
    "class": "org.openqa.selenium.remote.Response",
    "value": {
        "element-6066-11e4-a52e-4f735466cecf": "d1f9f89e-6d1f-4df8-a0a3-1a5798661f76"
    },
    "status": 0
}