{
    "state": "success",
    "sessionId": null,
    "class": "org.openqa.selenium.remote.Response",
    "value": [
        "CDwindow-AECB64A073A08AD8E3884DB98B2C2B3B",
        "CDwindow-8B00966707625E26E893A4D0AAA34881",
        "CDwindow-9BA07BA8331019A7153EA9F4897B0C73"
    ],
    "status": 0
}