{
    "state": "success",
    "sessionId": null,
    "class": "org.openqa.selenium.remote.Response",
    "value": [
        {
            "element-6066-11e4-a52e-4f735466cecf": "78c651b5-61e8-4bb0-8e4b-ce59e41eb7d3"
        }
    ],
    "status": 0
}