{
    "state": "success",
    "sessionId": null,
    "class": "org.openqa.selenium.remote.Response",
    "value": {
        "element-6066-11e4-a52e-4f735466cecf": "675f102d-71ac-4745-984a-ba1d12a36438"
    },
    "status": 0
}