{
    "state": "success",
    "sessionId": null,
    "class": "org.openqa.selenium.remote.Response",
    "value": [
        {
            "element-6066-11e4-a52e-4f735466cecf": "54f21b90-b3b3-4c54-8913-67050c629d82"
        }
    ],
    "status": 0
}