{
    "state": "success",
    "sessionId": null,
    "class": "org.openqa.selenium.remote.Response",
    "value": {
        "element-6066-11e4-a52e-4f735466cecf": "695ff41c-3580-48c6-9a6c-07c656180e78"
    },
    "status": 0
}