{
    "state": "success",
    "sessionId": null,
    "class": "org.openqa.selenium.remote.Response",
    "value": {
        "element-6066-11e4-a52e-4f735466cecf": "edc01724-f791-4f34-9f1c-29f0b2ba4332"
    },
    "status": 0
}