{
    "state": "success",
    "sessionId": null,
    "class": "org.openqa.selenium.remote.Response",
    "value": [
        {
            "element-6066-11e4-a52e-4f735466cecf": "ce66a795-bd98-45f5-a8c5-77e9179e3652"
        }
    ],
    "status": 0
}