{
    "state": "success",
    "sessionId": null,
    "class": "org.openqa.selenium.remote.Response",
    "value": {
        "element-6066-11e4-a52e-4f735466cecf": "76870597-c491-4b6c-b921-748b3784cd32"
    },
    "status": 0
}