{
    "state": "success",
    "sessionId": null,
    "class": "org.openqa.selenium.remote.Response",
    "value": {
        "element-6066-11e4-a52e-4f735466cecf": "1cc99540-5a36-488a-a56b-a0ceebdd6896"
    },
    "status": 0
}