{
    "state": "success",
    "sessionId": null,
    "class": "org.openqa.selenium.remote.Response",
    "value": {
        "element-6066-11e4-a52e-4f735466cecf": "8a8db540-0d00-4f19-a016-3ca1e85e126d"
    },
    "status": 0
}