{
    "state": "success",
    "sessionId": null,
    "class": "org.openqa.selenium.remote.Response",
    "value": [
        {
            "element-6066-11e4-a52e-4f735466cecf": "96a7367c-4eb9-476d-8800-beca66e469a5"
        }
    ],
    "status": 0
}