{
    "state": "success",
    "sessionId": null,
    "class": "org.openqa.selenium.remote.Response",
    "value": {
        "element-6066-11e4-a52e-4f735466cecf": "b14f9315-1264-4430-a376-b8250e33d502"
    },
    "status": 0
}