{
    "state": "success",
    "sessionId": null,
    "class": "org.openqa.selenium.remote.Response",
    "value": [
        {
            "element-6066-11e4-a52e-4f735466cecf": "05b41bf6-b822-4f3b-a5a8-3d70335ec9f4"
        }
    ],
    "status": 0
}