{
    "state": "success",
    "sessionId": null,
    "class": "org.openqa.selenium.remote.Response",
    "value": {
        "element-6066-11e4-a52e-4f735466cecf": "1302574f-2a09-411d-a9d0-0bd511c9c07e"
    },
    "status": 0
}