{
    "state": "success",
    "sessionId": null,
    "class": "org.openqa.selenium.remote.Response",
    "value": {
        "element-6066-11e4-a52e-4f735466cecf": "02a0b044-ece6-4fb0-bb35-8da24ca48f95"
    },
    "status": 0
}