{
    "state": "success",
    "sessionId": null,
    "class": "org.openqa.selenium.remote.Response",
    "value": {
        "element-6066-11e4-a52e-4f735466cecf": "aa41d93a-40ee-4349-881c-703024c5fe2d"
    },
    "status": 0
}