{
    "state": "success",
    "sessionId": null,
    "class": "org.openqa.selenium.remote.Response",
    "value": {
        "element-6066-11e4-a52e-4f735466cecf": "2dd48488-abb7-468b-a2da-2006916e28b3"
    },
    "status": 0
}