{
    "state": "success",
    "sessionId": null,
    "class": "org.openqa.selenium.remote.Response",
    "value": {
        "element-6066-11e4-a52e-4f735466cecf": "e5929fd1-7ffa-4ea9-9aee-4a47348306b7"
    },
    "status": 0
}