{
    "state": "success",
    "sessionId": null,
    "class": "org.openqa.selenium.remote.Response",
    "value": [
        {
            "element-6066-11e4-a52e-4f735466cecf": "2cf6b7ac-8520-43e3-8abd-21245cdbd94e"
        }
    ],
    "status": 0
}