{
    "state": "success",
    "sessionId": null,
    "class": "org.openqa.selenium.remote.Response",
    "value": [
        {
            "element-6066-11e4-a52e-4f735466cecf": "55993816-1cb3-42ff-9f46-a2e9aa0144d6"
        }
    ],
    "status": 0
}