{
    "state": "success",
    "sessionId": null,
    "class": "org.openqa.selenium.remote.Response",
    "value": {
        "element-6066-11e4-a52e-4f735466cecf": "7a1f6c33-cbdd-4152-9320-1670802ab39f"
    },
    "status": 0
}