{
    "state": "success",
    "sessionId": null,
    "class": "org.openqa.selenium.remote.Response",
    "value": [
        {
            "element-6066-11e4-a52e-4f735466cecf": "6749d403-f736-47ac-90d6-3b43e84ab663"
        }
    ],
    "status": 0
}