{
    "state": "success",
    "sessionId": null,
    "class": "org.openqa.selenium.remote.Response",
    "value": {
        "element-6066-11e4-a52e-4f735466cecf": "c812ab07-0944-4c81-a935-6f0e0457a2db"
    },
    "status": 0
}