{
    "state": "success",
    "sessionId": null,
    "class": "org.openqa.selenium.remote.Response",
    "value": [
        {
            "element-6066-11e4-a52e-4f735466cecf": "1920fa50-3883-4df0-bbfa-6753be20fea3"
        }
    ],
    "status": 0
}