{
    "state": "success",
    "sessionId": null,
    "class": "org.openqa.selenium.remote.Response",
    "value": [
        {
            "element-6066-11e4-a52e-4f735466cecf": "283b7a7a-54a8-4d59-a862-82ba5afdaf0a"
        }
    ],
    "status": 0
}