{
    "state": "success",
    "sessionId": null,
    "class": "org.openqa.selenium.remote.Response",
    "value": {
        "element-6066-11e4-a52e-4f735466cecf": "e8707620-3d95-4835-a9cf-a8e683d343c4"
    },
    "status": 0
}