{
    "state": "success",
    "sessionId": null,
    "class": "org.openqa.selenium.remote.Response",
    "value": {
        "element-6066-11e4-a52e-4f735466cecf": "0eb0e181-efda-40cb-8b08-12dd253d410d"
    },
    "status": 0
}