{
    "state": "success",
    "sessionId": null,
    "class": "org.openqa.selenium.remote.Response",
    "value": {
        "element-6066-11e4-a52e-4f735466cecf": "c74d3d99-d695-4cf7-b1a4-b8328770281d"
    },
    "status": 0
}