{
    "state": "success",
    "sessionId": null,
    "class": "org.openqa.selenium.remote.Response",
    "value": [
        {
            "element-6066-11e4-a52e-4f735466cecf": "ed9dba26-c238-4bb5-9f68-cf5a98d9fbf1"
        }
    ],
    "status": 0
}