{
    "state": "success",
    "sessionId": null,
    "class": "org.openqa.selenium.remote.Response",
    "value": [
        {
            "element-6066-11e4-a52e-4f735466cecf": "9844b286-845b-42a7-8b13-10135bfbfdb8"
        }
    ],
    "status": 0
}