{
    "state": "success",
    "sessionId": null,
    "class": "org.openqa.selenium.remote.Response",
    "value": {
        "element-6066-11e4-a52e-4f735466cecf": "8e32631e-446c-462e-ba33-66be71039810"
    },
    "status": 0
}