{
    "state": "success",
    "sessionId": null,
    "class": "org.openqa.selenium.remote.Response",
    "value": {
        "element-6066-11e4-a52e-4f735466cecf": "b9e31f40-47dc-485a-8ba3-465c39493f10"
    },
    "status": 0
}