{
    "state": "success",
    "sessionId": null,
    "class": "org.openqa.selenium.remote.Response",
    "value": {
        "element-6066-11e4-a52e-4f735466cecf": "003aad22-4f17-4872-9437-3a35cea8c123"
    },
    "status": 0
}