{
    "state": "success",
    "sessionId": null,
    "class": "org.openqa.selenium.remote.Response",
    "value": {
        "element-6066-11e4-a52e-4f735466cecf": "0edab4ec-89fd-4da9-b8e6-c31e3dd6b1a4"
    },
    "status": 0
}