{
    "state": "success",
    "sessionId": null,
    "class": "org.openqa.selenium.remote.Response",
    "value": [
        {
            "element-6066-11e4-a52e-4f735466cecf": "03c6980e-3bd3-4acd-b001-363249598dab"
        }
    ],
    "status": 0
}