{
    "state": "success",
    "sessionId": null,
    "class": "org.openqa.selenium.remote.Response",
    "value": [
        {
            "element-6066-11e4-a52e-4f735466cecf": "f2ac6dbc-a119-41c3-905d-f5a1439bd42a"
        }
    ],
    "status": 0
}