{
    "state": "success",
    "sessionId": null,
    "class": "org.openqa.selenium.remote.Response",
    "value": [
        {
            "element-6066-11e4-a52e-4f735466cecf": "6ff79007-34b9-4a65-9eb4-422e21c227fd"
        }
    ],
    "status": 0
}