{
    "state": "success",
    "sessionId": null,
    "class": "org.openqa.selenium.remote.Response",
    "value": [
        {
            "element-6066-11e4-a52e-4f735466cecf": "a7471cdb-66e9-4076-af1c-071f7ae46cc3"
        }
    ],
    "status": 0
}