{
    "state": "success",
    "sessionId": null,
    "class": "org.openqa.selenium.remote.Response",
    "value": {
        "element-6066-11e4-a52e-4f735466cecf": "f9344df3-c0a4-4e12-a8d7-735e978525ab"
    },
    "status": 0
}