{
    "state": "success",
    "sessionId": null,
    "class": "org.openqa.selenium.remote.Response",
    "value": {
        "element-6066-11e4-a52e-4f735466cecf": "3731c86f-98d1-4d4a-9738-da60ee7085ac"
    },
    "status": 0
}