{
    "state": "success",
    "sessionId": null,
    "class": "org.openqa.selenium.remote.Response",
    "value": [
        {
            "element-6066-11e4-a52e-4f735466cecf": "47de022a-a0e1-4d08-ba6d-6c083fd3b4a9"
        }
    ],
    "status": 0
}