{
    "state": "success",
    "sessionId": null,
    "class": "org.openqa.selenium.remote.Response",
    "value": {
        "element-6066-11e4-a52e-4f735466cecf": "548bb378-5306-4517-92c7-64b4802a488e"
    },
    "status": 0
}