{
    "state": "success",
    "sessionId": null,
    "class": "org.openqa.selenium.remote.Response",
    "value": [
        {
            "element-6066-11e4-a52e-4f735466cecf": "160840fe-1d7d-4a6e-ba74-4e972c7c022a"
        }
    ],
    "status": 0
}