{
    "state": "success",
    "sessionId": null,
    "class": "org.openqa.selenium.remote.Response",
    "value": [
        {
            "element-6066-11e4-a52e-4f735466cecf": "18a4bbb7-127e-45ac-b22e-bfcd723a5ad4"
        }
    ],
    "status": 0
}