{
    "state": "success",
    "sessionId": null,
    "class": "org.openqa.selenium.remote.Response",
    "value": {
        "element-6066-11e4-a52e-4f735466cecf": "1e0701b4-a126-4829-b9cc-7161ebab244e"
    },
    "status": 0
}