{
    "state": "success",
    "sessionId": null,
    "class": "org.openqa.selenium.remote.Response",
    "value": {
        "element-6066-11e4-a52e-4f735466cecf": "4ef1a526-a960-417a-b9c5-4031dfaeb97f"
    },
    "status": 0
}