{
    "state": "success",
    "sessionId": null,
    "class": "org.openqa.selenium.remote.Response",
    "value": {
        "element-6066-11e4-a52e-4f735466cecf": "28d73f9b-553a-474b-9f74-0e1d0c404696"
    },
    "status": 0
}