{
    "state": "success",
    "sessionId": null,
    "class": "org.openqa.selenium.remote.Response",
    "value": {
        "element-6066-11e4-a52e-4f735466cecf": "7a8a0754-b34a-4e31-9aa9-88a09db939d9"
    },
    "status": 0
}