{
    "state": "success",
    "sessionId": null,
    "class": "org.openqa.selenium.remote.Response",
    "value": [
        {
            "element-6066-11e4-a52e-4f735466cecf": "62738edc-2d23-4173-b0ee-44fb9a6ad002"
        }
    ],
    "status": 0
}