{
    "state": "success",
    "sessionId": null,
    "class": "org.openqa.selenium.remote.Response",
    "value": [
        {
            "element-6066-11e4-a52e-4f735466cecf": "ee8ba296-aa5e-4eb8-adfb-0fc5fe37a38c"
        }
    ],
    "status": 0
}