{
    "state": "success",
    "sessionId": null,
    "class": "org.openqa.selenium.remote.Response",
    "value": [
        {
            "element-6066-11e4-a52e-4f735466cecf": "b9f75b14-d799-4030-9bd0-ecd37e09b6a4"
        }
    ],
    "status": 0
}