{
    "state": "success",
    "sessionId": null,
    "class": "org.openqa.selenium.remote.Response",
    "value": {
        "element-6066-11e4-a52e-4f735466cecf": "6deb002b-b8eb-4c0a-9a41-765d67fe7bea"
    },
    "status": 0
}