{
    "state": "success",
    "sessionId": null,
    "class": "org.openqa.selenium.remote.Response",
    "value": [
        {
            "element-6066-11e4-a52e-4f735466cecf": "03d61185-bb37-4adf-8ee3-d0e9d40b92b5"
        }
    ],
    "status": 0
}