{
    "state": "success",
    "sessionId": null,
    "class": "org.openqa.selenium.remote.Response",
    "value": [
        {
            "element-6066-11e4-a52e-4f735466cecf": "d2daae8e-431e-440b-b43c-821c912b1b22"
        }
    ],
    "status": 0
}