{
    "state": "success",
    "sessionId": null,
    "class": "org.openqa.selenium.remote.Response",
    "value": [
        {
            "element-6066-11e4-a52e-4f735466cecf": "99cc42f7-666f-4ee5-94cc-2a46cc9b789d"
        }
    ],
    "status": 0
}