{
    "state": "success",
    "sessionId": null,
    "class": "org.openqa.selenium.remote.Response",
    "value": [
        {
            "element-6066-11e4-a52e-4f735466cecf": "88721c9e-e8d0-41f5-aaf6-e5ea11707cdf"
        }
    ],
    "status": 0
}