{
    "state": "success",
    "sessionId": null,
    "class": "org.openqa.selenium.remote.Response",
    "value": {
        "element-6066-11e4-a52e-4f735466cecf": "65271308-5d89-4aa4-9153-86540d56dd45"
    },
    "status": 0
}