{
    "state": "success",
    "sessionId": null,
    "class": "org.openqa.selenium.remote.Response",
    "value": {
        "element-6066-11e4-a52e-4f735466cecf": "cf834c60-e3e8-4963-be15-657a8ac7ce64"
    },
    "status": 0
}