{
    "state": "success",
    "sessionId": null,
    "class": "org.openqa.selenium.remote.Response",
    "value": {
        "element-6066-11e4-a52e-4f735466cecf": "60c5c1a4-bdf7-4062-a0e1-7484e72d5ab4"
    },
    "status": 0
}