{
    "state": "success",
    "sessionId": null,
    "class": "org.openqa.selenium.remote.Response",
    "value": {
        "element-6066-11e4-a52e-4f735466cecf": "32404010-1306-49ac-aeae-4b441d7422b0"
    },
    "status": 0
}