{
    "state": "success",
    "sessionId": null,
    "class": "org.openqa.selenium.remote.Response",
    "value": [
        {
            "element-6066-11e4-a52e-4f735466cecf": "ac77e649-6bb0-461e-a9a2-ac459cfe8da8"
        }
    ],
    "status": 0
}