{
    "state": "success",
    "sessionId": null,
    "class": "org.openqa.selenium.remote.Response",
    "value": {
        "element-6066-11e4-a52e-4f735466cecf": "0676e6c8-aa3e-44ef-96f6-cb08b5e5812d"
    },
    "status": 0
}