{
    "state": "success",
    "sessionId": null,
    "class": "org.openqa.selenium.remote.Response",
    "value": {
        "element-6066-11e4-a52e-4f735466cecf": "40b2791c-1613-47db-945a-37c470092913"
    },
    "status": 0
}