{
    "state": "success",
    "sessionId": null,
    "class": "org.openqa.selenium.remote.Response",
    "value": {
        "element-6066-11e4-a52e-4f735466cecf": "aacae253-e864-4a4a-b317-068b0b4336a6"
    },
    "status": 0
}