{
    "state": "success",
    "sessionId": null,
    "class": "org.openqa.selenium.remote.Response",
    "value": [
        {
            "element-6066-11e4-a52e-4f735466cecf": "020674f0-9b91-4bc3-8f15-e4f42602d343"
        }
    ],
    "status": 0
}