{
    "state": "success",
    "sessionId": null,
    "class": "org.openqa.selenium.remote.Response",
    "value": [
        {
            "element-6066-11e4-a52e-4f735466cecf": "c99da99a-c3b9-4023-902e-828c508c29e7"
        }
    ],
    "status": 0
}