{
    "state": "success",
    "sessionId": null,
    "class": "org.openqa.selenium.remote.Response",
    "value": {
        "element-6066-11e4-a52e-4f735466cecf": "1ab826c1-dbeb-43a9-ab61-7df7f5078625"
    },
    "status": 0
}