{
    "state": "success",
    "sessionId": null,
    "class": "org.openqa.selenium.remote.Response",
    "value": {
        "element-6066-11e4-a52e-4f735466cecf": "aaa82642-7e94-4f6d-b2d4-bd24675542a1"
    },
    "status": 0
}