{
    "state": "success",
    "sessionId": null,
    "class": "org.openqa.selenium.remote.Response",
    "value": [
        {
            "element-6066-11e4-a52e-4f735466cecf": "ea8b8576-51f1-428e-99be-19c055e4b012"
        }
    ],
    "status": 0
}