{
    "state": "success",
    "sessionId": null,
    "class": "org.openqa.selenium.remote.Response",
    "value": {
        "element-6066-11e4-a52e-4f735466cecf": "8515c89c-c927-450c-b375-b099bc65c61a"
    },
    "status": 0
}