{
    "message": "no such window: window was already closed",
    "type": "RuntimeError",
    "seleniumStack": {
        "type": "NoSuchWindow",
        "message": "A request to switch to a different window could not be satisfied because the window could not be found.",
        "orgStatusMessage": "no such window: window was already closed\n  (Session info: chrome=103.0.5060.134)\nBuild info: version: '3.141.59', revision: 'e82be7d358', time: '2018-11-14T08:25:53'\nSystem info: host: 'Amoghas-MacBook-Air.local', ip: 'fe80:0:0:0:c3a:d474:6e47:4364%en0', os.name: 'Mac OS X', os.arch: 'x86_64', os.version: '10.15.7', java.version: '16.0.1'\nDriver info: driver.version: unknown"
    }
}