{
    "state": "success",
    "sessionId": null,
    "class": "org.openqa.selenium.remote.Response",
    "value": [
        {
            "element-6066-11e4-a52e-4f735466cecf": "c5de9236-776f-4649-bc82-7d89d78caa8a"
        }
    ],
    "status": 0
}