{
    "state": "success",
    "sessionId": null,
    "class": "org.openqa.selenium.remote.Response",
    "value": [
        {
            "element-6066-11e4-a52e-4f735466cecf": "9782c65d-a2ac-4e66-ae2a-73d53bf08726"
        }
    ],
    "status": 0
}