{
    "state": "success",
    "sessionId": null,
    "class": "org.openqa.selenium.remote.Response",
    "value": {
        "element-6066-11e4-a52e-4f735466cecf": "7b6cb172-07ed-4ee9-84a7-ff92ecdfe7c3"
    },
    "status": 0
}