{
    "state": "success",
    "sessionId": null,
    "class": "org.openqa.selenium.remote.Response",
    "value": {
        "element-6066-11e4-a52e-4f735466cecf": "3c775e25-e921-4884-8a18-57450ab03416"
    },
    "status": 0
}