{
    "state": "success",
    "sessionId": null,
    "class": "org.openqa.selenium.remote.Response",
    "value": [
        {
            "element-6066-11e4-a52e-4f735466cecf": "a7ac514c-452a-435f-aa20-71d0d5c294d4"
        }
    ],
    "status": 0
}