{
    "state": "success",
    "sessionId": null,
    "class": "org.openqa.selenium.remote.Response",
    "value": {
        "element-6066-11e4-a52e-4f735466cecf": "eb91f79d-b49f-41fc-b5fc-0aca2628c2df"
    },
    "status": 0
}