{
    "state": "success",
    "sessionId": null,
    "class": "org.openqa.selenium.remote.Response",
    "value": [
        {
            "element-6066-11e4-a52e-4f735466cecf": "85433f9e-9322-4b02-aef3-3001a1827b94"
        }
    ],
    "status": 0
}