{
    "state": "success",
    "sessionId": null,
    "class": "org.openqa.selenium.remote.Response",
    "value": {
        "element-6066-11e4-a52e-4f735466cecf": "82bb2098-888c-4554-bda4-5f81593e76b2"
    },
    "status": 0
}