{
    "state": "success",
    "sessionId": null,
    "class": "org.openqa.selenium.remote.Response",
    "value": [
        {
            "element-6066-11e4-a52e-4f735466cecf": "cad9b985-a74d-426e-b997-0b7225edcfe8"
        }
    ],
    "status": 0
}