{
    "state": "success",
    "sessionId": null,
    "class": "org.openqa.selenium.remote.Response",
    "value": {
        "element-6066-11e4-a52e-4f735466cecf": "1699d2d0-e196-4cf7-a213-c0525de3d758"
    },
    "status": 0
}