{
    "state": "success",
    "sessionId": null,
    "class": "org.openqa.selenium.remote.Response",
    "value": [
        {
            "element-6066-11e4-a52e-4f735466cecf": "15c49881-8635-429c-a402-d4b9332cf6e8"
        }
    ],
    "status": 0
}