{
    "state": "success",
    "sessionId": null,
    "class": "org.openqa.selenium.remote.Response",
    "value": [
        {
            "element-6066-11e4-a52e-4f735466cecf": "6f93d72e-8c02-427b-b7fd-91f5c6763b1f"
        }
    ],
    "status": 0
}