{
    "state": "success",
    "sessionId": null,
    "class": "org.openqa.selenium.remote.Response",
    "value": {
        "element-6066-11e4-a52e-4f735466cecf": "2dfd9818-a2a8-4f94-8f79-f7a6471db284"
    },
    "status": 0
}