{
    "state": "success",
    "sessionId": null,
    "class": "org.openqa.selenium.remote.Response",
    "value": [
        {
            "element-6066-11e4-a52e-4f735466cecf": "9c9b1016-278c-445f-be96-b2040d1e863e"
        }
    ],
    "status": 0
}