{
    "state": "success",
    "sessionId": null,
    "class": "org.openqa.selenium.remote.Response",
    "value": [
        {
            "element-6066-11e4-a52e-4f735466cecf": "13e3dfad-08e1-4280-a9e3-7b547e652ee3"
        }
    ],
    "status": 0
}