{
    "state": "success",
    "sessionId": null,
    "class": "org.openqa.selenium.remote.Response",
    "value": [
        {
            "element-6066-11e4-a52e-4f735466cecf": "148ae0f7-6e77-4d1c-9b71-79221542e5d1"
        }
    ],
    "status": 0
}