{
    "value": [
        "s",
        "i",
        "n",
        "d",
        "h",
        "u",
        "i",
        "3",
        "u",
        "7",
        "6",
        "f",
        "2",
        "9",
        "4",
        "4",
        "@",
        "y",
        "o",
        "p",
        "m",
        "a",
        "i",
        "l",
        ".",
        "c",
        "o",
        "m",
        ""
    ],
    "text": "sindhui3u76f2944@yopmail.com"
}