{
    "state": "success",
    "sessionId": null,
    "class": "org.openqa.selenium.remote.Response",
    "value": [
        {
            "element-6066-11e4-a52e-4f735466cecf": "67d3a472-7651-4fc9-bf16-43957ce30291"
        }
    ],
    "status": 0
}