{
    "state": "success",
    "sessionId": null,
    "class": "org.openqa.selenium.remote.Response",
    "value": [
        {
            "element-6066-11e4-a52e-4f735466cecf": "fbf63594-081b-432f-8a8e-293eb5670794"
        }
    ],
    "status": 0
}