{
    "state": "success",
    "sessionId": null,
    "class": "org.openqa.selenium.remote.Response",
    "value": [
        {
            "element-6066-11e4-a52e-4f735466cecf": "2d07429f-0a83-4738-9885-7388b0080a58"
        }
    ],
    "status": 0
}