{
    "state": "success",
    "sessionId": null,
    "class": "org.openqa.selenium.remote.Response",
    "value": [
        {
            "element-6066-11e4-a52e-4f735466cecf": "386d5f6c-9f68-4464-a4ee-5e77a299762e"
        }
    ],
    "status": 0
}