{
    "state": "success",
    "sessionId": null,
    "class": "org.openqa.selenium.remote.Response",
    "value": {
        "element-6066-11e4-a52e-4f735466cecf": "804680e9-e5fc-4156-a4cb-30c15171d6dd"
    },
    "status": 0
}