{
    "state": "success",
    "sessionId": null,
    "class": "org.openqa.selenium.remote.Response",
    "value": [
        {
            "element-6066-11e4-a52e-4f735466cecf": "d24dd5d2-cd28-4603-bda1-a81f288f5245"
        }
    ],
    "status": 0
}