{
    "state": "success",
    "sessionId": null,
    "class": "org.openqa.selenium.remote.Response",
    "value": {
        "element-6066-11e4-a52e-4f735466cecf": "c538d773-b4fe-4db6-9a4c-c385c859afd3"
    },
    "status": 0
}