{
    "state": "success",
    "sessionId": null,
    "class": "org.openqa.selenium.remote.Response",
    "value": [
        {
            "element-6066-11e4-a52e-4f735466cecf": "4e06a65d-36a8-40a7-bc08-d6c5aad5974a"
        }
    ],
    "status": 0
}