{
    "state": "success",
    "sessionId": null,
    "class": "org.openqa.selenium.remote.Response",
    "value": {
        "element-6066-11e4-a52e-4f735466cecf": "628820f1-405f-4e6b-bb91-fded066dcc89"
    },
    "status": 0
}