{
    "state": "success",
    "sessionId": null,
    "class": "org.openqa.selenium.remote.Response",
    "value": [
        {
            "element-6066-11e4-a52e-4f735466cecf": "82f13b51-d442-4963-ab42-db0f23ddc454"
        }
    ],
    "status": 0
}