{
    "state": "success",
    "sessionId": null,
    "class": "org.openqa.selenium.remote.Response",
    "value": {
        "element-6066-11e4-a52e-4f735466cecf": "3ad49cb3-cb70-4ea6-8d02-bfed07ebd563"
    },
    "status": 0
}