{
    "value": [
        "T",
        "M",
        "D",
        "_",
        "A",
        "u",
        "t",
        "o",
        "m",
        "a",
        "t",
        "i",
        "o",
        "n"
    ],
    "text": "TMD_Automation"
}