{
    "state": "success",
    "sessionId": null,
    "class": "org.openqa.selenium.remote.Response",
    "value": {
        "element-6066-11e4-a52e-4f735466cecf": "089d1338-687d-42f3-ab22-dc275a8dec5a"
    },
    "status": 0
}