{
    "state": "success",
    "sessionId": null,
    "class": "org.openqa.selenium.remote.Response",
    "value": {
        "element-6066-11e4-a52e-4f735466cecf": "7573cfd4-b3f9-4655-a21e-bc6eab918f28"
    },
    "status": 0
}