{
    "state": "success",
    "sessionId": null,
    "class": "org.openqa.selenium.remote.Response",
    "value": [
        {
            "element-6066-11e4-a52e-4f735466cecf": "8d8de506-d7af-4960-9b75-5ef15ea1a855"
        }
    ],
    "status": 0
}