{
    "state": "success",
    "sessionId": null,
    "class": "org.openqa.selenium.remote.Response",
    "value": {
        "element-6066-11e4-a52e-4f735466cecf": "8eaa6f6d-3548-4c00-808c-7f312eadfbea"
    },
    "status": 0
}