{
    "state": "success",
    "sessionId": null,
    "class": "org.openqa.selenium.remote.Response",
    "value": {
        "element-6066-11e4-a52e-4f735466cecf": "96aad000-330e-40f5-887c-af1f66011738"
    },
    "status": 0
}