{
    "state": "success",
    "sessionId": null,
    "class": "org.openqa.selenium.remote.Response",
    "value": [
        {
            "element-6066-11e4-a52e-4f735466cecf": "df1b65e2-b9a8-4003-9bda-56d03db9317e"
        }
    ],
    "status": 0
}