{
    "state": "success",
    "sessionId": null,
    "class": "org.openqa.selenium.remote.Response",
    "value": [
        {
            "element-6066-11e4-a52e-4f735466cecf": "6f5c5ffd-0321-4f0b-90a9-be32ba44e5b0"
        }
    ],
    "status": 0
}