{
    "state": "success",
    "sessionId": null,
    "class": "org.openqa.selenium.remote.Response",
    "value": {
        "element-6066-11e4-a52e-4f735466cecf": "fcdfc965-2ea6-4f80-b63e-3a48dcad420d"
    },
    "status": 0
}