{
    "state": "success",
    "sessionId": null,
    "class": "org.openqa.selenium.remote.Response",
    "value": {
        "element-6066-11e4-a52e-4f735466cecf": "a54f58f5-ba6d-460e-9104-dc2aeba372c4"
    },
    "status": 0
}