{
    "state": "success",
    "sessionId": null,
    "class": "org.openqa.selenium.remote.Response",
    "value": {
        "element-6066-11e4-a52e-4f735466cecf": "3abd29ad-e40f-4aee-89eb-818ddc2e1327"
    },
    "status": 0
}