{
    "state": "success",
    "sessionId": null,
    "class": "org.openqa.selenium.remote.Response",
    "value": {
        "element-6066-11e4-a52e-4f735466cecf": "c4501964-8195-4423-a42d-82e138a61226"
    },
    "status": 0
}