{
    "state": "success",
    "sessionId": null,
    "class": "org.openqa.selenium.remote.Response",
    "value": [
        {
            "element-6066-11e4-a52e-4f735466cecf": "16d024fd-6103-4fe2-9b72-97ed6f804293"
        }
    ],
    "status": 0
}