{
    "state": "success",
    "sessionId": null,
    "class": "org.openqa.selenium.remote.Response",
    "value": {
        "element-6066-11e4-a52e-4f735466cecf": "d1bc9562-fdb9-49a4-9f78-6383ed5c9dd3"
    },
    "status": 0
}