{
    "state": "success",
    "sessionId": null,
    "class": "org.openqa.selenium.remote.Response",
    "value": [
        {
            "element-6066-11e4-a52e-4f735466cecf": "9dc0ae05-c721-40b7-9cfd-2e0f482da3b8"
        }
    ],
    "status": 0
}