{
    "state": "success",
    "sessionId": null,
    "class": "org.openqa.selenium.remote.Response",
    "value": [
        {
            "element-6066-11e4-a52e-4f735466cecf": "97fc9e95-7e59-4562-bc2b-0d0cdb0932ff"
        }
    ],
    "status": 0
}