{
    "state": "success",
    "sessionId": null,
    "class": "org.openqa.selenium.remote.Response",
    "value": {
        "element-6066-11e4-a52e-4f735466cecf": "c063fdd9-67cd-4308-987f-cb1361fc1c57"
    },
    "status": 0
}