{
    "state": "success",
    "sessionId": null,
    "class": "org.openqa.selenium.remote.Response",
    "value": {
        "element-6066-11e4-a52e-4f735466cecf": "65e39ef7-c5e6-465a-8f60-7cb4e13dde0b"
    },
    "status": 0
}