{
    "state": "success",
    "sessionId": null,
    "class": "org.openqa.selenium.remote.Response",
    "value": {
        "element-6066-11e4-a52e-4f735466cecf": "9f85ec86-495c-4b22-a297-f0480c88d21f"
    },
    "status": 0
}