{
    "state": "success",
    "sessionId": null,
    "class": "org.openqa.selenium.remote.Response",
    "value": [
        {
            "element-6066-11e4-a52e-4f735466cecf": "5d251c43-734c-40fc-bae0-e2df502c8a36"
        }
    ],
    "status": 0
}