{
    "state": "success",
    "sessionId": null,
    "class": "org.openqa.selenium.remote.Response",
    "value": {
        "element-6066-11e4-a52e-4f735466cecf": "a1842811-f6c2-4f6f-bc38-f0934039615e"
    },
    "status": 0
}