{
    "state": "success",
    "sessionId": null,
    "class": "org.openqa.selenium.remote.Response",
    "value": [
        {
            "element-6066-11e4-a52e-4f735466cecf": "5a29b18d-daed-4cf8-a5b6-870626ea2ccb"
        }
    ],
    "status": 0
}