{
    "state": "success",
    "sessionId": null,
    "class": "org.openqa.selenium.remote.Response",
    "value": {
        "element-6066-11e4-a52e-4f735466cecf": "3619d1df-666b-4e3f-8cab-79e98aae7764"
    },
    "status": 0
}