{
    "state": "success",
    "sessionId": null,
    "class": "org.openqa.selenium.remote.Response",
    "value": {
        "element-6066-11e4-a52e-4f735466cecf": "b5a93172-e44f-4923-bfd5-13c82526edc1"
    },
    "status": 0
}