{
    "state": "success",
    "sessionId": null,
    "class": "org.openqa.selenium.remote.Response",
    "value": [
        {
            "element-6066-11e4-a52e-4f735466cecf": "d8d891f8-ff64-4fd7-b242-6bb176eb735b"
        }
    ],
    "status": 0
}