{
    "state": "success",
    "sessionId": null,
    "class": "org.openqa.selenium.remote.Response",
    "value": {
        "element-6066-11e4-a52e-4f735466cecf": "0736d14b-a40c-4d7d-8b81-a6917e160338"
    },
    "status": 0
}