{
    "state": "success",
    "sessionId": null,
    "class": "org.openqa.selenium.remote.Response",
    "value": {
        "element-6066-11e4-a52e-4f735466cecf": "ea9391b1-b196-4ec7-b00a-76007749068f"
    },
    "status": 0
}