{
    "state": "success",
    "sessionId": null,
    "class": "org.openqa.selenium.remote.Response",
    "value": [
        {
            "element-6066-11e4-a52e-4f735466cecf": "e1cc96fc-848b-4161-b224-3e80d59d1ee4"
        }
    ],
    "status": 0
}