{
    "state": "success",
    "sessionId": null,
    "class": "org.openqa.selenium.remote.Response",
    "value": {
        "element-6066-11e4-a52e-4f735466cecf": "f22d283a-02d3-49e5-9c44-e5790764dffa"
    },
    "status": 0
}