{
    "state": "success",
    "sessionId": null,
    "class": "org.openqa.selenium.remote.Response",
    "value": {
        "element-6066-11e4-a52e-4f735466cecf": "991ba76c-89ff-4af1-a3cb-e47bd91f2159"
    },
    "status": 0
}