{
    "state": "success",
    "sessionId": null,
    "class": "org.openqa.selenium.remote.Response",
    "value": {
        "element-6066-11e4-a52e-4f735466cecf": "ebaff875-387b-446f-b416-5b18842cddbe"
    },
    "status": 0
}