{
    "state": "success",
    "sessionId": null,
    "class": "org.openqa.selenium.remote.Response",
    "value": {
        "element-6066-11e4-a52e-4f735466cecf": "872b337e-1228-4ebb-9196-75719b804537"
    },
    "status": 0
}