{
    "state": "success",
    "sessionId": null,
    "class": "org.openqa.selenium.remote.Response",
    "value": {
        "element-6066-11e4-a52e-4f735466cecf": "71e015cc-4d92-4655-8801-c35e1caffd51"
    },
    "status": 0
}