{
    "state": "success",
    "sessionId": null,
    "class": "org.openqa.selenium.remote.Response",
    "value": {
        "element-6066-11e4-a52e-4f735466cecf": "8832043c-3e28-4276-b9fa-5c42a8ef77f9"
    },
    "status": 0
}