{
    "state": "success",
    "sessionId": null,
    "class": "org.openqa.selenium.remote.Response",
    "value": [
        {
            "element-6066-11e4-a52e-4f735466cecf": "355af266-7820-4d06-8af3-25633e12fdbb"
        }
    ],
    "status": 0
}