{
    "state": "success",
    "sessionId": null,
    "class": "org.openqa.selenium.remote.Response",
    "value": [
        {
            "element-6066-11e4-a52e-4f735466cecf": "0bd5182f-7212-4150-a269-57d99a7014d2"
        }
    ],
    "status": 0
}