{
    "state": "success",
    "sessionId": null,
    "class": "org.openqa.selenium.remote.Response",
    "value": {
        "element-6066-11e4-a52e-4f735466cecf": "5b39278d-105b-47db-b0d2-dcb96fc8acb0"
    },
    "status": 0
}