{
    "state": "success",
    "sessionId": null,
    "class": "org.openqa.selenium.remote.Response",
    "value": [
        {
            "element-6066-11e4-a52e-4f735466cecf": "120c9340-5697-45d3-aa56-7cdf8e64cc26"
        }
    ],
    "status": 0
}