{
    "state": "success",
    "sessionId": null,
    "class": "org.openqa.selenium.remote.Response",
    "value": {
        "element-6066-11e4-a52e-4f735466cecf": "701f5a80-a314-4297-af0c-d65464c4bd23"
    },
    "status": 0
}