{
    "state": "success",
    "sessionId": null,
    "class": "org.openqa.selenium.remote.Response",
    "value": [
        {
            "element-6066-11e4-a52e-4f735466cecf": "36739bd1-3a1e-4d20-81f9-5d4f1cd62775"
        }
    ],
    "status": 0
}