{
    "state": "success",
    "sessionId": null,
    "class": "org.openqa.selenium.remote.Response",
    "value": {
        "element-6066-11e4-a52e-4f735466cecf": "1fbc5eb3-572e-4d93-88c2-502fe0f2a531"
    },
    "status": 0
}