{
    "state": "success",
    "sessionId": null,
    "class": "org.openqa.selenium.remote.Response",
    "value": [
        {
            "element-6066-11e4-a52e-4f735466cecf": "b6bb01de-707f-496a-9fd5-a1fe70250ec3"
        }
    ],
    "status": 0
}