{
    "state": "success",
    "sessionId": null,
    "class": "org.openqa.selenium.remote.Response",
    "value": {
        "element-6066-11e4-a52e-4f735466cecf": "a8db9e0e-eafc-4c6c-96e3-ecc193de69af"
    },
    "status": 0
}