{
    "state": "success",
    "sessionId": null,
    "class": "org.openqa.selenium.remote.Response",
    "value": [
        {
            "element-6066-11e4-a52e-4f735466cecf": "922be808-97eb-4c19-a9c4-2cc47298b6d8"
        }
    ],
    "status": 0
}