{
    "state": "success",
    "sessionId": null,
    "class": "org.openqa.selenium.remote.Response",
    "value": {
        "element-6066-11e4-a52e-4f735466cecf": "7d249e0a-ebdd-4338-8a33-bed21e34bcaf"
    },
    "status": 0
}