{
    "state": "success",
    "sessionId": null,
    "class": "org.openqa.selenium.remote.Response",
    "value": {
        "element-6066-11e4-a52e-4f735466cecf": "ea8e638c-fda3-4399-8910-7c8876c827e0"
    },
    "status": 0
}