{
    "state": "success",
    "sessionId": null,
    "class": "org.openqa.selenium.remote.Response",
    "value": [
        {
            "element-6066-11e4-a52e-4f735466cecf": "2ea259bb-0022-48c2-9703-c66820d8b312"
        }
    ],
    "status": 0
}