{
    "state": "success",
    "sessionId": null,
    "class": "org.openqa.selenium.remote.Response",
    "value": {
        "element-6066-11e4-a52e-4f735466cecf": "9ccf83e3-e7b4-42e1-8a6c-1ddb1af89f92"
    },
    "status": 0
}