{
    "state": "success",
    "sessionId": null,
    "class": "org.openqa.selenium.remote.Response",
    "value": {
        "element-6066-11e4-a52e-4f735466cecf": "cdb4f7b4-8fb9-495d-bda3-00798b130d1c"
    },
    "status": 0
}