{
    "state": "success",
    "sessionId": null,
    "class": "org.openqa.selenium.remote.Response",
    "value": {
        "element-6066-11e4-a52e-4f735466cecf": "e5a9c2d2-6dc4-4506-815b-ba526b7c2bec"
    },
    "status": 0
}