{
    "state": "success",
    "sessionId": null,
    "class": "org.openqa.selenium.remote.Response",
    "value": [
        {
            "element-6066-11e4-a52e-4f735466cecf": "45d0f68e-626c-4bc8-a7db-df732d94e3dc"
        }
    ],
    "status": 0
}