{
    "state": "success",
    "sessionId": null,
    "class": "org.openqa.selenium.remote.Response",
    "value": {
        "element-6066-11e4-a52e-4f735466cecf": "3d129341-86e2-4273-a91e-44fce15df3de"
    },
    "status": 0
}