{
    "state": "success",
    "sessionId": null,
    "class": "org.openqa.selenium.remote.Response",
    "value": [
        {
            "element-6066-11e4-a52e-4f735466cecf": "94c92b42-4cc0-4804-9a97-21956ca11e97"
        }
    ],
    "status": 0
}