{
    "state": "success",
    "sessionId": null,
    "class": "org.openqa.selenium.remote.Response",
    "value": {
        "element-6066-11e4-a52e-4f735466cecf": "309eab86-4518-47b0-b431-4d4617f924a5"
    },
    "status": 0
}