{
    "state": "success",
    "sessionId": null,
    "class": "org.openqa.selenium.remote.Response",
    "value": [
        {
            "element-6066-11e4-a52e-4f735466cecf": "64ec411c-81e8-4e52-85fd-898949026b08"
        }
    ],
    "status": 0
}