{
    "state": "success",
    "sessionId": null,
    "class": "org.openqa.selenium.remote.Response",
    "value": [
        {
            "element-6066-11e4-a52e-4f735466cecf": "add5e44a-a567-401d-a3fc-1330a32fddc8"
        }
    ],
    "status": 0
}