{
    "state": "success",
    "sessionId": null,
    "class": "org.openqa.selenium.remote.Response",
    "value": {
        "element-6066-11e4-a52e-4f735466cecf": "f688a0ac-0f9c-4463-82a4-6ee4ddd78c7d"
    },
    "status": 0
}