{
    "state": "success",
    "sessionId": null,
    "class": "org.openqa.selenium.remote.Response",
    "value": [
        {
            "element-6066-11e4-a52e-4f735466cecf": "8d95d90c-67ca-4bc8-b387-0dacace8d5d6"
        }
    ],
    "status": 0
}