{
    "state": "success",
    "sessionId": null,
    "class": "org.openqa.selenium.remote.Response",
    "value": [
        {
            "element-6066-11e4-a52e-4f735466cecf": "eb13e63c-e8e0-4aea-89b7-3ef21586634f"
        }
    ],
    "status": 0
}