{
    "state": "success",
    "sessionId": null,
    "class": "org.openqa.selenium.remote.Response",
    "value": {
        "element-6066-11e4-a52e-4f735466cecf": "3291e728-4f5a-4c6e-8829-d95ea2e95395"
    },
    "status": 0
}