{
    "state": "success",
    "sessionId": null,
    "class": "org.openqa.selenium.remote.Response",
    "value": {
        "element-6066-11e4-a52e-4f735466cecf": "8efb0b0e-c3ae-440a-b0de-b0bb7af7743a"
    },
    "status": 0
}