{
    "state": "success",
    "sessionId": null,
    "class": "org.openqa.selenium.remote.Response",
    "value": [
        {
            "element-6066-11e4-a52e-4f735466cecf": "cb45fdad-264e-4976-80c3-0e02ae85bf52"
        }
    ],
    "status": 0
}