{
    "state": "success",
    "sessionId": null,
    "class": "org.openqa.selenium.remote.Response",
    "value": [
        {
            "element-6066-11e4-a52e-4f735466cecf": "ec7b15b8-3dd9-42bc-aadc-3596cb386be9"
        }
    ],
    "status": 0
}