{
    "state": "success",
    "sessionId": null,
    "class": "org.openqa.selenium.remote.Response",
    "value": {
        "element-6066-11e4-a52e-4f735466cecf": "54612bb1-c87f-4830-94b2-578ee7bdf92f"
    },
    "status": 0
}