{
    "state": "success",
    "sessionId": null,
    "class": "org.openqa.selenium.remote.Response",
    "value": {
        "element-6066-11e4-a52e-4f735466cecf": "20cbd4d7-a492-4cfc-8a87-62f93b3a6119"
    },
    "status": 0
}