{
    "state": "success",
    "sessionId": null,
    "class": "org.openqa.selenium.remote.Response",
    "value": {
        "element-6066-11e4-a52e-4f735466cecf": "b6642034-68e4-4050-8885-dc7e5279eb73"
    },
    "status": 0
}