{
    "state": "success",
    "sessionId": null,
    "class": "org.openqa.selenium.remote.Response",
    "value": {
        "element-6066-11e4-a52e-4f735466cecf": "ae28aa67-6d60-429b-90e1-08eb3ab9b801"
    },
    "status": 0
}