{
    "state": "success",
    "sessionId": null,
    "class": "org.openqa.selenium.remote.Response",
    "value": [
        {
            "element-6066-11e4-a52e-4f735466cecf": "6ce400f3-d867-484f-9729-e578ff7cea82"
        }
    ],
    "status": 0
}