{
    "state": "success",
    "sessionId": null,
    "class": "org.openqa.selenium.remote.Response",
    "value": {
        "element-6066-11e4-a52e-4f735466cecf": "73e76700-a298-498e-b6d9-75336927b652"
    },
    "status": 0
}