{
    "state": "success",
    "sessionId": null,
    "class": "org.openqa.selenium.remote.Response",
    "value": {
        "element-6066-11e4-a52e-4f735466cecf": "3b069d70-266f-404d-bfe5-4f4c3f408b2f"
    },
    "status": 0
}