{
    "state": "success",
    "sessionId": null,
    "class": "org.openqa.selenium.remote.Response",
    "value": {
        "element-6066-11e4-a52e-4f735466cecf": "ddbc1c11-d582-4626-b335-7bb70c182e9b"
    },
    "status": 0
}