{
    "state": "success",
    "sessionId": null,
    "class": "org.openqa.selenium.remote.Response",
    "value": {
        "element-6066-11e4-a52e-4f735466cecf": "e5b893ea-c154-4055-ae70-1d086cd419e8"
    },
    "status": 0
}