{
    "state": "success",
    "sessionId": null,
    "class": "org.openqa.selenium.remote.Response",
    "value": {
        "element-6066-11e4-a52e-4f735466cecf": "0733546c-f850-49c6-9b2f-f41a7e96e14f"
    },
    "status": 0
}