{
    "state": "success",
    "sessionId": null,
    "class": "org.openqa.selenium.remote.Response",
    "value": [
        "CDwindow-57BF07FCA20ABA1E90A8E396C39E680F",
        "CDwindow-4372875DFB562C808C4A5DE54BBC5B04"
    ],
    "status": 0
}