{
    "state": "success",
    "sessionId": null,
    "class": "org.openqa.selenium.remote.Response",
    "value": [
        {
            "element-6066-11e4-a52e-4f735466cecf": "a499596f-2039-4399-a23c-41295fbd574b"
        }
    ],
    "status": 0
}