{
    "state": "success",
    "sessionId": null,
    "class": "org.openqa.selenium.remote.Response",
    "value": {
        "element-6066-11e4-a52e-4f735466cecf": "191c9558-0edb-4743-8a19-10b4fabf8b13"
    },
    "status": 0
}