{
    "state": "success",
    "sessionId": null,
    "class": "org.openqa.selenium.remote.Response",
    "value": {
        "element-6066-11e4-a52e-4f735466cecf": "ceb1ee19-227c-4e63-b0cb-24588cfc301d"
    },
    "status": 0
}