{
    "state": "success",
    "sessionId": null,
    "class": "org.openqa.selenium.remote.Response",
    "value": [
        {
            "element-6066-11e4-a52e-4f735466cecf": "f445aa7e-a221-41e9-af45-fd7abb50ae1d"
        }
    ],
    "status": 0
}