{
    "state": "success",
    "sessionId": null,
    "class": "org.openqa.selenium.remote.Response",
    "value": [
        {
            "element-6066-11e4-a52e-4f735466cecf": "8cc3fcb4-bb77-4e8b-8fdb-5fd53c1a3c6d"
        }
    ],
    "status": 0
}