{
    "value": [
        "s",
        "i",
        "n",
        "d",
        "h",
        "u",
        "m",
        "h",
        "9",
        "e",
        "0",
        "s",
        "7",
        "1",
        "0",
        "6",
        "@",
        "y",
        "o",
        "p",
        "m",
        "a",
        "i",
        "l",
        ".",
        "c",
        "o",
        "m",
        ""
    ],
    "text": "sindhumh9e0s7106@yopmail.com"
}