{
    "state": "success",
    "sessionId": null,
    "class": "org.openqa.selenium.remote.Response",
    "value": {
        "element-6066-11e4-a52e-4f735466cecf": "2a210f74-3015-4e6b-bad5-f358b96717eb"
    },
    "status": 0
}