{
    "state": "success",
    "sessionId": null,
    "class": "org.openqa.selenium.remote.Response",
    "value": [
        {
            "element-6066-11e4-a52e-4f735466cecf": "d6a1ced3-618b-40ae-93fe-8309922cd91c"
        }
    ],
    "status": 0
}