{
    "state": "success",
    "sessionId": null,
    "class": "org.openqa.selenium.remote.Response",
    "value": {
        "element-6066-11e4-a52e-4f735466cecf": "9dfa1f0f-d05d-40d0-b0b3-b2389f2bc569"
    },
    "status": 0
}