{
    "state": "success",
    "sessionId": null,
    "class": "org.openqa.selenium.remote.Response",
    "value": [
        {
            "element-6066-11e4-a52e-4f735466cecf": "abdbfaed-8f36-4286-b829-c789bf955efd"
        }
    ],
    "status": 0
}