{
    "state": "success",
    "sessionId": null,
    "class": "org.openqa.selenium.remote.Response",
    "value": {
        "element-6066-11e4-a52e-4f735466cecf": "f2ab7e78-1b6b-49d4-a65c-bab347398da4"
    },
    "status": 0
}