{
    "state": "success",
    "sessionId": null,
    "class": "org.openqa.selenium.remote.Response",
    "value": {
        "element-6066-11e4-a52e-4f735466cecf": "c8e36f1c-0428-4a0b-9318-c69a7356850c"
    },
    "status": 0
}