{
    "state": "success",
    "sessionId": null,
    "class": "org.openqa.selenium.remote.Response",
    "value": [
        {
            "element-6066-11e4-a52e-4f735466cecf": "c94ad18e-95f2-4294-8a71-68c0edf4982e"
        }
    ],
    "status": 0
}