{
    "state": "success",
    "sessionId": null,
    "class": "org.openqa.selenium.remote.Response",
    "value": {
        "element-6066-11e4-a52e-4f735466cecf": "2140bc0f-a178-4b50-b6d8-be9cecb913f8"
    },
    "status": 0
}