{
    "state": "success",
    "sessionId": null,
    "class": "org.openqa.selenium.remote.Response",
    "value": {
        "element-6066-11e4-a52e-4f735466cecf": "13dcabac-1ca9-4c8b-94b6-d0bd0de9c31c"
    },
    "status": 0
}