{
    "state": "success",
    "sessionId": null,
    "class": "org.openqa.selenium.remote.Response",
    "value": {
        "element-6066-11e4-a52e-4f735466cecf": "8b10e53f-c768-48e4-a7b6-7a81983b593d"
    },
    "status": 0
}