{
    "state": "success",
    "sessionId": null,
    "class": "org.openqa.selenium.remote.Response",
    "value": [
        {
            "element-6066-11e4-a52e-4f735466cecf": "5fd8c864-693e-40af-8777-7cfecb9da63f"
        }
    ],
    "status": 0
}