{
    "state": "success",
    "sessionId": null,
    "class": "org.openqa.selenium.remote.Response",
    "value": {
        "element-6066-11e4-a52e-4f735466cecf": "815f6c57-fda7-4f6d-a03a-f13bf1b989b7"
    },
    "status": 0
}