{
    "state": "success",
    "sessionId": null,
    "class": "org.openqa.selenium.remote.Response",
    "value": [
        {
            "element-6066-11e4-a52e-4f735466cecf": "5bd62793-7c3f-4d5a-8804-f5aa9f0422ad"
        }
    ],
    "status": 0
}