{
    "state": "success",
    "sessionId": null,
    "class": "org.openqa.selenium.remote.Response",
    "value": {
        "element-6066-11e4-a52e-4f735466cecf": "352ef8c5-7d70-41ca-a039-f59ff3e6280e"
    },
    "status": 0
}