{
    "state": "success",
    "sessionId": null,
    "class": "org.openqa.selenium.remote.Response",
    "value": [
        {
            "element-6066-11e4-a52e-4f735466cecf": "e4f37889-4b80-4d59-8dbb-a6cd6a52ff49"
        }
    ],
    "status": 0
}