{
    "state": "success",
    "sessionId": null,
    "class": "org.openqa.selenium.remote.Response",
    "value": {
        "element-6066-11e4-a52e-4f735466cecf": "5290bd3f-ac17-4a56-8108-7019b493fc08"
    },
    "status": 0
}