{
    "state": "success",
    "sessionId": null,
    "class": "org.openqa.selenium.remote.Response",
    "value": [
        {
            "element-6066-11e4-a52e-4f735466cecf": "070261b9-ad84-49ff-839a-3fc25e1b24b5"
        }
    ],
    "status": 0
}