{
    "state": "success",
    "sessionId": null,
    "class": "org.openqa.selenium.remote.Response",
    "value": {
        "element-6066-11e4-a52e-4f735466cecf": "190e92a5-e3aa-4561-98d6-e65579ca8ebf"
    },
    "status": 0
}