{
    "state": "success",
    "sessionId": null,
    "class": "org.openqa.selenium.remote.Response",
    "value": {
        "element-6066-11e4-a52e-4f735466cecf": "60aa38cc-2ba7-4580-b1d8-e03e97ed9811"
    },
    "status": 0
}