{
    "state": "success",
    "sessionId": null,
    "class": "org.openqa.selenium.remote.Response",
    "value": [
        {
            "element-6066-11e4-a52e-4f735466cecf": "732421e1-70e4-4dab-bbbe-97bc603e6ee6"
        }
    ],
    "status": 0
}