{
    "state": "success",
    "sessionId": null,
    "class": "org.openqa.selenium.remote.Response",
    "value": {
        "element-6066-11e4-a52e-4f735466cecf": "c7da066b-9e18-4751-b7dc-92942ee2c877"
    },
    "status": 0
}