{
    "state": "success",
    "sessionId": null,
    "class": "org.openqa.selenium.remote.Response",
    "value": {
        "element-6066-11e4-a52e-4f735466cecf": "3487d15f-5d51-43f3-932d-7f965043c50e"
    },
    "status": 0
}