{
    "state": "success",
    "sessionId": null,
    "class": "org.openqa.selenium.remote.Response",
    "value": {
        "element-6066-11e4-a52e-4f735466cecf": "058749fd-1dce-4842-ae5f-02575b61086e"
    },
    "status": 0
}