{
    "state": "success",
    "sessionId": null,
    "class": "org.openqa.selenium.remote.Response",
    "value": {
        "element-6066-11e4-a52e-4f735466cecf": "3b17d8a8-e42d-41aa-acfe-4a7adea1cfb8"
    },
    "status": 0
}