{
    "state": "success",
    "sessionId": null,
    "class": "org.openqa.selenium.remote.Response",
    "value": {
        "element-6066-11e4-a52e-4f735466cecf": "6523fd3a-7b4d-45d0-b5fb-c821e0af7497"
    },
    "status": 0
}