{
    "state": "success",
    "sessionId": null,
    "class": "org.openqa.selenium.remote.Response",
    "value": [
        {
            "element-6066-11e4-a52e-4f735466cecf": "95ca2601-2679-41bc-9bc4-cd95ca13b72d"
        }
    ],
    "status": 0
}