{
    "state": "success",
    "sessionId": null,
    "class": "org.openqa.selenium.remote.Response",
    "value": [
        {
            "element-6066-11e4-a52e-4f735466cecf": "efbaa03e-2f69-41ff-a06b-642014d072f1"
        }
    ],
    "status": 0
}