{
    "state": "success",
    "sessionId": null,
    "class": "org.openqa.selenium.remote.Response",
    "value": [
        {
            "element-6066-11e4-a52e-4f735466cecf": "2bc9345a-460c-46c9-b407-3c43330d2351"
        }
    ],
    "status": 0
}