{
    "state": "success",
    "sessionId": null,
    "class": "org.openqa.selenium.remote.Response",
    "value": [
        {
            "element-6066-11e4-a52e-4f735466cecf": "b07c70ec-a601-4a58-aad5-d965793cefa9"
        }
    ],
    "status": 0
}