{
    "state": "success",
    "sessionId": null,
    "class": "org.openqa.selenium.remote.Response",
    "value": [
        {
            "element-6066-11e4-a52e-4f735466cecf": "90248619-93e3-45f4-8f1c-1daa76857e51"
        }
    ],
    "status": 0
}