{
    "value": [
        "l",
        "e",
        "7",
        "k",
        "p",
        "N",
        "b",
        "l",
        "I",
        "O",
        "H",
        "h",
        "Y",
        "M",
        "T",
        "j"
    ],
    "text": "le7kpNblIOHhYMTj"
}