{
    "state": "success",
    "sessionId": null,
    "class": "org.openqa.selenium.remote.Response",
    "value": [
        {
            "element-6066-11e4-a52e-4f735466cecf": "432d2271-e64a-48a2-aa77-4c8cfab7d2ad"
        }
    ],
    "status": 0
}