{
    "state": "success",
    "sessionId": null,
    "class": "org.openqa.selenium.remote.Response",
    "value": [
        {
            "element-6066-11e4-a52e-4f735466cecf": "a724ee06-92ba-4003-a3ef-fe91775d43dd"
        }
    ],
    "status": 0
}