{
    "state": "success",
    "sessionId": null,
    "class": "org.openqa.selenium.remote.Response",
    "value": [
        {
            "element-6066-11e4-a52e-4f735466cecf": "68947781-0efd-4d5c-9b48-6e253b09e2e6"
        }
    ],
    "status": 0
}