{
    "state": "success",
    "sessionId": null,
    "class": "org.openqa.selenium.remote.Response",
    "value": {
        "element-6066-11e4-a52e-4f735466cecf": "fa0e7cc4-e7ed-4b69-856f-c708256685f0"
    },
    "status": 0
}