{
    "state": "success",
    "sessionId": null,
    "class": "org.openqa.selenium.remote.Response",
    "value": {
        "element-6066-11e4-a52e-4f735466cecf": "e65d321a-327a-4fd4-8ac1-9c8e94dabb89"
    },
    "status": 0
}