{
    "state": "success",
    "sessionId": null,
    "class": "org.openqa.selenium.remote.Response",
    "value": {
        "element-6066-11e4-a52e-4f735466cecf": "ea16a720-c633-4c8d-b4d8-f71838c667b6"
    },
    "status": 0
}