{
    "state": "success",
    "sessionId": null,
    "class": "org.openqa.selenium.remote.Response",
    "value": {
        "element-6066-11e4-a52e-4f735466cecf": "016e10a8-fa38-417d-a253-6061b189e87d"
    },
    "status": 0
}