{
    "state": "success",
    "sessionId": null,
    "class": "org.openqa.selenium.remote.Response",
    "value": [
        {
            "element-6066-11e4-a52e-4f735466cecf": "a2efab04-1541-4029-9913-a1ebdf47ae84"
        }
    ],
    "status": 0
}