{
    "state": "success",
    "sessionId": null,
    "class": "org.openqa.selenium.remote.Response",
    "value": [
        {
            "element-6066-11e4-a52e-4f735466cecf": "d983f5ea-ee89-45e1-9567-c2edfb3b1f95"
        }
    ],
    "status": 0
}