{
    "state": "success",
    "sessionId": null,
    "class": "org.openqa.selenium.remote.Response",
    "value": [
        {
            "element-6066-11e4-a52e-4f735466cecf": "cca2c0e8-b033-4629-8179-a61e6b842e4c"
        }
    ],
    "status": 0
}