{
    "state": "success",
    "sessionId": null,
    "class": "org.openqa.selenium.remote.Response",
    "value": {
        "element-6066-11e4-a52e-4f735466cecf": "ee6ea4c8-b706-4523-a895-67df12e6c4d9"
    },
    "status": 0
}