{
    "state": "success",
    "sessionId": null,
    "class": "org.openqa.selenium.remote.Response",
    "value": {
        "element-6066-11e4-a52e-4f735466cecf": "b9a38c9a-9072-4b89-ac95-72b972d63582"
    },
    "status": 0
}