{
    "state": "success",
    "sessionId": null,
    "class": "org.openqa.selenium.remote.Response",
    "value": [
        {
            "element-6066-11e4-a52e-4f735466cecf": "a802f351-d2b5-44fd-abbf-4f66b789ba10"
        }
    ],
    "status": 0
}