{
    "state": "success",
    "sessionId": null,
    "class": "org.openqa.selenium.remote.Response",
    "value": {
        "element-6066-11e4-a52e-4f735466cecf": "f5470d5d-b2d9-40f2-a223-35c18a9385bb"
    },
    "status": 0
}