{
    "state": "success",
    "sessionId": null,
    "class": "org.openqa.selenium.remote.Response",
    "value": [
        {
            "element-6066-11e4-a52e-4f735466cecf": "6db5dd9a-b929-490f-b4cc-2071a49cd38c"
        }
    ],
    "status": 0
}