{
    "state": "success",
    "sessionId": null,
    "class": "org.openqa.selenium.remote.Response",
    "value": {
        "element-6066-11e4-a52e-4f735466cecf": "2af0b118-d009-45d7-b131-5901c42cd474"
    },
    "status": 0
}