{
    "state": "success",
    "sessionId": null,
    "class": "org.openqa.selenium.remote.Response",
    "value": {
        "element-6066-11e4-a52e-4f735466cecf": "8633c613-f96a-4254-9ad2-b19a95644ac8"
    },
    "status": 0
}