{
    "state": "success",
    "sessionId": null,
    "class": "org.openqa.selenium.remote.Response",
    "value": {
        "element-6066-11e4-a52e-4f735466cecf": "d2356091-3c80-4ccb-8a76-a87996c32cd6"
    },
    "status": 0
}