{
    "state": "success",
    "sessionId": null,
    "class": "org.openqa.selenium.remote.Response",
    "value": [
        {
            "element-6066-11e4-a52e-4f735466cecf": "f7cdbb60-0122-4df2-8c61-29747d676645"
        }
    ],
    "status": 0
}