{
    "state": "success",
    "sessionId": null,
    "class": "org.openqa.selenium.remote.Response",
    "value": [
        {
            "element-6066-11e4-a52e-4f735466cecf": "2d29d513-686d-463a-bb9e-90fd6766aa78"
        }
    ],
    "status": 0
}