{
    "state": "success",
    "sessionId": null,
    "class": "org.openqa.selenium.remote.Response",
    "value": {
        "element-6066-11e4-a52e-4f735466cecf": "c90627f4-be9d-41ec-9620-5a7f632900b5"
    },
    "status": 0
}