{
    "state": "success",
    "sessionId": null,
    "class": "org.openqa.selenium.remote.Response",
    "value": {
        "element-6066-11e4-a52e-4f735466cecf": "8c6b9cd7-fdd1-403c-8fcd-b34315fe4c92"
    },
    "status": 0
}