{
    "state": "success",
    "sessionId": null,
    "class": "org.openqa.selenium.remote.Response",
    "value": [
        {
            "element-6066-11e4-a52e-4f735466cecf": "7b35247b-f01a-45ab-a963-cb60c4d69ae9"
        }
    ],
    "status": 0
}