{
    "state": "success",
    "sessionId": null,
    "class": "org.openqa.selenium.remote.Response",
    "value": {
        "element-6066-11e4-a52e-4f735466cecf": "c787c305-42f5-4a3f-a495-39118a0f6611"
    },
    "status": 0
}