{
    "state": "success",
    "sessionId": null,
    "class": "org.openqa.selenium.remote.Response",
    "value": {
        "element-6066-11e4-a52e-4f735466cecf": "e2986657-690a-4f2d-a701-acf6d720f563"
    },
    "status": 0
}