{
    "state": "success",
    "sessionId": null,
    "class": "org.openqa.selenium.remote.Response",
    "value": [
        {
            "element-6066-11e4-a52e-4f735466cecf": "cdb98f65-7f4c-4a03-b547-96a7ca142416"
        }
    ],
    "status": 0
}