{
    "state": "success",
    "sessionId": null,
    "class": "org.openqa.selenium.remote.Response",
    "value": [
        "CDwindow-347C902478FF302E059F82A5C7AE537F",
        "CDwindow-79C8A2EE6C60D06E8D97C274ACF17BAD"
    ],
    "status": 0
}