{
    "state": "success",
    "sessionId": null,
    "class": "org.openqa.selenium.remote.Response",
    "value": [
        {
            "element-6066-11e4-a52e-4f735466cecf": "11ef8ab2-7eae-483e-afe5-1a39b8774f58"
        }
    ],
    "status": 0
}