{
    "state": "success",
    "sessionId": null,
    "class": "org.openqa.selenium.remote.Response",
    "value": {
        "element-6066-11e4-a52e-4f735466cecf": "c0a2e574-f3e4-4121-9a5d-16d2992fecd9"
    },
    "status": 0
}