{
    "state": "success",
    "sessionId": null,
    "class": "org.openqa.selenium.remote.Response",
    "value": {
        "element-6066-11e4-a52e-4f735466cecf": "f9573d48-485c-4395-ac67-adfeab1356f3"
    },
    "status": 0
}