{
    "state": "success",
    "sessionId": null,
    "class": "org.openqa.selenium.remote.Response",
    "value": {
        "element-6066-11e4-a52e-4f735466cecf": "1756048c-7619-4218-9f41-4bab5ac5d9f8"
    },
    "status": 0
}