{
    "state": "success",
    "sessionId": null,
    "class": "org.openqa.selenium.remote.Response",
    "value": [
        {
            "element-6066-11e4-a52e-4f735466cecf": "d11c75ef-418e-4cf1-b0b2-5c463f00cc69"
        }
    ],
    "status": 0
}