{
    "state": "success",
    "sessionId": null,
    "class": "org.openqa.selenium.remote.Response",
    "value": {
        "element-6066-11e4-a52e-4f735466cecf": "07704b8a-e9f5-44de-a46c-ea88484a2a2a"
    },
    "status": 0
}