{
    "state": "success",
    "sessionId": null,
    "class": "org.openqa.selenium.remote.Response",
    "value": [
        {
            "element-6066-11e4-a52e-4f735466cecf": "d733dfd2-13ff-4dcc-8441-42fe7e081929"
        }
    ],
    "status": 0
}