{
    "state": "success",
    "sessionId": null,
    "class": "org.openqa.selenium.remote.Response",
    "value": {
        "element-6066-11e4-a52e-4f735466cecf": "71e0b559-73cf-4fee-8807-ccd83f87a3e4"
    },
    "status": 0
}