{
    "state": "success",
    "sessionId": null,
    "class": "org.openqa.selenium.remote.Response",
    "value": [
        {
            "element-6066-11e4-a52e-4f735466cecf": "132f4dba-7e2a-4e18-b3d5-a21a07033ea3"
        }
    ],
    "status": 0
}