{
    "state": "success",
    "sessionId": null,
    "class": "org.openqa.selenium.remote.Response",
    "value": {
        "element-6066-11e4-a52e-4f735466cecf": "ee4e2a83-d827-4059-bfb0-0d97d12b52c7"
    },
    "status": 0
}