{
    "value": [
        "Q",
        "A",
        " ",
        "K",
        "I",
        "I",
        "D",
        " ",
        "A",
        "u",
        "t",
        "o",
        "1",
        ""
    ],
    "text": "QA KIID Auto1"
}