{
    "state": "success",
    "sessionId": null,
    "class": "org.openqa.selenium.remote.Response",
    "value": {
        "element-6066-11e4-a52e-4f735466cecf": "002b8f02-afda-4159-bd8c-b03ef0cef558"
    },
    "status": 0
}