{
    "state": "success",
    "sessionId": null,
    "class": "org.openqa.selenium.remote.Response",
    "value": {
        "element-6066-11e4-a52e-4f735466cecf": "28242157-3381-47f4-9480-89cdf5c96ac6"
    },
    "status": 0
}