{
    "state": "success",
    "sessionId": null,
    "class": "org.openqa.selenium.remote.Response",
    "value": {
        "element-6066-11e4-a52e-4f735466cecf": "1c85133f-777c-4083-bc88-92e123a91b49"
    },
    "status": 0
}