{
    "state": "success",
    "sessionId": null,
    "class": "org.openqa.selenium.remote.Response",
    "value": {
        "element-6066-11e4-a52e-4f735466cecf": "da291f7b-8598-45d4-9f72-ae8f9a5569d5"
    },
    "status": 0
}