{
    "state": "success",
    "sessionId": null,
    "class": "org.openqa.selenium.remote.Response",
    "value": {
        "element-6066-11e4-a52e-4f735466cecf": "05754c37-ecc4-4304-88d2-7a780aa2b9ff"
    },
    "status": 0
}