{
    "state": "success",
    "sessionId": null,
    "class": "org.openqa.selenium.remote.Response",
    "value": {
        "element-6066-11e4-a52e-4f735466cecf": "3231a34f-76ca-428f-a50c-b1cc85b5c2ad"
    },
    "status": 0
}