{
    "state": "success",
    "sessionId": null,
    "class": "org.openqa.selenium.remote.Response",
    "value": {
        "element-6066-11e4-a52e-4f735466cecf": "71b525af-dbf6-4ee1-b2bc-b7d504612c68"
    },
    "status": 0
}