{
    "state": "success",
    "sessionId": null,
    "class": "org.openqa.selenium.remote.Response",
    "value": {
        "element-6066-11e4-a52e-4f735466cecf": "946f3858-dfe0-43af-982a-b525a069771d"
    },
    "status": 0
}