{
    "state": "success",
    "sessionId": null,
    "class": "org.openqa.selenium.remote.Response",
    "value": {
        "element-6066-11e4-a52e-4f735466cecf": "c3bf2ecb-80d7-47c3-b7b6-86638541835d"
    },
    "status": 0
}