{
    "state": "success",
    "sessionId": null,
    "class": "org.openqa.selenium.remote.Response",
    "value": {
        "element-6066-11e4-a52e-4f735466cecf": "aeaa18f7-69e8-4742-83e3-8e3bb288801c"
    },
    "status": 0
}