{
    "state": "success",
    "sessionId": null,
    "class": "org.openqa.selenium.remote.Response",
    "value": [
        {
            "element-6066-11e4-a52e-4f735466cecf": "e6918ef7-b193-4950-8bdf-9dec6e2a1199"
        }
    ],
    "status": 0
}