{
    "state": "success",
    "sessionId": null,
    "class": "org.openqa.selenium.remote.Response",
    "value": [
        {
            "element-6066-11e4-a52e-4f735466cecf": "504c144e-ed89-47ca-aa23-731d74a1c232"
        }
    ],
    "status": 0
}