{
    "state": "success",
    "sessionId": null,
    "class": "org.openqa.selenium.remote.Response",
    "value": {
        "element-6066-11e4-a52e-4f735466cecf": "6d42cbfb-2274-486b-9b01-441453dfc09e"
    },
    "status": 0
}