{
    "state": "success",
    "sessionId": null,
    "class": "org.openqa.selenium.remote.Response",
    "value": [
        {
            "element-6066-11e4-a52e-4f735466cecf": "9c93774f-bb1f-4399-a36b-2cd6c673cb4c"
        }
    ],
    "status": 0
}