{
    "state": "success",
    "sessionId": null,
    "class": "org.openqa.selenium.remote.Response",
    "value": {
        "element-6066-11e4-a52e-4f735466cecf": "02c8c691-c7e7-48da-b787-ca857bf945d1"
    },
    "status": 0
}