{
    "state": "success",
    "sessionId": null,
    "class": "org.openqa.selenium.remote.Response",
    "value": [
        {
            "element-6066-11e4-a52e-4f735466cecf": "390b230a-8a65-4810-8f33-94e359230589"
        }
    ],
    "status": 0
}