{
    "state": "success",
    "sessionId": null,
    "class": "org.openqa.selenium.remote.Response",
    "value": [
        {
            "element-6066-11e4-a52e-4f735466cecf": "6f12052e-b16f-4cf8-a9f1-7a63234cb3fc"
        }
    ],
    "status": 0
}