{
    "state": "success",
    "sessionId": null,
    "class": "org.openqa.selenium.remote.Response",
    "value": [
        {
            "element-6066-11e4-a52e-4f735466cecf": "86a93d2d-7ae0-40b4-9b87-6c54ceed2874"
        }
    ],
    "status": 0
}