{
    "state": "success",
    "sessionId": null,
    "class": "org.openqa.selenium.remote.Response",
    "value": [
        {
            "element-6066-11e4-a52e-4f735466cecf": "84035562-bcba-4503-8d61-0973379cbaf9"
        }
    ],
    "status": 0
}