{
    "state": "success",
    "sessionId": null,
    "class": "org.openqa.selenium.remote.Response",
    "value": {
        "element-6066-11e4-a52e-4f735466cecf": "c49be90d-bb09-4bb1-8228-a1acb0c1c508"
    },
    "status": 0
}