{
    "state": "success",
    "sessionId": null,
    "class": "org.openqa.selenium.remote.Response",
    "value": {
        "element-6066-11e4-a52e-4f735466cecf": "6bd93a87-d329-424a-8071-30335657c93c"
    },
    "status": 0
}