{
    "state": "success",
    "sessionId": null,
    "class": "org.openqa.selenium.remote.Response",
    "value": [
        {
            "element-6066-11e4-a52e-4f735466cecf": "c14fd2ce-eb58-438d-991b-f7111469da66"
        }
    ],
    "status": 0
}