{
    "state": "success",
    "sessionId": null,
    "class": "org.openqa.selenium.remote.Response",
    "value": [
        {
            "element-6066-11e4-a52e-4f735466cecf": "064112a7-8d52-4572-b358-3d42391ceee1"
        }
    ],
    "status": 0
}