{
    "state": "success",
    "sessionId": null,
    "class": "org.openqa.selenium.remote.Response",
    "value": {
        "element-6066-11e4-a52e-4f735466cecf": "ff9afe28-6221-4462-85f7-c4a3ac96a5e9"
    },
    "status": 0
}