{
    "state": "success",
    "sessionId": null,
    "class": "org.openqa.selenium.remote.Response",
    "value": {
        "element-6066-11e4-a52e-4f735466cecf": "aaca5e5c-a4c2-4905-9738-d824069fc529"
    },
    "status": 0
}