{
    "state": "success",
    "sessionId": null,
    "class": "org.openqa.selenium.remote.Response",
    "value": {
        "element-6066-11e4-a52e-4f735466cecf": "a541e3c3-db9f-4719-8b87-f373a82b836f"
    },
    "status": 0
}