{
    "state": "success",
    "sessionId": null,
    "class": "org.openqa.selenium.remote.Response",
    "value": {
        "element-6066-11e4-a52e-4f735466cecf": "2923a274-48ff-4dea-853b-a5c9c561245d"
    },
    "status": 0
}