{
    "state": "success",
    "sessionId": null,
    "class": "org.openqa.selenium.remote.Response",
    "value": [
        {
            "element-6066-11e4-a52e-4f735466cecf": "a599a6ac-d3ca-4b99-97fa-defc97196762"
        }
    ],
    "status": 0
}