{
    "state": "success",
    "sessionId": null,
    "class": "org.openqa.selenium.remote.Response",
    "value": {
        "element-6066-11e4-a52e-4f735466cecf": "18b33aca-ac2b-4fe7-b890-34cbb5430832"
    },
    "status": 0
}