{
    "state": "success",
    "sessionId": null,
    "class": "org.openqa.selenium.remote.Response",
    "value": {
        "element-6066-11e4-a52e-4f735466cecf": "eb430882-a321-46ff-a999-76b76224f0be"
    },
    "status": 0
}