{
    "state": "success",
    "sessionId": null,
    "class": "org.openqa.selenium.remote.Response",
    "value": {
        "element-6066-11e4-a52e-4f735466cecf": "3b83484a-10eb-4ac4-918d-e93e11550358"
    },
    "status": 0
}