{
    "state": "success",
    "sessionId": null,
    "class": "org.openqa.selenium.remote.Response",
    "value": {
        "element-6066-11e4-a52e-4f735466cecf": "b84ef505-3f32-4ef8-aa34-8963ee025263"
    },
    "status": 0
}