{
    "state": "success",
    "sessionId": null,
    "class": "org.openqa.selenium.remote.Response",
    "value": [
        {
            "element-6066-11e4-a52e-4f735466cecf": "b6ea2f03-67df-4753-bb9f-bbd33f105d90"
        }
    ],
    "status": 0
}