{
    "state": "success",
    "sessionId": null,
    "class": "org.openqa.selenium.remote.Response",
    "value": {
        "element-6066-11e4-a52e-4f735466cecf": "b1878b14-d3e4-4a9c-a288-4e1a078d6673"
    },
    "status": 0
}