{
    "state": "success",
    "sessionId": null,
    "class": "org.openqa.selenium.remote.Response",
    "value": {
        "element-6066-11e4-a52e-4f735466cecf": "ae8a03c4-4ac3-4b9c-ac3c-4d988154b05f"
    },
    "status": 0
}