{
    "state": "success",
    "sessionId": null,
    "class": "org.openqa.selenium.remote.Response",
    "value": {
        "element-6066-11e4-a52e-4f735466cecf": "1479e50d-bf4c-4d01-944a-40b6e0f4d2e1"
    },
    "status": 0
}