{
    "state": "success",
    "sessionId": null,
    "class": "org.openqa.selenium.remote.Response",
    "value": [
        {
            "element-6066-11e4-a52e-4f735466cecf": "d50dc633-9a70-4243-b411-2e283ad5ec3f"
        }
    ],
    "status": 0
}