{
    "state": "success",
    "sessionId": null,
    "class": "org.openqa.selenium.remote.Response",
    "value": {
        "element-6066-11e4-a52e-4f735466cecf": "301e92e1-8285-4b6f-9368-ed80144e631a"
    },
    "status": 0
}