{
    "state": "success",
    "sessionId": null,
    "class": "org.openqa.selenium.remote.Response",
    "value": {
        "element-6066-11e4-a52e-4f735466cecf": "ee0c7bee-d098-4aff-9118-7044b6ed729d"
    },
    "status": 0
}