{
    "state": "success",
    "sessionId": null,
    "class": "org.openqa.selenium.remote.Response",
    "value": {
        "element-6066-11e4-a52e-4f735466cecf": "1ace80d4-227f-47ef-b704-dbc9dafbb4ce"
    },
    "status": 0
}