{
    "state": "success",
    "sessionId": null,
    "class": "org.openqa.selenium.remote.Response",
    "value": {
        "element-6066-11e4-a52e-4f735466cecf": "26c48b3f-2c7f-4867-a34e-8ddfcd5c4a92"
    },
    "status": 0
}