{
    "state": "success",
    "sessionId": null,
    "class": "org.openqa.selenium.remote.Response",
    "value": {
        "element-6066-11e4-a52e-4f735466cecf": "2f592f86-2af6-4f6d-af94-0aae4fed3b0b"
    },
    "status": 0
}