{
    "state": "success",
    "sessionId": null,
    "class": "org.openqa.selenium.remote.Response",
    "value": {
        "element-6066-11e4-a52e-4f735466cecf": "9984492d-f5e1-4ad3-b9f6-b48d36501aa1"
    },
    "status": 0
}