{
    "state": "success",
    "sessionId": null,
    "class": "org.openqa.selenium.remote.Response",
    "value": [
        {
            "element-6066-11e4-a52e-4f735466cecf": "b13a59bb-106d-4adc-81e2-9d96f398b4d6"
        }
    ],
    "status": 0
}