{
    "state": "success",
    "sessionId": null,
    "class": "org.openqa.selenium.remote.Response",
    "value": [
        {
            "element-6066-11e4-a52e-4f735466cecf": "62c5750b-628e-4ea1-9ac0-dd2dc577e5e8"
        }
    ],
    "status": 0
}