{
    "state": "success",
    "sessionId": null,
    "class": "org.openqa.selenium.remote.Response",
    "value": [
        {
            "element-6066-11e4-a52e-4f735466cecf": "e7c9ce1c-7958-435a-90c1-8a2446cf8db9"
        }
    ],
    "status": 0
}