{
    "state": "success",
    "sessionId": null,
    "class": "org.openqa.selenium.remote.Response",
    "value": {
        "element-6066-11e4-a52e-4f735466cecf": "4ec1e65c-423c-45d9-b678-e744ed7db191"
    },
    "status": 0
}