{
    "state": "success",
    "sessionId": null,
    "class": "org.openqa.selenium.remote.Response",
    "value": [
        {
            "element-6066-11e4-a52e-4f735466cecf": "46a2b76f-ea88-46c6-9a4e-7ed4eb881848"
        }
    ],
    "status": 0
}