{
    "state": "success",
    "sessionId": null,
    "class": "org.openqa.selenium.remote.Response",
    "value": {
        "element-6066-11e4-a52e-4f735466cecf": "61f259c6-c915-43c3-b841-d3fc57f03c33"
    },
    "status": 0
}