{
    "state": "success",
    "sessionId": null,
    "class": "org.openqa.selenium.remote.Response",
    "value": [
        {
            "element-6066-11e4-a52e-4f735466cecf": "9f610022-f4fb-4416-a7b6-7f2cff02cd8b"
        }
    ],
    "status": 0
}