{
    "state": "success",
    "sessionId": null,
    "class": "org.openqa.selenium.remote.Response",
    "value": [
        {
            "element-6066-11e4-a52e-4f735466cecf": "36243210-2b08-4e15-bbb8-d2aae021715a"
        }
    ],
    "status": 0
}