{
    "state": "success",
    "sessionId": null,
    "class": "org.openqa.selenium.remote.Response",
    "value": [
        {
            "element-6066-11e4-a52e-4f735466cecf": "0bfbb4e2-9347-4226-a6c1-9627d6feca32"
        }
    ],
    "status": 0
}