{
    "state": "success",
    "sessionId": null,
    "class": "org.openqa.selenium.remote.Response",
    "value": [
        {
            "element-6066-11e4-a52e-4f735466cecf": "e3078531-80e4-4d24-8b71-71d024163c08"
        }
    ],
    "status": 0
}