{
    "state": "success",
    "sessionId": null,
    "class": "org.openqa.selenium.remote.Response",
    "value": [
        {
            "element-6066-11e4-a52e-4f735466cecf": "f31a4082-3eb4-4bc8-9b73-da015a94fcc9"
        }
    ],
    "status": 0
}