{
    "state": "success",
    "sessionId": null,
    "class": "org.openqa.selenium.remote.Response",
    "value": {
        "element-6066-11e4-a52e-4f735466cecf": "3180ec8c-a378-43a5-a23f-cb0fcbc2f2fc"
    },
    "status": 0
}