{
    "state": "success",
    "sessionId": null,
    "class": "org.openqa.selenium.remote.Response",
    "value": [
        {
            "element-6066-11e4-a52e-4f735466cecf": "bb7cc6e1-1559-4d6d-8848-60307fb4849a"
        }
    ],
    "status": 0
}