{
    "state": "success",
    "sessionId": null,
    "class": "org.openqa.selenium.remote.Response",
    "value": {
        "element-6066-11e4-a52e-4f735466cecf": "6cee2b80-69c8-42af-849e-48c2e4b58444"
    },
    "status": 0
}