{
    "state": "success",
    "sessionId": null,
    "class": "org.openqa.selenium.remote.Response",
    "value": [
        {
            "element-6066-11e4-a52e-4f735466cecf": "fb381f68-7057-4475-b0df-869f92ab1404"
        }
    ],
    "status": 0
}