{
    "state": "success",
    "sessionId": null,
    "class": "org.openqa.selenium.remote.Response",
    "value": [
        {
            "element-6066-11e4-a52e-4f735466cecf": "ea6b0828-fe6c-48f6-b209-8db372c4bf82"
        }
    ],
    "status": 0
}