{
    "state": "success",
    "sessionId": null,
    "class": "org.openqa.selenium.remote.Response",
    "value": {
        "element-6066-11e4-a52e-4f735466cecf": "5adf6e3e-d445-4410-b6c1-7b487a0a4447"
    },
    "status": 0
}