{
    "state": "success",
    "sessionId": null,
    "class": "org.openqa.selenium.remote.Response",
    "value": {
        "element-6066-11e4-a52e-4f735466cecf": "ec76de52-b02b-4ed9-b4e3-b0e4ff471f1a"
    },
    "status": 0
}