{
    "state": "success",
    "sessionId": null,
    "class": "org.openqa.selenium.remote.Response",
    "value": {
        "element-6066-11e4-a52e-4f735466cecf": "fc536e90-91fb-469e-aff8-8aaa183aa075"
    },
    "status": 0
}