{
    "state": "success",
    "sessionId": null,
    "class": "org.openqa.selenium.remote.Response",
    "value": [
        {
            "element-6066-11e4-a52e-4f735466cecf": "e4984cc9-8684-45e6-a29e-28c5340f6abf"
        }
    ],
    "status": 0
}