{
    "state": "success",
    "sessionId": null,
    "class": "org.openqa.selenium.remote.Response",
    "value": [
        {
            "element-6066-11e4-a52e-4f735466cecf": "00560a49-73da-4a57-9f19-d42e963a766c"
        }
    ],
    "status": 0
}