{
    "state": "success",
    "sessionId": null,
    "class": "org.openqa.selenium.remote.Response",
    "value": {
        "element-6066-11e4-a52e-4f735466cecf": "1036a100-ca7d-48da-8bf9-480e465850dd"
    },
    "status": 0
}