{
    "state": "success",
    "sessionId": null,
    "class": "org.openqa.selenium.remote.Response",
    "value": "https://staging.zeidlerlegalservices.com/admin/kiid_approvals?kiid_type=tmd",
    "status": 0
}