{
    "state": "success",
    "sessionId": null,
    "class": "org.openqa.selenium.remote.Response",
    "value": {
        "element-6066-11e4-a52e-4f735466cecf": "84441cdb-c3b3-45f8-8d2b-d5acebe43ef1"
    },
    "status": 0
}