{
    "state": "success",
    "sessionId": null,
    "class": "org.openqa.selenium.remote.Response",
    "value": {
        "element-6066-11e4-a52e-4f735466cecf": "388901e9-10b7-459c-9806-153ea13193a6"
    },
    "status": 0
}