{
    "state": "success",
    "sessionId": null,
    "class": "org.openqa.selenium.remote.Response",
    "value": [
        {
            "element-6066-11e4-a52e-4f735466cecf": "32825ef7-e615-471d-bacb-d5505053c0d7"
        }
    ],
    "status": 0
}