{
    "state": "success",
    "sessionId": null,
    "class": "org.openqa.selenium.remote.Response",
    "value": [
        {
            "element-6066-11e4-a52e-4f735466cecf": "a9482a57-0268-4498-850d-9902c320d157"
        }
    ],
    "status": 0
}