{
    "state": "success",
    "sessionId": null,
    "class": "org.openqa.selenium.remote.Response",
    "value": [
        {
            "element-6066-11e4-a52e-4f735466cecf": "117d5214-5c89-4f8e-9edc-83cd129933e9"
        }
    ],
    "status": 0
}