{
    "state": "success",
    "sessionId": null,
    "class": "org.openqa.selenium.remote.Response",
    "value": {
        "element-6066-11e4-a52e-4f735466cecf": "f2a45a22-1327-4339-8f34-e5b1d029c21c"
    },
    "status": 0
}