{
    "state": "success",
    "sessionId": null,
    "class": "org.openqa.selenium.remote.Response",
    "value": [
        {
            "element-6066-11e4-a52e-4f735466cecf": "57d15426-9056-4742-be6b-161582921170"
        }
    ],
    "status": 0
}