{
    "state": "success",
    "sessionId": null,
    "class": "org.openqa.selenium.remote.Response",
    "value": {
        "element-6066-11e4-a52e-4f735466cecf": "698ee410-aaf1-415f-8a0d-1870dc94e661"
    },
    "status": 0
}