{
    "state": "success",
    "sessionId": null,
    "class": "org.openqa.selenium.remote.Response",
    "value": {
        "element-6066-11e4-a52e-4f735466cecf": "d5522ed1-415d-4c6a-834f-6c7d12d6f728"
    },
    "status": 0
}