{
    "state": "success",
    "sessionId": null,
    "class": "org.openqa.selenium.remote.Response",
    "value": {
        "element-6066-11e4-a52e-4f735466cecf": "b5804b21-0d56-40bf-a062-11c2e1ed55c5"
    },
    "status": 0
}