{
    "state": "success",
    "sessionId": null,
    "class": "org.openqa.selenium.remote.Response",
    "value": {
        "element-6066-11e4-a52e-4f735466cecf": "f0992d36-c82d-4f9c-984e-f3859392efc2"
    },
    "status": 0
}