{
    "state": "success",
    "sessionId": null,
    "class": "org.openqa.selenium.remote.Response",
    "value": {
        "element-6066-11e4-a52e-4f735466cecf": "8916b3c6-834b-467d-9864-0a9320054738"
    },
    "status": 0
}