{
    "state": "success",
    "sessionId": null,
    "class": "org.openqa.selenium.remote.Response",
    "value": [
        {
            "element-6066-11e4-a52e-4f735466cecf": "47b406f4-e40f-4462-9abb-2b36a12dadea"
        }
    ],
    "status": 0
}