{
    "state": "success",
    "sessionId": null,
    "class": "org.openqa.selenium.remote.Response",
    "value": [
        {
            "element-6066-11e4-a52e-4f735466cecf": "1c2037be-1a21-4da6-982e-2b052eb45190"
        }
    ],
    "status": 0
}