{
    "state": "success",
    "sessionId": null,
    "class": "org.openqa.selenium.remote.Response",
    "value": {
        "element-6066-11e4-a52e-4f735466cecf": "b65cef8b-55f7-43eb-8dcd-b3e44c445036"
    },
    "status": 0
}