{
    "state": "success",
    "sessionId": null,
    "class": "org.openqa.selenium.remote.Response",
    "value": {
        "element-6066-11e4-a52e-4f735466cecf": "1009051e-ee37-4f63-a4f8-fd219ed072ce"
    },
    "status": 0
}