{
    "state": "success",
    "sessionId": null,
    "class": "org.openqa.selenium.remote.Response",
    "value": {
        "element-6066-11e4-a52e-4f735466cecf": "9486fb60-0af6-4f4f-94f6-44f4ff7a286f"
    },
    "status": 0
}