{
    "state": "success",
    "sessionId": null,
    "class": "org.openqa.selenium.remote.Response",
    "value": {
        "element-6066-11e4-a52e-4f735466cecf": "a6fc456d-44ad-4e34-b35e-7cfc60abe829"
    },
    "status": 0
}