{
    "state": "success",
    "sessionId": null,
    "class": "org.openqa.selenium.remote.Response",
    "value": {
        "element-6066-11e4-a52e-4f735466cecf": "cfd6dd6c-17b6-460e-bd31-e4be5b626435"
    },
    "status": 0
}