{
    "state": "success",
    "sessionId": null,
    "class": "org.openqa.selenium.remote.Response",
    "value": [
        {
            "element-6066-11e4-a52e-4f735466cecf": "f6449955-d34c-46f2-90e9-4cd03f66dc81"
        }
    ],
    "status": 0
}