{
    "state": "success",
    "sessionId": null,
    "class": "org.openqa.selenium.remote.Response",
    "value": {
        "height": 797,
        "width": 1440,
        "x": 0,
        "y": 23
    },
    "status": 0
}