{
    "state": "success",
    "sessionId": null,
    "class": "org.openqa.selenium.remote.Response",
    "value": [
        {
            "element-6066-11e4-a52e-4f735466cecf": "aa8931c6-6a1b-4aaa-ad61-1f77b0a6afcb"
        }
    ],
    "status": 0
}