{
    "state": "success",
    "sessionId": null,
    "class": "org.openqa.selenium.remote.Response",
    "value": [
        {
            "element-6066-11e4-a52e-4f735466cecf": "870d0a41-c031-499d-b3da-e7827439f7f7"
        }
    ],
    "status": 0
}