{
    "state": "success",
    "sessionId": null,
    "class": "org.openqa.selenium.remote.Response",
    "value": [
        {
            "element-6066-11e4-a52e-4f735466cecf": "20373b7a-07e9-431c-a73c-d26114cfffa0"
        }
    ],
    "status": 0
}