{
    "value": [
        "E",
        "Q",
        "T",
        " ",
        "U",
        "m",
        "b",
        "r",
        "e",
        "l",
        "l",
        "a",
        " ",
        "T",
        "w",
        "o",
        " ",
        "F",
        "u",
        "n",
        "d",
        " ",
        "D",
        "i",
        "s",
        "t",
        "r",
        "i",
        "b",
        "u",
        "t",
        "i",
        "n",
        "g",
        " ",
        "8"
    ],
    "text": "EQT Umbrella Two Fund Distributing 8"
}