{
    "state": "success",
    "sessionId": null,
    "class": "org.openqa.selenium.remote.Response",
    "value": {
        "element-6066-11e4-a52e-4f735466cecf": "a880488b-c59a-4154-a979-b84895c90ef6"
    },
    "status": 0
}