{
    "message": "no such element: Unable to locate element: {\"method\":\"xpath\",\"selector\":\"//a[contains(text(),'Kiid Approvers')]\"}",
    "type": "RuntimeError",
    "seleniumStack": {
        "type": "NoSuchElement",
        "message": "An element could not be located on the page using the given search parameters.",
        "orgStatusMessage": "no such element: Unable to locate element: {\"method\":\"xpath\",\"selector\":\"//a[contains(text(),'Kiid Approvers')]\"}\n  (Session info: chrome=103.0.5060.134)\nFor documentation on this error, please visit: https://www.seleniumhq.org/exceptions/no_such_element.html\nBuild info: version: '3.141.59', revision: 'e82be7d358', time: '2018-11-14T08:25:53'\nSystem info: host: 'Amoghas-MacBook-Air.local', ip: 'fe80:0:0:0:1c01:2040:fbdd:f2c7%en0', os.name: 'Mac OS X', os.arch: 'x86_64', os.version: '10.15.7', java.version: '16.0.1'\nDriver info: driver.version: unknown"
    }
}