{
    "state": "success",
    "sessionId": null,
    "class": "org.openqa.selenium.remote.Response",
    "value": [
        {
            "element-6066-11e4-a52e-4f735466cecf": "7e333141-5754-4d2a-b023-fe0c2e3d5068"
        }
    ],
    "status": 0
}