{
    "state": "success",
    "sessionId": null,
    "class": "org.openqa.selenium.remote.Response",
    "value": [
        {
            "element-6066-11e4-a52e-4f735466cecf": "9e73a407-6f65-4808-949d-821e9ea7b0e6"
        }
    ],
    "status": 0
}