{
    "state": "success",
    "sessionId": null,
    "class": "org.openqa.selenium.remote.Response",
    "value": {
        "element-6066-11e4-a52e-4f735466cecf": "98a417b0-d475-4226-9110-0baa184daa08"
    },
    "status": 0
}