{
    "state": "success",
    "sessionId": null,
    "class": "org.openqa.selenium.remote.Response",
    "value": {
        "element-6066-11e4-a52e-4f735466cecf": "851ff30c-337b-44c5-98e0-19532fd7b568"
    },
    "status": 0
}