{
    "state": "success",
    "sessionId": null,
    "class": "org.openqa.selenium.remote.Response",
    "value": {
        "element-6066-11e4-a52e-4f735466cecf": "035c04f2-1870-431f-b121-125835f94a43"
    },
    "status": 0
}