{
    "state": "success",
    "sessionId": null,
    "class": "org.openqa.selenium.remote.Response",
    "value": {
        "element-6066-11e4-a52e-4f735466cecf": "5563b41a-415b-4bc9-922b-fc14c2e218f1"
    },
    "status": 0
}