{
    "state": "success",
    "sessionId": null,
    "class": "org.openqa.selenium.remote.Response",
    "value": [
        {
            "element-6066-11e4-a52e-4f735466cecf": "739bfe76-5e1b-4892-9e55-f3649409d359"
        }
    ],
    "status": 0
}