{
    "state": "success",
    "sessionId": null,
    "class": "org.openqa.selenium.remote.Response",
    "value": {
        "element-6066-11e4-a52e-4f735466cecf": "5440aee6-435c-4493-94b4-9f343a64bfe1"
    },
    "status": 0
}