{
    "state": "success",
    "sessionId": null,
    "class": "org.openqa.selenium.remote.Response",
    "value": {
        "element-6066-11e4-a52e-4f735466cecf": "b5cc5af5-4ab2-4267-b015-fbe1e5114db4"
    },
    "status": 0
}