{
    "value": [
        "Q",
        "A",
        " ",
        "r",
        "u",
        "l",
        "e",
        " ",
        "w",
        "i",
        "t",
        "h",
        " ",
        "m",
        "u",
        "l",
        "t",
        "i",
        " ",
        "c",
        "l",
        "a",
        "s",
        "s",
        "n",
        "a",
        "m",
        "e"
    ],
    "text": "QA rule with multi classname"
}