{
    "state": "success",
    "sessionId": null,
    "class": "org.openqa.selenium.remote.Response",
    "value": [
        {
            "element-6066-11e4-a52e-4f735466cecf": "b5a6fa34-10e6-4ddd-b598-a40b6528c1f3"
        }
    ],
    "status": 0
}