{
    "state": "success",
    "sessionId": null,
    "class": "org.openqa.selenium.remote.Response",
    "value": [
        {
            "element-6066-11e4-a52e-4f735466cecf": "b4a15278-9b01-4e32-9d12-65d417fd1c08"
        }
    ],
    "status": 0
}