{
    "state": "success",
    "sessionId": null,
    "class": "org.openqa.selenium.remote.Response",
    "value": {
        "element-6066-11e4-a52e-4f735466cecf": "f0a6f466-b0e7-409e-bb25-4ace0a5d1898"
    },
    "status": 0
}