{
    "state": "success",
    "sessionId": null,
    "class": "org.openqa.selenium.remote.Response",
    "value": {
        "element-6066-11e4-a52e-4f735466cecf": "f6a7fc6a-e77c-450c-a6e9-b6ef1b791bc0"
    },
    "status": 0
}