{
    "state": "success",
    "sessionId": null,
    "class": "org.openqa.selenium.remote.Response",
    "value": {
        "element-6066-11e4-a52e-4f735466cecf": "15abb340-277f-4084-9172-7c68fd739e94"
    },
    "status": 0
}