{
    "state": "success",
    "sessionId": null,
    "class": "org.openqa.selenium.remote.Response",
    "value": [
        {
            "element-6066-11e4-a52e-4f735466cecf": "3f127055-c8ad-4ab1-bb55-8a0dace1bfed"
        }
    ],
    "status": 0
}