{
    "state": "success",
    "sessionId": null,
    "class": "org.openqa.selenium.remote.Response",
    "value": {
        "element-6066-11e4-a52e-4f735466cecf": "5090bad0-d524-4c47-b19f-642cdbceaf36"
    },
    "status": 0
}