{
    "state": "success",
    "sessionId": null,
    "class": "org.openqa.selenium.remote.Response",
    "value": {
        "element-6066-11e4-a52e-4f735466cecf": "562a32ad-fa9c-44cc-9d50-b6ef1169a536"
    },
    "status": 0
}