{
    "state": "success",
    "sessionId": null,
    "class": "org.openqa.selenium.remote.Response",
    "value": [
        {
            "element-6066-11e4-a52e-4f735466cecf": "d209c549-1977-4934-8bdb-e1806ca06dab"
        }
    ],
    "status": 0
}