{
    "state": "success",
    "sessionId": null,
    "class": "org.openqa.selenium.remote.Response",
    "value": [
        {
            "element-6066-11e4-a52e-4f735466cecf": "60f88e1e-445e-4643-8785-4efca8343044"
        }
    ],
    "status": 0
}