{
    "state": "success",
    "sessionId": null,
    "class": "org.openqa.selenium.remote.Response",
    "value": {
        "element-6066-11e4-a52e-4f735466cecf": "ffd621d9-6090-4e72-a8d1-1b96d24508cc"
    },
    "status": 0
}