{
    "state": "success",
    "sessionId": null,
    "class": "org.openqa.selenium.remote.Response",
    "value": {
        "element-6066-11e4-a52e-4f735466cecf": "e1d6aee2-382b-4284-8ed7-cd5effbb2ca5"
    },
    "status": 0
}