{
    "state": "success",
    "sessionId": null,
    "class": "org.openqa.selenium.remote.Response",
    "value": [
        {
            "element-6066-11e4-a52e-4f735466cecf": "d20f397d-551c-4414-b0a7-8735c532eae7"
        }
    ],
    "status": 0
}