{
    "state": "success",
    "sessionId": null,
    "class": "org.openqa.selenium.remote.Response",
    "value": {
        "element-6066-11e4-a52e-4f735466cecf": "07bfea28-4a81-44bf-8e8e-b6f0c6da459e"
    },
    "status": 0
}