{
    "state": "success",
    "sessionId": null,
    "class": "org.openqa.selenium.remote.Response",
    "value": [
        {
            "element-6066-11e4-a52e-4f735466cecf": "597d0bae-e760-484d-96df-5abfa65e0366"
        }
    ],
    "status": 0
}