{
    "value": [
        "Q",
        "A",
        " ",
        "K",
        "I",
        "I",
        "D",
        " ",
        "S",
        "F",
        "T",
        "P",
        "_",
        "p",
        "r",
        "i",
        "v",
        "a",
        "t",
        "e",
        "k",
        "e",
        "y",
        "-",
        "a",
        "u",
        "t",
        "o",
        "m",
        "a",
        "t",
        "i",
        "o",
        "n"
    ],
    "text": "QA KIID SFTP_privatekey-automation"
}