{
    "state": "success",
    "sessionId": null,
    "class": "org.openqa.selenium.remote.Response",
    "value": [
        {
            "element-6066-11e4-a52e-4f735466cecf": "0cd33c7b-e0bc-479a-a7cc-5ab6feac0991"
        }
    ],
    "status": 0
}