{
    "state": "success",
    "sessionId": null,
    "class": "org.openqa.selenium.remote.Response",
    "value": [
        {
            "element-6066-11e4-a52e-4f735466cecf": "670ea359-5f68-46c5-ac9e-78db7ebb24e5"
        }
    ],
    "status": 0
}