{
    "state": "success",
    "sessionId": null,
    "class": "org.openqa.selenium.remote.Response",
    "value": {
        "element-6066-11e4-a52e-4f735466cecf": "650aee45-dd01-45ef-a35a-732b168d631c"
    },
    "status": 0
}