{
    "state": "success",
    "sessionId": null,
    "class": "org.openqa.selenium.remote.Response",
    "value": [
        {
            "element-6066-11e4-a52e-4f735466cecf": "3105781c-390e-4525-ad98-399eb2e81c3f"
        }
    ],
    "status": 0
}