{
    "state": "success",
    "sessionId": null,
    "class": "org.openqa.selenium.remote.Response",
    "value": [
        {
            "element-6066-11e4-a52e-4f735466cecf": "a4cf1773-f87f-4763-88c6-8ebe0049d008"
        }
    ],
    "status": 0
}