{
    "state": "success",
    "sessionId": null,
    "class": "org.openqa.selenium.remote.Response",
    "value": {
        "element-6066-11e4-a52e-4f735466cecf": "74a0c054-3458-4bb6-b7a3-c1e9397f09c5"
    },
    "status": 0
}