{
    "state": "success",
    "sessionId": null,
    "class": "org.openqa.selenium.remote.Response",
    "value": [
        {
            "element-6066-11e4-a52e-4f735466cecf": "6ba1dfdf-d92c-4c29-a328-9608fa79bebf"
        }
    ],
    "status": 0
}