{
    "state": "success",
    "sessionId": null,
    "class": "org.openqa.selenium.remote.Response",
    "value": {
        "element-6066-11e4-a52e-4f735466cecf": "5eb8786a-37d3-4a5d-9b7b-ce8ee8261094"
    },
    "status": 0
}