{
    "state": "success",
    "sessionId": null,
    "class": "org.openqa.selenium.remote.Response",
    "value": {
        "element-6066-11e4-a52e-4f735466cecf": "78517d5b-33e5-43eb-a8aa-a991856d248f"
    },
    "status": 0
}