{
    "state": "success",
    "sessionId": null,
    "class": "org.openqa.selenium.remote.Response",
    "value": [
        {
            "element-6066-11e4-a52e-4f735466cecf": "9316a450-54b3-46ad-adcf-e415745111f8"
        }
    ],
    "status": 0
}