{
    "state": "success",
    "sessionId": null,
    "class": "org.openqa.selenium.remote.Response",
    "value": {
        "element-6066-11e4-a52e-4f735466cecf": "c66bb5d2-1cbb-4d4f-8bf9-19cb5defb1f8"
    },
    "status": 0
}