{
    "state": "success",
    "sessionId": null,
    "class": "org.openqa.selenium.remote.Response",
    "value": [
        {
            "element-6066-11e4-a52e-4f735466cecf": "ef660259-cf3f-4110-abc6-6ff7a09addfc"
        }
    ],
    "status": 0
}