{
    "state": "success",
    "sessionId": null,
    "class": "org.openqa.selenium.remote.Response",
    "value": {
        "element-6066-11e4-a52e-4f735466cecf": "533e67fe-591d-466b-8c8f-c053f8df16f8"
    },
    "status": 0
}