{
    "state": "success",
    "sessionId": null,
    "class": "org.openqa.selenium.remote.Response",
    "value": {
        "element-6066-11e4-a52e-4f735466cecf": "f88c11ac-8be4-4418-8386-bbced052d925"
    },
    "status": 0
}