{
    "state": "success",
    "sessionId": null,
    "class": "org.openqa.selenium.remote.Response",
    "value": [
        {
            "element-6066-11e4-a52e-4f735466cecf": "b76e7165-c6f2-4e44-a200-1055caee1362"
        }
    ],
    "status": 0
}