{
    "state": "success",
    "sessionId": null,
    "class": "org.openqa.selenium.remote.Response",
    "value": [
        {
            "element-6066-11e4-a52e-4f735466cecf": "16e56854-77d1-46ae-a7f7-e84738c553e4"
        }
    ],
    "status": 0
}