{
    "value": [
        "Q",
        "A",
        " ",
        "r",
        "u",
        "l",
        "e",
        " ",
        "w",
        "i",
        "t",
        "h",
        " ",
        "m",
        "u",
        "l",
        "t",
        "i",
        " ",
        "i",
        "s",
        "i",
        "n"
    ],
    "text": "QA rule with multi isin"
}