{
    "state": "success",
    "sessionId": null,
    "class": "org.openqa.selenium.remote.Response",
    "value": [
        {
            "element-6066-11e4-a52e-4f735466cecf": "af9e716e-8293-420f-8bdb-237734dce59a"
        }
    ],
    "status": 0
}