{
    "state": "success",
    "sessionId": null,
    "class": "org.openqa.selenium.remote.Response",
    "value": {
        "element-6066-11e4-a52e-4f735466cecf": "11530826-9787-4854-a94a-8b830c2cdd98"
    },
    "status": 0
}