{
    "state": "success",
    "sessionId": null,
    "class": "org.openqa.selenium.remote.Response",
    "value": {
        "element-6066-11e4-a52e-4f735466cecf": "3aa162f8-efe1-499c-8894-c98e2322ce58"
    },
    "status": 0
}