{
    "state": "success",
    "sessionId": null,
    "class": "org.openqa.selenium.remote.Response",
    "value": [
        {
            "element-6066-11e4-a52e-4f735466cecf": "8ed1d56f-d41b-4883-8517-48583474da40"
        }
    ],
    "status": 0
}