{
    "state": "success",
    "sessionId": null,
    "class": "org.openqa.selenium.remote.Response",
    "value": [
        {
            "element-6066-11e4-a52e-4f735466cecf": "375c3b96-700a-49ad-9fd0-5402899e269b"
        }
    ],
    "status": 0
}