{
    "state": "success",
    "sessionId": null,
    "class": "org.openqa.selenium.remote.Response",
    "value": {
        "element-6066-11e4-a52e-4f735466cecf": "602fb4a1-745e-4e01-9ad1-e743f028b6aa"
    },
    "status": 0
}