{
    "state": "success",
    "sessionId": null,
    "class": "org.openqa.selenium.remote.Response",
    "value": {
        "element-6066-11e4-a52e-4f735466cecf": "2e0db410-658c-4f04-bc72-da31f356ff77"
    },
    "status": 0
}