{
    "state": "success",
    "sessionId": null,
    "class": "org.openqa.selenium.remote.Response",
    "value": [
        {
            "element-6066-11e4-a52e-4f735466cecf": "9dfbcbce-1ab4-493f-bbeb-cd71ff0c3f49"
        }
    ],
    "status": 0
}