{
    "state": "success",
    "sessionId": null,
    "class": "org.openqa.selenium.remote.Response",
    "value": [
        {
            "element-6066-11e4-a52e-4f735466cecf": "c0b895bd-336f-4b18-b7fd-9df7f92e18f7"
        }
    ],
    "status": 0
}