{
    "state": "success",
    "sessionId": null,
    "class": "org.openqa.selenium.remote.Response",
    "value": [
        {
            "element-6066-11e4-a52e-4f735466cecf": "07413d5e-5d46-488e-b297-cd59060e74d5"
        }
    ],
    "status": 0
}