{
    "value": [
        "C",
        "a",
        "l",
        "i",
        "b",
        "r",
        "e",
        "@",
        "2",
        "0",
        "2",
        "0"
    ],
    "text": "Calibre@2020"
}