{
    "value": [
        "s",
        "i",
        "n",
        "d",
        "h",
        "u",
        "q",
        "j",
        "h",
        "o",
        "x",
        "g",
        "0",
        "2",
        "2",
        "3",
        "@",
        "y",
        "o",
        "p",
        "m",
        "a",
        "i",
        "l",
        ".",
        "c",
        "o",
        "m"
    ],
    "text": "sindhuqjhoxg0223@yopmail.com"
}