{
    "state": "success",
    "sessionId": null,
    "class": "org.openqa.selenium.remote.Response",
    "value": {
        "element-6066-11e4-a52e-4f735466cecf": "e3f8e619-a6c2-4236-9e6e-018ded39500d"
    },
    "status": 0
}