{
    "state": "success",
    "sessionId": null,
    "class": "org.openqa.selenium.remote.Response",
    "value": [
        {
            "element-6066-11e4-a52e-4f735466cecf": "34e4407e-64f0-4127-b973-b5f6d77a0d0d"
        }
    ],
    "status": 0
}