{
    "state": "success",
    "sessionId": null,
    "class": "org.openqa.selenium.remote.Response",
    "value": [
        {
            "element-6066-11e4-a52e-4f735466cecf": "cc48800a-7bc0-4b89-919b-8b2ef20f2d71"
        }
    ],
    "status": 0
}