{
    "state": "success",
    "sessionId": null,
    "class": "org.openqa.selenium.remote.Response",
    "value": [
        {
            "element-6066-11e4-a52e-4f735466cecf": "ac8389ca-b169-4085-8cda-41739e872794"
        }
    ],
    "status": 0
}