{
    "state": "success",
    "sessionId": null,
    "class": "org.openqa.selenium.remote.Response",
    "value": [
        {
            "element-6066-11e4-a52e-4f735466cecf": "a1143b56-30a7-41ab-80d0-5a0f709160cd"
        }
    ],
    "status": 0
}