{
    "state": "success",
    "sessionId": null,
    "class": "org.openqa.selenium.remote.Response",
    "value": {
        "element-6066-11e4-a52e-4f735466cecf": "af0d9775-0d47-4031-9154-84cf24c5f178"
    },
    "status": 0
}