{
    "state": "success",
    "sessionId": null,
    "class": "org.openqa.selenium.remote.Response",
    "value": {
        "element-6066-11e4-a52e-4f735466cecf": "9a687d2c-fa09-478f-94b1-a897a816d47a"
    },
    "status": 0
}