{
    "state": "success",
    "sessionId": null,
    "class": "org.openqa.selenium.remote.Response",
    "value": {
        "element-6066-11e4-a52e-4f735466cecf": "416d8cd9-825e-4433-81e2-2432a5469fe2"
    },
    "status": 0
}