{
    "state": "success",
    "sessionId": null,
    "class": "org.openqa.selenium.remote.Response",
    "value": [
        {
            "element-6066-11e4-a52e-4f735466cecf": "e5e014f1-e55a-4895-9d57-4d75e6bef501"
        }
    ],
    "status": 0
}