{
    "state": "success",
    "sessionId": null,
    "class": "org.openqa.selenium.remote.Response",
    "value": [
        {
            "element-6066-11e4-a52e-4f735466cecf": "337a637f-6509-433b-a82a-1135924fe04e"
        }
    ],
    "status": 0
}