{
    "state": "success",
    "sessionId": null,
    "class": "org.openqa.selenium.remote.Response",
    "value": {
        "element-6066-11e4-a52e-4f735466cecf": "e6a58b78-2c60-432d-964d-0ef34485f1f9"
    },
    "status": 0
}