{
    "state": "success",
    "sessionId": null,
    "class": "org.openqa.selenium.remote.Response",
    "value": [
        {
            "element-6066-11e4-a52e-4f735466cecf": "628460cb-db06-49ba-aef7-705cd3ccbfda"
        }
    ],
    "status": 0
}