{
    "state": "success",
    "sessionId": null,
    "class": "org.openqa.selenium.remote.Response",
    "value": {
        "element-6066-11e4-a52e-4f735466cecf": "29571b8a-a918-4168-9018-8aacc3ed88a7"
    },
    "status": 0
}