{
    "state": "success",
    "sessionId": null,
    "class": "org.openqa.selenium.remote.Response",
    "value": {
        "element-6066-11e4-a52e-4f735466cecf": "d62223bb-25b7-4b2a-af7f-cc72dc422158"
    },
    "status": 0
}