{
    "state": "success",
    "sessionId": null,
    "class": "org.openqa.selenium.remote.Response",
    "value": [
        {
            "element-6066-11e4-a52e-4f735466cecf": "922678fb-97ab-44bb-96eb-4cfccbe63d60"
        }
    ],
    "status": 0
}