{
    "state": "success",
    "sessionId": null,
    "class": "org.openqa.selenium.remote.Response",
    "value": {
        "element-6066-11e4-a52e-4f735466cecf": "703a5c7e-497f-49ad-8f9d-527a46c8c796"
    },
    "status": 0
}