{
    "value": [
        "T",
        "M",
        "D",
        " ",
        "A",
        "p",
        "p",
        "r",
        "o",
        "v",
        "a",
        "l",
        " ",
        "l",
        "e",
        "v",
        "e",
        "l",
        "1",
        " ",
        "a",
        "u",
        "t",
        "o",
        "m",
        "a",
        "t",
        "i",
        "o",
        "n"
    ],
    "text": "TMD Approval level1 automation"
}