{
    "state": "success",
    "sessionId": null,
    "class": "org.openqa.selenium.remote.Response",
    "value": {
        "element-6066-11e4-a52e-4f735466cecf": "a246169d-48e1-4f62-a7b1-4351d4e6b143"
    },
    "status": 0
}