{
    "state": "success",
    "sessionId": null,
    "class": "org.openqa.selenium.remote.Response",
    "value": [
        {
            "element-6066-11e4-a52e-4f735466cecf": "697ee08e-9dac-498b-89ef-81d27bc5fca4"
        }
    ],
    "status": 0
}