{
    "state": "success",
    "sessionId": null,
    "class": "org.openqa.selenium.remote.Response",
    "value": [
        {
            "element-6066-11e4-a52e-4f735466cecf": "eec2f9cf-136a-4bb3-ab5f-4a8f43f35c5e"
        }
    ],
    "status": 0
}