{
    "state": "success",
    "sessionId": null,
    "class": "org.openqa.selenium.remote.Response",
    "value": [
        {
            "element-6066-11e4-a52e-4f735466cecf": "ece6beb5-e7ab-47f9-bdee-6652124ad767"
        }
    ],
    "status": 0
}