{
    "state": "success",
    "sessionId": null,
    "class": "org.openqa.selenium.remote.Response",
    "value": {
        "element-6066-11e4-a52e-4f735466cecf": "12d0eda1-08ac-49a9-85cb-368bbe9feee0"
    },
    "status": 0
}