{
    "state": "success",
    "sessionId": null,
    "class": "org.openqa.selenium.remote.Response",
    "value": {
        "element-6066-11e4-a52e-4f735466cecf": "dadf5405-27f2-4f91-a926-50f814157496"
    },
    "status": 0
}