{
    "state": "success",
    "sessionId": null,
    "class": "org.openqa.selenium.remote.Response",
    "value": [
        {
            "element-6066-11e4-a52e-4f735466cecf": "c9fe61da-8d5d-422e-82e0-aeac62b13a8b"
        }
    ],
    "status": 0
}