{
    "state": "success",
    "sessionId": null,
    "class": "org.openqa.selenium.remote.Response",
    "value": [
        {
            "element-6066-11e4-a52e-4f735466cecf": "5a3ca9f8-193c-480c-b2d3-fc783ed9ef95"
        }
    ],
    "status": 0
}