{
    "state": "success",
    "sessionId": null,
    "class": "org.openqa.selenium.remote.Response",
    "value": {
        "element-6066-11e4-a52e-4f735466cecf": "e9fe10a4-3afe-4793-9082-3bf268ac82a7"
    },
    "status": 0
}