{
    "state": "success",
    "sessionId": null,
    "class": "org.openqa.selenium.remote.Response",
    "value": [
        {
            "element-6066-11e4-a52e-4f735466cecf": "98eae5d5-d76d-4d8a-849d-38113a4457e8"
        }
    ],
    "status": 0
}