{
    "state": "success",
    "sessionId": null,
    "class": "org.openqa.selenium.remote.Response",
    "value": [
        {
            "element-6066-11e4-a52e-4f735466cecf": "2e373237-1e0c-444b-ac47-a40b6ecc9541"
        }
    ],
    "status": 0
}