{
    "state": "success",
    "sessionId": null,
    "class": "org.openqa.selenium.remote.Response",
    "value": {
        "element-6066-11e4-a52e-4f735466cecf": "a7fc3dfb-e61b-42ec-a24f-f98722afd34d"
    },
    "status": 0
}