{
    "state": "success",
    "sessionId": null,
    "class": "org.openqa.selenium.remote.Response",
    "value": {
        "element-6066-11e4-a52e-4f735466cecf": "654b47c3-bf2c-4f24-9b1b-9a12aa8dd135"
    },
    "status": 0
}