{
    "state": "success",
    "sessionId": null,
    "class": "org.openqa.selenium.remote.Response",
    "value": {
        "element-6066-11e4-a52e-4f735466cecf": "74cb582c-3d43-4148-a34d-a0cf3e3f3e64"
    },
    "status": 0
}