{
    "state": "success",
    "sessionId": null,
    "class": "org.openqa.selenium.remote.Response",
    "value": [
        {
            "element-6066-11e4-a52e-4f735466cecf": "036c3546-32dd-4107-b86a-01b6777106c1"
        }
    ],
    "status": 0
}