{
    "state": "success",
    "sessionId": null,
    "class": "org.openqa.selenium.remote.Response",
    "value": {
        "element-6066-11e4-a52e-4f735466cecf": "40539585-ac3b-42f2-95c1-f263178b2fb8"
    },
    "status": 0
}