{
    "state": "success",
    "sessionId": null,
    "class": "org.openqa.selenium.remote.Response",
    "value": {
        "element-6066-11e4-a52e-4f735466cecf": "edda7324-311c-4b07-a7bf-6009c21c6cda"
    },
    "status": 0
}