{
    "state": "success",
    "sessionId": null,
    "class": "org.openqa.selenium.remote.Response",
    "value": [
        {
            "element-6066-11e4-a52e-4f735466cecf": "8bf577c2-9bc2-4232-8086-e5ca0c157537"
        }
    ],
    "status": 0
}