{
    "state": "success",
    "sessionId": null,
    "class": "org.openqa.selenium.remote.Response",
    "value": {
        "element-6066-11e4-a52e-4f735466cecf": "aebdd931-9aad-4696-b449-9be071783d0a"
    },
    "status": 0
}