{
    "state": "success",
    "sessionId": null,
    "class": "org.openqa.selenium.remote.Response",
    "value": {
        "element-6066-11e4-a52e-4f735466cecf": "c91a78d1-6851-4344-ba93-5b8488dd55a7"
    },
    "status": 0
}