{
    "state": "success",
    "sessionId": null,
    "class": "org.openqa.selenium.remote.Response",
    "value": {
        "element-6066-11e4-a52e-4f735466cecf": "e3834acc-0d9b-4ee8-8e40-e1722474a6bc"
    },
    "status": 0
}