{
    "state": "success",
    "sessionId": null,
    "class": "org.openqa.selenium.remote.Response",
    "value": [
        {
            "element-6066-11e4-a52e-4f735466cecf": "a5e680d1-02ae-42c4-bedb-58839e028b03"
        }
    ],
    "status": 0
}