{
    "state": "success",
    "sessionId": null,
    "class": "org.openqa.selenium.remote.Response",
    "value": {
        "element-6066-11e4-a52e-4f735466cecf": "03c43414-e9e1-41db-82ab-85dc16d7d55a"
    },
    "status": 0
}