{
    "state": "success",
    "sessionId": null,
    "class": "org.openqa.selenium.remote.Response",
    "value": {
        "element-6066-11e4-a52e-4f735466cecf": "0f32623f-efe7-4494-8853-08f9abe4c66e"
    },
    "status": 0
}