{
    "state": "success",
    "sessionId": null,
    "class": "org.openqa.selenium.remote.Response",
    "value": {
        "element-6066-11e4-a52e-4f735466cecf": "f2dd46a9-60fa-4cd6-8cab-dfcab48ebee8"
    },
    "status": 0
}