{
    "state": "success",
    "sessionId": null,
    "class": "org.openqa.selenium.remote.Response",
    "value": [
        {
            "element-6066-11e4-a52e-4f735466cecf": "3dbf579b-1bb8-41a4-9866-b7fd7b5ba01c"
        }
    ],
    "status": 0
}