{
    "state": "success",
    "sessionId": null,
    "class": "org.openqa.selenium.remote.Response",
    "value": {
        "element-6066-11e4-a52e-4f735466cecf": "aecf3f11-7b76-4560-926f-3f408b2a7721"
    },
    "status": 0
}