{
    "state": "success",
    "sessionId": null,
    "class": "org.openqa.selenium.remote.Response",
    "value": {
        "element-6066-11e4-a52e-4f735466cecf": "9254af00-4508-4dad-822d-9cfe526ab008"
    },
    "status": 0
}