{
    "state": "success",
    "sessionId": null,
    "class": "org.openqa.selenium.remote.Response",
    "value": [
        {
            "element-6066-11e4-a52e-4f735466cecf": "5e218663-1748-4f67-ba2a-9c9e2cb97db1"
        }
    ],
    "status": 0
}