{
    "state": "success",
    "sessionId": null,
    "class": "org.openqa.selenium.remote.Response",
    "value": [
        {
            "element-6066-11e4-a52e-4f735466cecf": "d6c7cec3-017c-4334-a253-eff58a53308d"
        }
    ],
    "status": 0
}