{
    "state": "success",
    "sessionId": null,
    "class": "org.openqa.selenium.remote.Response",
    "value": [
        {
            "element-6066-11e4-a52e-4f735466cecf": "29087bed-c3fe-421d-8ac4-130b569d49dc"
        }
    ],
    "status": 0
}