{
    "state": "success",
    "sessionId": null,
    "class": "org.openqa.selenium.remote.Response",
    "value": [
        {
            "element-6066-11e4-a52e-4f735466cecf": "4a36d857-99e8-4376-ac32-473ea1c2f938"
        }
    ],
    "status": 0
}