{
    "state": "success",
    "sessionId": null,
    "class": "org.openqa.selenium.remote.Response",
    "value": {
        "element-6066-11e4-a52e-4f735466cecf": "9323b577-4d87-4c45-b9ee-e506834d82cb"
    },
    "status": 0
}