{
    "state": "success",
    "sessionId": null,
    "class": "org.openqa.selenium.remote.Response",
    "value": [
        {
            "element-6066-11e4-a52e-4f735466cecf": "cfcc0ed4-8adc-4756-bc64-699dd117681a"
        }
    ],
    "status": 0
}