{
    "state": "success",
    "sessionId": null,
    "class": "org.openqa.selenium.remote.Response",
    "value": {
        "element-6066-11e4-a52e-4f735466cecf": "9f856a93-51e0-4251-8014-5bcd3e3f898c"
    },
    "status": 0
}