{
    "state": "success",
    "sessionId": null,
    "class": "org.openqa.selenium.remote.Response",
    "value": {
        "element-6066-11e4-a52e-4f735466cecf": "4ccfc639-5392-492a-8d73-5e33ef1d816e"
    },
    "status": 0
}