{
    "state": "success",
    "sessionId": null,
    "class": "org.openqa.selenium.remote.Response",
    "value": {
        "element-6066-11e4-a52e-4f735466cecf": "b6ddfebe-c5f5-4781-8cf9-9dc23a878209"
    },
    "status": 0
}