{
    "state": "success",
    "sessionId": null,
    "class": "org.openqa.selenium.remote.Response",
    "value": {
        "element-6066-11e4-a52e-4f735466cecf": "1f029f1f-f49b-49e9-affa-c0b5bece4a51"
    },
    "status": 0
}