{
    "state": "success",
    "sessionId": null,
    "class": "org.openqa.selenium.remote.Response",
    "value": [
        {
            "element-6066-11e4-a52e-4f735466cecf": "546c44fa-6822-404d-83a3-8a900ab092cf"
        }
    ],
    "status": 0
}