{
    "state": "success",
    "sessionId": null,
    "class": "org.openqa.selenium.remote.Response",
    "value": {
        "element-6066-11e4-a52e-4f735466cecf": "4c947580-26d7-468a-a0e4-31c886c618a1"
    },
    "status": 0
}