{
    "state": "success",
    "sessionId": null,
    "class": "org.openqa.selenium.remote.Response",
    "value": [
        {
            "element-6066-11e4-a52e-4f735466cecf": "a5f79f3b-280b-4d3a-ad4f-dc39ad3ded4e"
        }
    ],
    "status": 0
}