{
    "state": "success",
    "sessionId": null,
    "class": "org.openqa.selenium.remote.Response",
    "value": [
        {
            "element-6066-11e4-a52e-4f735466cecf": "fc744ece-1277-4ab7-b052-017349e6a5c8"
        }
    ],
    "status": 0
}