{
    "state": "success",
    "sessionId": null,
    "class": "org.openqa.selenium.remote.Response",
    "value": {
        "element-6066-11e4-a52e-4f735466cecf": "2cb4e996-d76d-4420-a48d-f34489577b79"
    },
    "status": 0
}