{
    "state": "success",
    "sessionId": null,
    "class": "org.openqa.selenium.remote.Response",
    "value": {
        "element-6066-11e4-a52e-4f735466cecf": "daad0cc8-751b-4721-9f22-38e993dc4d9c"
    },
    "status": 0
}