{
    "state": "success",
    "sessionId": null,
    "class": "org.openqa.selenium.remote.Response",
    "value": {
        "element-6066-11e4-a52e-4f735466cecf": "f7ccd355-d6bd-4269-a44a-526ba2af25da"
    },
    "status": 0
}