{
    "state": "success",
    "sessionId": null,
    "class": "org.openqa.selenium.remote.Response",
    "value": {
        "element-6066-11e4-a52e-4f735466cecf": "526cde04-2c64-4b0e-b6cb-0dea1c9c8a9a"
    },
    "status": 0
}