{
    "state": "success",
    "sessionId": null,
    "class": "org.openqa.selenium.remote.Response",
    "value": [
        {
            "element-6066-11e4-a52e-4f735466cecf": "31d51fe0-37c9-452d-99da-8bed0913739d"
        }
    ],
    "status": 0
}