{
    "state": "success",
    "sessionId": null,
    "class": "org.openqa.selenium.remote.Response",
    "value": {
        "element-6066-11e4-a52e-4f735466cecf": "59f7924f-ad4c-47ea-ae79-1983b250203a"
    },
    "status": 0
}