{
    "state": "success",
    "sessionId": null,
    "class": "org.openqa.selenium.remote.Response",
    "value": {
        "element-6066-11e4-a52e-4f735466cecf": "d0b25ae4-5220-45b0-a480-cd4986de16f9"
    },
    "status": 0
}