{
    "state": "success",
    "sessionId": null,
    "class": "org.openqa.selenium.remote.Response",
    "value": [
        {
            "element-6066-11e4-a52e-4f735466cecf": "8ac4b9f9-8315-4282-a2c0-61ca0ef16794"
        }
    ],
    "status": 0
}