{
    "state": "success",
    "sessionId": null,
    "class": "org.openqa.selenium.remote.Response",
    "value": [
        {
            "element-6066-11e4-a52e-4f735466cecf": "3b62911f-1ba0-439c-8bf0-ba5a538b1114"
        }
    ],
    "status": 0
}