{
    "value": [
        "Q",
        "A",
        " ",
        "r",
        "u",
        "l",
        "e",
        " ",
        "w",
        "i",
        "t",
        "h",
        " ",
        "f",
        "r",
        "e",
        "e"
    ],
    "text": "QA rule with free"
}