{
    "state": "success",
    "sessionId": null,
    "class": "org.openqa.selenium.remote.Response",
    "value": [
        {
            "element-6066-11e4-a52e-4f735466cecf": "084e4597-9881-40b8-9425-9c683235fc07"
        }
    ],
    "status": 0
}