{
    "state": "success",
    "sessionId": null,
    "class": "org.openqa.selenium.remote.Response",
    "value": {
        "element-6066-11e4-a52e-4f735466cecf": "87c29e4b-798c-4911-8d51-9f6827a4889c"
    },
    "status": 0
}