{
    "state": "success",
    "sessionId": null,
    "class": "org.openqa.selenium.remote.Response",
    "value": {
        "element-6066-11e4-a52e-4f735466cecf": "685bbe90-d56a-4550-9259-c84cbcca993f"
    },
    "status": 0
}