{
    "state": "success",
    "sessionId": null,
    "class": "org.openqa.selenium.remote.Response",
    "value": {
        "element-6066-11e4-a52e-4f735466cecf": "9859ac46-ae94-498e-bee0-212f0677a043"
    },
    "status": 0
}