{
    "state": "success",
    "sessionId": null,
    "class": "org.openqa.selenium.remote.Response",
    "value": {
        "element-6066-11e4-a52e-4f735466cecf": "8cd7e0e4-6e79-4264-938c-07f5a1f774c2"
    },
    "status": 0
}