{
    "state": "success",
    "sessionId": null,
    "class": "org.openqa.selenium.remote.Response",
    "value": {
        "element-6066-11e4-a52e-4f735466cecf": "d6813b38-b94d-4af2-96b5-434f35be9606"
    },
    "status": 0
}