{
    "value": [
        "s",
        "i",
        "n",
        "d",
        "h",
        "u",
        "i",
        "r",
        "p",
        "u",
        "w",
        "p",
        "5",
        "6",
        "6",
        "1",
        "@",
        "y",
        "o",
        "p",
        "m",
        "a",
        "i",
        "l",
        ".",
        "c",
        "o",
        "m"
    ],
    "text": "sindhuirpuwp5661@yopmail.com"
}