{
    "state": "success",
    "sessionId": null,
    "class": "org.openqa.selenium.remote.Response",
    "value": [
        {
            "element-6066-11e4-a52e-4f735466cecf": "06d83726-2a02-4bcc-9151-3679a5b8171f"
        }
    ],
    "status": 0
}