{
    "state": "success",
    "sessionId": null,
    "class": "org.openqa.selenium.remote.Response",
    "value": {
        "element-6066-11e4-a52e-4f735466cecf": "468ca314-590b-429d-8f40-a2a85680f1c1"
    },
    "status": 0
}