{
    "state": "success",
    "sessionId": null,
    "class": "org.openqa.selenium.remote.Response",
    "value": {
        "element-6066-11e4-a52e-4f735466cecf": "fe8e35f0-ff96-4b99-b414-bbd938b619a5"
    },
    "status": 0
}