{
    "state": "success",
    "sessionId": null,
    "class": "org.openqa.selenium.remote.Response",
    "value": [
        {
            "element-6066-11e4-a52e-4f735466cecf": "413da504-3415-406c-8b00-aeef6297809a"
        }
    ],
    "status": 0
}