{
    "state": "success",
    "sessionId": null,
    "class": "org.openqa.selenium.remote.Response",
    "value": {
        "element-6066-11e4-a52e-4f735466cecf": "5c325429-3004-4900-86cc-2ec068db70c8"
    },
    "status": 0
}