{
    "state": "success",
    "sessionId": null,
    "class": "org.openqa.selenium.remote.Response",
    "value": {
        "element-6066-11e4-a52e-4f735466cecf": "8dda9342-cf5a-4dc6-bcef-d0be93104510"
    },
    "status": 0
}