{
    "state": "success",
    "sessionId": null,
    "class": "org.openqa.selenium.remote.Response",
    "value": [
        {
            "element-6066-11e4-a52e-4f735466cecf": "81418d81-678a-4dd0-a6d0-b738e10fb5fc"
        }
    ],
    "status": 0
}