{
    "state": "success",
    "sessionId": null,
    "class": "org.openqa.selenium.remote.Response",
    "value": {
        "element-6066-11e4-a52e-4f735466cecf": "ee5a570c-ea44-48f4-a758-a580e68a1076"
    },
    "status": 0
}