{
    "state": "success",
    "sessionId": null,
    "class": "org.openqa.selenium.remote.Response",
    "value": [
        {
            "element-6066-11e4-a52e-4f735466cecf": "4b2bd804-59e9-4020-b172-4b72e3b5176a"
        }
    ],
    "status": 0
}