{
    "state": "success",
    "sessionId": null,
    "class": "org.openqa.selenium.remote.Response",
    "value": {
        "element-6066-11e4-a52e-4f735466cecf": "eb76c8a2-f725-4bda-ab3d-54fac89ccaf7"
    },
    "status": 0
}