{
    "state": "success",
    "sessionId": null,
    "class": "org.openqa.selenium.remote.Response",
    "value": {
        "element-6066-11e4-a52e-4f735466cecf": "a9d4f5f5-be52-4cab-86bf-077c520ced4d"
    },
    "status": 0
}