{
    "state": "success",
    "sessionId": null,
    "class": "org.openqa.selenium.remote.Response",
    "value": {
        "element-6066-11e4-a52e-4f735466cecf": "8e3fd876-0722-4527-a2ae-a1ac05a0e353"
    },
    "status": 0
}