{
    "state": "success",
    "sessionId": null,
    "class": "org.openqa.selenium.remote.Response",
    "value": {
        "element-6066-11e4-a52e-4f735466cecf": "cd25e60c-aac3-45f2-85f2-5b8ca1eb659c"
    },
    "status": 0
}