{
    "state": "success",
    "sessionId": null,
    "class": "org.openqa.selenium.remote.Response",
    "value": {
        "element-6066-11e4-a52e-4f735466cecf": "7f0ed3a2-2ea6-474f-a24b-db06ae19a350"
    },
    "status": 0
}