{
    "state": "success",
    "sessionId": null,
    "class": "org.openqa.selenium.remote.Response",
    "value": [
        {
            "element-6066-11e4-a52e-4f735466cecf": "b8ab1b39-37a5-4252-9133-0c8b4def3878"
        }
    ],
    "status": 0
}