{
    "state": "success",
    "sessionId": null,
    "class": "org.openqa.selenium.remote.Response",
    "value": [
        {
            "element-6066-11e4-a52e-4f735466cecf": "609c14f7-d558-4e4f-8091-c949f1b57a7d"
        }
    ],
    "status": 0
}