{
    "state": "success",
    "sessionId": null,
    "class": "org.openqa.selenium.remote.Response",
    "value": [
        {
            "element-6066-11e4-a52e-4f735466cecf": "dfa7ed00-e099-4c78-97bf-b31a798d009f"
        }
    ],
    "status": 0
}