{
    "state": "success",
    "sessionId": null,
    "class": "org.openqa.selenium.remote.Response",
    "value": [
        {
            "element-6066-11e4-a52e-4f735466cecf": "58a9bbf1-db20-4402-b8f8-dfbd5b692a23"
        }
    ],
    "status": 0
}