{
    "state": "success",
    "sessionId": null,
    "class": "org.openqa.selenium.remote.Response",
    "value": {
        "element-6066-11e4-a52e-4f735466cecf": "ed011b0b-3e9b-44bc-9f73-6ed3ae7c2585"
    },
    "status": 0
}