{
    "value": [
        "Q",
        "A",
        " ",
        "C",
        "a",
        "l",
        "i",
        "b",
        "r",
        "e",
        " ",
        "I",
        "n",
        "v",
        "e",
        "s",
        "t",
        "m",
        "e",
        "n",
        "t",
        " ",
        "M",
        "a",
        "n",
        "a",
        "g",
        "e",
        "m",
        "e",
        "n",
        "t",
        ""
    ],
    "text": "QA Calibre Investment Management"
}