{
    "state": "success",
    "sessionId": null,
    "class": "org.openqa.selenium.remote.Response",
    "value": [
        {
            "element-6066-11e4-a52e-4f735466cecf": "8af0b15e-9873-4148-9114-d5222cea5988"
        }
    ],
    "status": 0
}