{
    "state": "success",
    "sessionId": null,
    "class": "org.openqa.selenium.remote.Response",
    "value": {
        "element-6066-11e4-a52e-4f735466cecf": "7e23093c-2fba-4cf7-9318-5aba49309cc7"
    },
    "status": 0
}