{
    "state": "success",
    "sessionId": null,
    "class": "org.openqa.selenium.remote.Response",
    "value": [
        {
            "element-6066-11e4-a52e-4f735466cecf": "1cf9c1b1-b3d0-4b9f-bdb8-8ef61a9226ea"
        }
    ],
    "status": 0
}