{
    "state": "success",
    "sessionId": null,
    "class": "org.openqa.selenium.remote.Response",
    "value": [
        {
            "element-6066-11e4-a52e-4f735466cecf": "9d96acc2-0693-40e4-b7f4-071d5e3bc71b"
        }
    ],
    "status": 0
}