{
    "state": "success",
    "sessionId": null,
    "class": "org.openqa.selenium.remote.Response",
    "value": {
        "element-6066-11e4-a52e-4f735466cecf": "18d07580-f1ab-42b8-b09e-25f422ba5b8f"
    },
    "status": 0
}