{
    "state": "success",
    "sessionId": null,
    "class": "org.openqa.selenium.remote.Response",
    "value": [
        {
            "element-6066-11e4-a52e-4f735466cecf": "20db56c5-598b-4990-9516-99d26a940645"
        }
    ],
    "status": 0
}