{
    "state": "success",
    "sessionId": null,
    "class": "org.openqa.selenium.remote.Response",
    "value": {
        "element-6066-11e4-a52e-4f735466cecf": "656220f1-f579-455c-b71a-e20ef446520e"
    },
    "status": 0
}