{
    "state": "success",
    "sessionId": null,
    "class": "org.openqa.selenium.remote.Response",
    "value": {
        "element-6066-11e4-a52e-4f735466cecf": "7d5353f7-ff6c-45f4-9e60-54604a78bf42"
    },
    "status": 0
}