{
    "state": "success",
    "sessionId": null,
    "class": "org.openqa.selenium.remote.Response",
    "value": {
        "element-6066-11e4-a52e-4f735466cecf": "1d986b07-40f7-47ca-9f08-268f245620d3"
    },
    "status": 0
}