{
    "state": "success",
    "sessionId": null,
    "class": "org.openqa.selenium.remote.Response",
    "value": [
        {
            "element-6066-11e4-a52e-4f735466cecf": "36a908ef-cce3-4b8a-8c55-be1db4eb0032"
        }
    ],
    "status": 0
}