{
    "state": "success",
    "sessionId": null,
    "class": "org.openqa.selenium.remote.Response",
    "value": [
        {
            "element-6066-11e4-a52e-4f735466cecf": "598ff3a4-61f5-4b1c-954a-cf7d5d460ebd"
        }
    ],
    "status": 0
}