{
    "state": "success",
    "sessionId": null,
    "class": "org.openqa.selenium.remote.Response",
    "value": {
        "element-6066-11e4-a52e-4f735466cecf": "4c75f0f0-a5fd-4da0-9852-241aea754c7b"
    },
    "status": 0
}