{
    "state": "success",
    "sessionId": null,
    "class": "org.openqa.selenium.remote.Response",
    "value": [
        {
            "element-6066-11e4-a52e-4f735466cecf": "37104a81-5ddd-4c31-bddc-48947b2f36f6"
        }
    ],
    "status": 0
}