{
    "state": "success",
    "sessionId": null,
    "class": "org.openqa.selenium.remote.Response",
    "value": {
        "element-6066-11e4-a52e-4f735466cecf": "8ce44de3-e887-4677-9a0c-704af7760884"
    },
    "status": 0
}