{
    "state": "success",
    "sessionId": null,
    "class": "org.openqa.selenium.remote.Response",
    "value": [
        {
            "element-6066-11e4-a52e-4f735466cecf": "59818dab-56d2-4890-a958-78a153eafaee"
        }
    ],
    "status": 0
}