{
    "state": "success",
    "sessionId": null,
    "class": "org.openqa.selenium.remote.Response",
    "value": {
        "element-6066-11e4-a52e-4f735466cecf": "2ff94e13-649b-4bdc-a57d-56e1b6baf5a7"
    },
    "status": 0
}