{
    "state": "success",
    "sessionId": null,
    "class": "org.openqa.selenium.remote.Response",
    "value": [
        {
            "element-6066-11e4-a52e-4f735466cecf": "2568c3a9-6ff3-4a01-bb27-dd468e2bb175"
        }
    ],
    "status": 0
}