{
    "state": "success",
    "sessionId": null,
    "class": "org.openqa.selenium.remote.Response",
    "value": [
        {
            "element-6066-11e4-a52e-4f735466cecf": "f0d78067-4ba3-4d41-9b44-ac06ea9d5002"
        }
    ],
    "status": 0
}