{
    "state": "success",
    "sessionId": null,
    "class": "org.openqa.selenium.remote.Response",
    "value": [
        {
            "element-6066-11e4-a52e-4f735466cecf": "991e527d-de8c-4708-bf1a-bdfde77e088b"
        }
    ],
    "status": 0
}