{
    "state": "success",
    "sessionId": null,
    "class": "org.openqa.selenium.remote.Response",
    "value": [
        "CDwindow-0B1CE580AD4C687B71897C5A07B3A28C",
        "CDwindow-2BB2CE256C8FE2840885107CF685BFDE"
    ],
    "status": 0
}