{
    "state": "success",
    "sessionId": null,
    "class": "org.openqa.selenium.remote.Response",
    "value": [
        {
            "element-6066-11e4-a52e-4f735466cecf": "ea22651d-a472-43b5-8204-6b3030e1406a"
        }
    ],
    "status": 0
}