{
    "value": [
        "t",
        "e",
        "s",
        "t",
        "c",
        "o",
        "m",
        "m",
        "e",
        "n",
        "t",
        "s"
    ],
    "text": "testcomments"
}