{
    "state": "success",
    "sessionId": null,
    "class": "org.openqa.selenium.remote.Response",
    "value": [
        {
            "element-6066-11e4-a52e-4f735466cecf": "881a2a6b-9759-4058-8ae6-63b878a60f7e"
        }
    ],
    "status": 0
}