{
    "state": "success",
    "sessionId": null,
    "class": "org.openqa.selenium.remote.Response",
    "value": {
        "element-6066-11e4-a52e-4f735466cecf": "8188906a-b298-445d-bec0-6ec4989169ac"
    },
    "status": 0
}