{
    "state": "success",
    "sessionId": null,
    "class": "org.openqa.selenium.remote.Response",
    "value": [
        {
            "element-6066-11e4-a52e-4f735466cecf": "75d80cbf-db73-4a78-9da2-42dae78015ab"
        }
    ],
    "status": 0
}