{
    "state": "success",
    "sessionId": null,
    "class": "org.openqa.selenium.remote.Response",
    "value": {
        "element-6066-11e4-a52e-4f735466cecf": "3658cdae-8d03-43af-87b0-33333a708c34"
    },
    "status": 0
}