{
    "state": "success",
    "sessionId": null,
    "class": "org.openqa.selenium.remote.Response",
    "value": {
        "element-6066-11e4-a52e-4f735466cecf": "9175f3e1-30db-4444-acf2-a88615701cdb"
    },
    "status": 0
}