{
    "state": "success",
    "sessionId": null,
    "class": "org.openqa.selenium.remote.Response",
    "value": [
        {
            "element-6066-11e4-a52e-4f735466cecf": "231d4aa0-8b96-442d-80c2-6b21b2f0ed0d"
        }
    ],
    "status": 0
}