{
    "state": "success",
    "sessionId": null,
    "class": "org.openqa.selenium.remote.Response",
    "value": [
        {
            "element-6066-11e4-a52e-4f735466cecf": "fdafa442-1bb6-4528-967f-8076c16a3d17"
        }
    ],
    "status": 0
}