{
    "state": "success",
    "sessionId": null,
    "class": "org.openqa.selenium.remote.Response",
    "value": [
        {
            "element-6066-11e4-a52e-4f735466cecf": "c3070b8e-ecf4-457d-8646-214cef0cc19d"
        }
    ],
    "status": 0
}