{
    "state": "success",
    "sessionId": null,
    "class": "org.openqa.selenium.remote.Response",
    "value": {
        "element-6066-11e4-a52e-4f735466cecf": "6e9960a5-1ff9-4fbb-b862-e27c971c3283"
    },
    "status": 0
}