{
    "state": "success",
    "sessionId": null,
    "class": "org.openqa.selenium.remote.Response",
    "value": {
        "element-6066-11e4-a52e-4f735466cecf": "611fe085-b994-420f-bae9-30d4253400d9"
    },
    "status": 0
}