{
    "state": "success",
    "sessionId": null,
    "class": "org.openqa.selenium.remote.Response",
    "value": [
        {
            "element-6066-11e4-a52e-4f735466cecf": "89383457-f619-4c00-ac77-06857b1d3a33"
        }
    ],
    "status": 0
}