{
    "state": "success",
    "sessionId": null,
    "class": "org.openqa.selenium.remote.Response",
    "value": [
        {
            "element-6066-11e4-a52e-4f735466cecf": "c1c39efd-e189-45b6-9449-2630c510af40"
        }
    ],
    "status": 0
}