{
    "state": "success",
    "sessionId": null,
    "class": "org.openqa.selenium.remote.Response",
    "value": [
        {
            "element-6066-11e4-a52e-4f735466cecf": "8d442128-ab51-4fda-a9bd-e58a4ae8f58f"
        }
    ],
    "status": 0
}