{
    "state": "success",
    "sessionId": null,
    "class": "org.openqa.selenium.remote.Response",
    "value": [
        {
            "element-6066-11e4-a52e-4f735466cecf": "6efd77ac-e90b-486b-917c-a9b06897fcba"
        }
    ],
    "status": 0
}