{
    "state": "success",
    "sessionId": null,
    "class": "org.openqa.selenium.remote.Response",
    "value": {
        "element-6066-11e4-a52e-4f735466cecf": "faaa31fd-9483-4838-a46a-13d2cb9a974d"
    },
    "status": 0
}