{
    "state": "success",
    "sessionId": null,
    "class": "org.openqa.selenium.remote.Response",
    "value": {
        "element-6066-11e4-a52e-4f735466cecf": "4eb5eb64-c748-4ba4-934c-b9813911b456"
    },
    "status": 0
}