{
    "state": "success",
    "sessionId": null,
    "class": "org.openqa.selenium.remote.Response",
    "value": {
        "element-6066-11e4-a52e-4f735466cecf": "422a4ccb-6221-4e19-85db-8e6b5f08057f"
    },
    "status": 0
}