{
    "state": "success",
    "sessionId": null,
    "class": "org.openqa.selenium.remote.Response",
    "value": [
        {
            "element-6066-11e4-a52e-4f735466cecf": "dc75c944-77ac-4511-8301-f0db7d1bcbc1"
        }
    ],
    "status": 0
}