{
    "state": "success",
    "sessionId": null,
    "class": "org.openqa.selenium.remote.Response",
    "value": {
        "element-6066-11e4-a52e-4f735466cecf": "13225e04-7863-43b2-9994-f41787210d4f"
    },
    "status": 0
}