{
    "state": "success",
    "sessionId": null,
    "class": "org.openqa.selenium.remote.Response",
    "value": {
        "element-6066-11e4-a52e-4f735466cecf": "3641b636-e519-45f2-bfd8-cdc3e222bf95"
    },
    "status": 0
}