{
    "state": "success",
    "sessionId": null,
    "class": "org.openqa.selenium.remote.Response",
    "value": {
        "element-6066-11e4-a52e-4f735466cecf": "c3514bf4-f458-45f2-a12e-1a59153816f2"
    },
    "status": 0
}