{
    "state": "success",
    "sessionId": null,
    "class": "org.openqa.selenium.remote.Response",
    "value": {
        "element-6066-11e4-a52e-4f735466cecf": "fdf852e9-c37b-4c6a-81a1-64962af9c392"
    },
    "status": 0
}