{
    "state": "success",
    "sessionId": null,
    "class": "org.openqa.selenium.remote.Response",
    "value": [
        {
            "element-6066-11e4-a52e-4f735466cecf": "8de40e47-7b61-4703-b3b0-54b0ae23a4ff"
        }
    ],
    "status": 0
}