{
    "state": "success",
    "sessionId": null,
    "class": "org.openqa.selenium.remote.Response",
    "value": {
        "element-6066-11e4-a52e-4f735466cecf": "3207884d-1fc0-42b0-9830-1e3bd1f01cff"
    },
    "status": 0
}