{
    "state": "success",
    "sessionId": null,
    "class": "org.openqa.selenium.remote.Response",
    "value": {
        "element-6066-11e4-a52e-4f735466cecf": "74b57db7-3fec-4d27-bb91-1a043b0ffde7"
    },
    "status": 0
}