{
    "state": "success",
    "sessionId": null,
    "class": "org.openqa.selenium.remote.Response",
    "value": {
        "element-6066-11e4-a52e-4f735466cecf": "f7152e9c-f3a2-4a58-bfc2-c4bf3ef4a4c4"
    },
    "status": 0
}