{
    "state": "success",
    "sessionId": null,
    "class": "org.openqa.selenium.remote.Response",
    "value": [
        {
            "element-6066-11e4-a52e-4f735466cecf": "6679f065-97db-4e28-b823-7d716e390027"
        }
    ],
    "status": 0
}