{
    "state": "success",
    "sessionId": null,
    "class": "org.openqa.selenium.remote.Response",
    "value": [
        {
            "element-6066-11e4-a52e-4f735466cecf": "876e82b0-16de-4675-b5b6-f49b3f2b05da"
        }
    ],
    "status": 0
}