{
    "value": [
        "/",
        "v",
        "a",
        "r",
        "/",
        "f",
        "o",
        "l",
        "d",
        "e",
        "r",
        "s",
        "/",
        "9",
        "b",
        "/",
        "w",
        "8",
        "y",
        "x",
        "2",
        "m",
        "m",
        "9",
        "4",
        "g",
        "s",
        "7",
        "g",
        "z",
        "7",
        "t",
        "z",
        "x",
        "6",
        "g",
        "7",
        "p",
        "2",
        "0",
        "0",
        "0",
        "0",
        "0",
        "g",
        "n",
        "/",
        "T",
        "/",
        "1",
        "1",
        "8",
        "7",
        "e",
        "4",
        "2",
        "7",
        "d",
        "a",
        "7",
        "5",
        "3",
        "4",
        "a",
        "f",
        "a",
        "5",
        "6",
        "9",
        "f",
        "6",
        "c",
        "9",
        "6",
        "9",
        "a",
        "e",
        "1",
        "7",
        "f",
        "b",
        "/",
        "u",
        "p",
        "l",
        "o",
        "a",
        "d",
        "1",
        "2",
        "3",
        "9",
        "7",
        "7",
        "8",
        "7",
        "4",
        "5",
        "9",
        "2",
        "1",
        "6",
        "2",
        "6",
        "9",
        "7",
        "1",
        "8",
        "f",
        "i",
        "l",
        "e",
        "/",
        "T",
        "M",
        "D",
        "-",
        "S",
        "t",
        "a",
        "n",
        "d",
        "i",
        "n",
        "g",
        "_",
        "d",
        "a",
        "t",
        "a",
        "_",
        "u",
        "p",
        "d",
        "a",
        "t",
        "e",
        "d",
        ".",
        "x",
        "l",
        "s",
        "x"
    ],
    "text": "/var/folders/9b/w8yx2mm94gs7gz7tzx6g7p200000gn/T/1187e427da7534afa569f6c969ae17fb/upload12397787459216269718file/TMD-Standing_data_updated.xlsx"
}