{
    "state": "success",
    "sessionId": null,
    "class": "org.openqa.selenium.remote.Response",
    "value": {
        "element-6066-11e4-a52e-4f735466cecf": "1d3342f7-3bbf-409f-9c53-8e29f35f5042"
    },
    "status": 0
}