{
    "value": [
        "Q",
        "A",
        " ",
        "A",
        "u",
        "t",
        "o",
        "m",
        "a",
        "t",
        "i",
        "o",
        "n",
        " ",
        "S",
        "F",
        "T",
        "P",
        " ",
        "R",
        "e",
        "c",
        "i",
        "p",
        "i",
        "e",
        "n",
        "t",
        "_",
        "T",
        "M",
        "D"
    ],
    "text": "QA Automation SFTP Recipient_TMD"
}