{
    "state": "success",
    "sessionId": null,
    "class": "org.openqa.selenium.remote.Response",
    "value": {
        "element-6066-11e4-a52e-4f735466cecf": "c4b420dd-3752-477f-b4bb-d423f4bfdb62"
    },
    "status": 0
}