{
    "state": "success",
    "sessionId": null,
    "class": "org.openqa.selenium.remote.Response",
    "value": [
        {
            "element-6066-11e4-a52e-4f735466cecf": "98e980e1-c482-4bfe-a33f-90b4600a2029"
        }
    ],
    "status": 0
}