{
    "state": "success",
    "sessionId": null,
    "class": "org.openqa.selenium.remote.Response",
    "value": {
        "element-6066-11e4-a52e-4f735466cecf": "547b2459-3dac-4c65-9393-e228d6da6421"
    },
    "status": 0
}