{
    "state": "success",
    "sessionId": null,
    "class": "org.openqa.selenium.remote.Response",
    "value": {
        "element-6066-11e4-a52e-4f735466cecf": "c209b56b-d0cf-44cd-a7ee-0425ba908631"
    },
    "status": 0
}