{
    "value": [
        "z",
        "e",
        "i",
        "d",
        "l",
        "e",
        "r",
        ".",
        "s",
        "w",
        "i",
        "f",
        "t",
        ".",
        "q",
        "a",
        "@",
        "z",
        "e",
        "i",
        "d",
        "l",
        "e",
        "r",
        "l",
        "e",
        "g",
        "a",
        "l",
        "s",
        "e",
        "r",
        "v",
        "i",
        "c",
        "e",
        "s",
        ".",
        "c",
        "o",
        "m"
    ],
    "text": "zeidler.swift.qa@zeidlerlegalservices.com"
}