{
    "state": "success",
    "sessionId": null,
    "class": "org.openqa.selenium.remote.Response",
    "value": [
        {
            "element-6066-11e4-a52e-4f735466cecf": "adfa9181-477f-41a0-a744-f6062080710a"
        }
    ],
    "status": 0
}