{
    "state": "success",
    "sessionId": null,
    "class": "org.openqa.selenium.remote.Response",
    "value": [
        {
            "element-6066-11e4-a52e-4f735466cecf": "ae0ef47a-6a26-43b5-bb46-16b28d412738"
        }
    ],
    "status": 0
}