{
    "state": "success",
    "sessionId": null,
    "class": "org.openqa.selenium.remote.Response",
    "value": {
        "element-6066-11e4-a52e-4f735466cecf": "aff5da5e-763c-4617-9085-29a10c1eb73f"
    },
    "status": 0
}