{
    "state": "success",
    "sessionId": null,
    "class": "org.openqa.selenium.remote.Response",
    "value": {
        "element-6066-11e4-a52e-4f735466cecf": "dabadfa3-a358-4132-83f8-188c2c3fd92a"
    },
    "status": 0
}