{
    "state": "success",
    "sessionId": null,
    "class": "org.openqa.selenium.remote.Response",
    "value": {
        "element-6066-11e4-a52e-4f735466cecf": "ba745729-84d2-48b3-8479-6377ec6082f6"
    },
    "status": 0
}