{
    "state": "success",
    "sessionId": null,
    "class": "org.openqa.selenium.remote.Response",
    "value": {
        "element-6066-11e4-a52e-4f735466cecf": "e6aa756e-708c-4101-82f5-9fe6f72d2d21"
    },
    "status": 0
}