{
    "state": "success",
    "sessionId": null,
    "class": "org.openqa.selenium.remote.Response",
    "value": {
        "element-6066-11e4-a52e-4f735466cecf": "b8b2ffd2-4282-4f99-9df2-6ba3f7951e80"
    },
    "status": 0
}