{
    "state": "success",
    "sessionId": null,
    "class": "org.openqa.selenium.remote.Response",
    "value": {
        "element-6066-11e4-a52e-4f735466cecf": "c8065ffb-e824-4e6c-af1b-e924443bdebb"
    },
    "status": 0
}