{
    "state": "success",
    "sessionId": null,
    "class": "org.openqa.selenium.remote.Response",
    "value": [
        {
            "element-6066-11e4-a52e-4f735466cecf": "f189ea95-2e79-468d-8ec5-3c48586e4baf"
        }
    ],
    "status": 0
}