{
    "state": "success",
    "sessionId": null,
    "class": "org.openqa.selenium.remote.Response",
    "value": {
        "element-6066-11e4-a52e-4f735466cecf": "0cc8a7e2-530c-4cd3-b3f0-d8d365842361"
    },
    "status": 0
}