{
    "state": "success",
    "sessionId": null,
    "class": "org.openqa.selenium.remote.Response",
    "value": [
        {
            "element-6066-11e4-a52e-4f735466cecf": "53e825cc-70ff-4e70-8ee1-311333c48448"
        }
    ],
    "status": 0
}