{
    "state": "success",
    "sessionId": null,
    "class": "org.openqa.selenium.remote.Response",
    "value": {
        "element-6066-11e4-a52e-4f735466cecf": "fe92af7d-5bcc-4194-89fc-4aee3622f774"
    },
    "status": 0
}