{
    "state": "success",
    "sessionId": null,
    "class": "org.openqa.selenium.remote.Response",
    "value": {
        "element-6066-11e4-a52e-4f735466cecf": "0c508c73-37dc-4b2a-b163-2ed162457897"
    },
    "status": 0
}