{
    "state": "success",
    "sessionId": null,
    "class": "org.openqa.selenium.remote.Response",
    "value": [
        {
            "element-6066-11e4-a52e-4f735466cecf": "3946e1f0-fb5d-472b-a33c-a33bcdeeb804"
        }
    ],
    "status": 0
}