{
    "state": "success",
    "sessionId": null,
    "class": "org.openqa.selenium.remote.Response",
    "value": [
        {
            "element-6066-11e4-a52e-4f735466cecf": "c3742af3-0cbe-4be6-ba97-566c3259de2e"
        }
    ],
    "status": 0
}