{
    "state": "success",
    "sessionId": null,
    "class": "org.openqa.selenium.remote.Response",
    "value": {
        "element-6066-11e4-a52e-4f735466cecf": "cbbfa5ed-2c5d-43be-96f7-5aa19f9f2dac"
    },
    "status": 0
}