{
    "state": "success",
    "sessionId": null,
    "class": "org.openqa.selenium.remote.Response",
    "value": {
        "element-6066-11e4-a52e-4f735466cecf": "0dd1766e-087a-4a6a-9e2b-2a5ed0bf3eba"
    },
    "status": 0
}