{
    "state": "success",
    "sessionId": null,
    "class": "org.openqa.selenium.remote.Response",
    "value": [
        {
            "element-6066-11e4-a52e-4f735466cecf": "f2b32a15-f782-4128-b33c-d7607abd081d"
        }
    ],
    "status": 0
}