{
    "state": "success",
    "sessionId": null,
    "class": "org.openqa.selenium.remote.Response",
    "value": {
        "element-6066-11e4-a52e-4f735466cecf": "9cd5baf1-2acf-4d89-90d7-6a51860f39d4"
    },
    "status": 0
}