{
    "state": "success",
    "sessionId": null,
    "class": "org.openqa.selenium.remote.Response",
    "value": {
        "element-6066-11e4-a52e-4f735466cecf": "eb695e09-e35c-440b-8677-11f5c751a25d"
    },
    "status": 0
}