{
    "state": "success",
    "sessionId": null,
    "class": "org.openqa.selenium.remote.Response",
    "value": {
        "element-6066-11e4-a52e-4f735466cecf": "139c7c54-bd0f-4b15-bbcb-75d496df6ec7"
    },
    "status": 0
}