{
    "state": "success",
    "sessionId": null,
    "class": "org.openqa.selenium.remote.Response",
    "value": {
        "element-6066-11e4-a52e-4f735466cecf": "bb508f0e-e7a9-49c0-8738-d7485ca73ff3"
    },
    "status": 0
}