{
    "state": "success",
    "sessionId": null,
    "class": "org.openqa.selenium.remote.Response",
    "value": [
        {
            "element-6066-11e4-a52e-4f735466cecf": "0acae081-78f9-4e9c-8f74-a2520f422252"
        }
    ],
    "status": 0
}