{
    "state": "success",
    "sessionId": null,
    "class": "org.openqa.selenium.remote.Response",
    "value": {
        "element-6066-11e4-a52e-4f735466cecf": "0b5daf0c-6088-4706-b157-39af977ccea4"
    },
    "status": 0
}