{
    "state": "success",
    "sessionId": null,
    "class": "org.openqa.selenium.remote.Response",
    "value": {
        "element-6066-11e4-a52e-4f735466cecf": "6b0ba6ca-6d3d-4c48-aae7-4df113d62a1a"
    },
    "status": 0
}