{
    "state": "success",
    "sessionId": null,
    "class": "org.openqa.selenium.remote.Response",
    "value": [
        {
            "element-6066-11e4-a52e-4f735466cecf": "041b09b0-20fc-4ec4-a804-445247fdded9"
        }
    ],
    "status": 0
}