{
    "state": "success",
    "sessionId": null,
    "class": "org.openqa.selenium.remote.Response",
    "value": {
        "element-6066-11e4-a52e-4f735466cecf": "b61f2927-3df9-42a6-88d0-5295388481c9"
    },
    "status": 0
}