{
    "state": "success",
    "sessionId": null,
    "class": "org.openqa.selenium.remote.Response",
    "value": {
        "element-6066-11e4-a52e-4f735466cecf": "46285f11-9ed7-421c-8aa7-fb02f707f590"
    },
    "status": 0
}