{
    "state": "success",
    "sessionId": null,
    "class": "org.openqa.selenium.remote.Response",
    "value": {
        "element-6066-11e4-a52e-4f735466cecf": "a8a66071-fde3-4e47-b4a9-cfc337aeb4f8"
    },
    "status": 0
}