{
    "state": "success",
    "sessionId": null,
    "class": "org.openqa.selenium.remote.Response",
    "value": {
        "element-6066-11e4-a52e-4f735466cecf": "0c1c1643-c2e5-4429-90f2-4c596d4534df"
    },
    "status": 0
}