{
    "state": "success",
    "sessionId": null,
    "class": "org.openqa.selenium.remote.Response",
    "value": [
        {
            "element-6066-11e4-a52e-4f735466cecf": "ef94ea50-de50-4170-8f84-338da626d99b"
        }
    ],
    "status": 0
}