{
    "state": "success",
    "sessionId": null,
    "class": "org.openqa.selenium.remote.Response",
    "value": {
        "element-6066-11e4-a52e-4f735466cecf": "6c87f537-e084-411a-b644-970c0fc4ffec"
    },
    "status": 0
}