{
    "state": "success",
    "sessionId": null,
    "class": "org.openqa.selenium.remote.Response",
    "value": {
        "element-6066-11e4-a52e-4f735466cecf": "df2a6c71-2b75-4916-8cad-0a031be3f2ff"
    },
    "status": 0
}